Parameters: seed=625420886, s1=0.001000, s2=0.001000, s3=0.001000, s4=0.001000, e12=-0.200000, e13=0.000000, e14=0.000000, e23=0.000000, e24=0.000000, e34=-0.200000, r12=0.170000, r23=0.170000, r34=0.170000, h12=1, h13=1, h14=1, h23=1, h24=1, h34=1 , n_gen=10000000, n_ind=10000 initial freq: 0.000000 0.000000 0.000000 0.000000 0.000000 0.500000 0.000000 0.000000 0.000000 0.000000 0.500000 0.000000 0.000000 0.000000 0.000000 0.000000
0 116 1 6038 1 4173 0 134
0 165 0 7393 1 2206 0 74
0 105 1 5383 1 5616 0 122
0 87 1 4369 1 6811 0 308
0 107 1 5231 0 687 0 298
0 96 1 6480 1 5303 0 256
0 78 1 2856 1 4805 0 105
0 99 1 5535 1 2967 0 110
0 132 1 8018 1 6030 0 95
0 101 1 5377 1 3076 0 112
0 87 1 3276 1 2826 0 97
0 277 1 4749 1 4110 0 91
0 93 1 5553 1 7181 0 217
0 166 0 1852 1 8085 0 83
0 154 0 704 1 7726 0 87
0 190 1 4280 1 6328 0 78
0 106 1 3219 1 3293 0 86
0 75 1 7724 1 12267 0 115
0 127 1 5434 1 4702 0 89
0 75 1 4007 1 2386 0 112
0 109 1 5465 1 4404 0 98
0 70 1 7403 1 9350 0 144
0 89 1 4490 1 4379 0 85
0 96 1 5011 1 6313 0 189
1 5954 0 271 1 3561 0 50
0 114 1 5268 1 4933 0 102
0 116 1 3677 1 5057 0 96
0 87 1 4398 1 4434 0 101
0 89 1 3688 1 4560 0 113
0 152 1 5125 1 7072 0 105
0 111 1 2257 1 6746 0 195
0 77 1 4873 1 4520 0 73
0 127 1 3457 1 4773 0 63
0 105 1 5731 1 4897 0 75
0 66 1 4132 1 2679 0 170
0 67 1 4918 1 4176 0 98
0 79 1 8089 0 283 1 8664
0 99 1 7527 1 3064 0 107
0 68 1 5103 1 4164 0 91
0 87 1 2978 1 3273 0 136
0 113 1 4237 1 3158 0 105
0 88 1 5631 1 4291 0 100
0 837 0 237 1 6195 0 63
0 114 1 3790 0 4533 0 352
0 75 1 3119 0 5096 0 124
0 93 1 3615 1 3204 0 112
0 137 1 2844 1 7148 0 97
0 89 1 4496 0 2323 0 130
0 254 1 5949 1 3980 0 72
0 64 1 4858 1 7052 0 122
0 63 1 7343 1 4590 0 129
0 104 1 7950 1 5024 0 137
0 61 1 3000 1 3202 0 219
0 150 1 10729 1 6703 0 65
0 138 1 7873 1 3391 0 106
0 111 1 5189 1 4564 0 156
0 85 1 8645 1 3877 0 128
0 89 1 4175 1 11419 0 160
0 131 1 4831 1 4154 0 119
0 85 1 2553 1 10079 0 228
0 144 1 6002 1 5660 0 236
0 101 1 4331 0 1195 0 261
0 88 1 10948 1 2501 0 82
0 79 1 6239 1 4313 0 159
0 836 0 160 1 4015 0 74
0 108 1 7498 1 6193 0 87
0 150 1 3942 1 9098 0 80
0 115 1 3531 1 4825 0 102
0 106 1 2598 1 2638 0 76
0 120 1 4917 0 227 1 3195
0 217 1 7893 1 4310 0 98
0 84 1 7079 1 5549 0 187
0 79 1 6023 1 4251 0 237
0 74 1 5304 1 6494 0 155
0 145 1 4576 1 3140 0 55
0 145 1 4977 1 5415 0 136
0 125 1 4340 1 3371 0 135
0 75 1 4999 1 3749 0 104
0 93 1 10348 1 4864 0 120
0 84 1 7061 1 4776 0 91
0 73 1 6412 1 6183 0 183
0 74 1 4317 1 5319 0 431
0 105 1 5120 0 3832 0 239
0 106 1 3260 1 4753 0 69
0 101 1 4425 1 6258 0 91
0 96 1 7864 0 1276 0 257
0 75 1 2324 1 8745 0 250
0 90 1 3750 0 457 1 8106
0 146 1 4512 1 4722 0 95
0 47 1 7033 0 226 0 2213
0 64 1 2950 0 2494 0 269
0 82 1 7644 0 1707 0 144
0 104 1 5099 1 5662 0 213
0 66 1 2586 1 5916 0 221
0 82 1 3773 1 4872 0 118
0 80 1 5355 1 2867 0 113
0 101 1 7231 1 4950 0 132
0 62 1 2678 0 1064 0 199
0 66 1 3974 1 4226 0 89
0 127 1 5806 1 7883 0 146
0 81 1 4996 1 4521 0 78
0 218 1 4509 1 6451 0 117
0 107 1 4256 1 6519 0 115
0 84 1 7751 1 3987 0 78
0 84 1 4332 0 2999 0 165
0 188 1 6598 1 6875 0 134
0 107 1 3447 1 4915 0 180
0 89 1 2471 1 4477 0 98
0 77 1 4403 1 6546 0 163
0 105 1 5470 1 5778 0 89
0 125 1 6702 1 6588 0 89
0 214 1 6340 1 1861 0 60
0 175 1 9618 1 3299 0 80
0 105 1 5476 1 6727 0 102
0 59 1 2393 1 2291 0 135
0 143 1 3930 1 3895 0 102
0 89 1 7729 1 5515 0 115
0 97 1 7404 1 4093 0 88
0 140 1 5141 1 6312 0 104
0 73 1 5548 1 3495 0 128
0 153 1 4071 1 5733 0 124
0 124 1 6268 1 3814 0 90
0 112 1 4460 1 7942 0 114
0 164 1 5851 1 4573 0 172
0 119 1 4089 1 5027 0 138
0 135 1 6168 1 4357 0 64
0 148 1 6089 1 8474 0 140
0 120 1 5746 1 4996 0 142
0 131 1 8659 1 6250 0 84
0 394 0 637 1 2870 0 85
0 82 1 5444 1 4347 0 180
0 101 1 5180 1 3393 0 148
0 185 1 6718 1 6278 0 61
0 69 1 7113 1 6470 0 141
0 169 1 4242 1 6707 0 72
0 88 1 6556 1 4207 0 96
0 330 1 6067 1 5709 0 68
0 75 1 8518 1 7826 0 214
0 66 1 3159 1 5495 0 344
0 93 1 3216 1 6058 0 133
0 69 1 2698 1 5076 0 126
0 188 1 5659 1 4062 0 83
0 124 1 3643 1 7334 0 63
0 91 1 3615 1 7603 0 116
0 139 1 6018 1 4986 0 126
0 154 1 8753 1 6981 0 141
0 140 1 3792 1 6943 0 90
0 121 1 5076 1 5220 0 119
0 88 1 5016 1 4240 0 263
0 415 0 360 1 4206 0 57
0 150 1 11302 1 3834 0 66
0 113 1 3126 1 2503 0 76
0 103 1 4680 1 5455 0 99
0 136 1 5950 1 5027 0 88
0 90 1 4915 1 5145 0 111
0 107 1 6830 1 4536 0 120
0 80 1 3831 1 3711 0 164
0 111 1 6526 1 3628 0 122
0 85 1 7883 0 772 0 290
0 185 1 6316 1 5544 0 87
0 64 1 5446 1 2795 0 226
0 83 1 5753 1 5371 0 82
0 117 1 10690 1 6211 0 88
0 73 1 3330 1 3440 0 108
0 104 1 5864 1 2822 0 103
0 110 1 5497 1 4355 0 157
0 112 1 5714 1 5939 0 100
0 132 1 7256 1 4660 0 83
0 77 1 5067 1 7982 0 175
0 102 1 4409 1 9360 0 149
0 126 1 4090 1 4772 0 67
0 75 1 4690 1 6064 0 366
0 96 1 5555 1 3999 0 107
1 4959 0 163 1 7393 0 114
0 206 0 2132 1 2654 0 93
0 173 1 6253 1 4802 0 81
0 76 1 3626 1 9958 0 187
0 60 1 4980 1 10084 0 169
0 134 1 3645 1 4314 0 72
1 7137 0 318 1 2157 0 84
0 113 1 4863 1 3682 0 81
0 282 1 6726 1 3540 0 68
0 126 1 4947 1 5435 0 215
0 82 1 6557 1 4109 0 106
0 86 1 5958 0 643 0 3771
0 111 1 9261 1 4239 0 87
0 83 1 3498 1 5775 0 448
0 103 1 3675 1 8842 0 219
0 169 1 8952 1 5396 0 81
0 160 1 4857 1 2489 0 70
0 162 1 4647 1 3335 0 122
0 1619 0 282 1 2728 0 89
0 100 1 4732 1 5330 0 74
0 76 1 5009 0 301 1 3686
0 311 1 7041 1 2963 0 71
0 100 1 7813 1 4388 0 75
0 78 1 7397 1 4664 0 131
0 84 1 5677 1 5203 0 138
0 66 1 5694 0 569 0 706
0 557 0 428 1 2655 0 75
0 102 1 3913 1 2581 0 108
0 238 1 6643 1 2170 0 88
0 93 1 7834 1 3595 0 169
0 99 1 5228 1 7592 0 163
0 69 1 2628 1 5119 0 159
0 120 1 6752 1 2809 0 73
0 148 1 8538 1 4664 0 89
0 588 1 5348 1 3796 0 81
0 85 1 4741 1 3633 0 88
0 137 1 4964 1 6294 0 232
0 124 1 6082 1 3799 0 88
0 82 1 4451 1 5753 0 124
0 98 1 6894 1 9862 0 93
0 110 1 8693 1 9862 0 95
0 76 1 4348 1 5013 0 142
0 61 1 3311 1 5506 0 196
0 71 1 6441 1 1761 0 108
0 100 1 4105 1 4808 0 58
0 113 1 3940 1 2534 0 100
0 94 1 4031 1 5103 0 139
0 170 0 1007 1 4337 0 67
0 97 1 5266 1 5279 0 148
0 148 1 4438 1 7954 0 122
0 139 1 6654 1 3283 0 136
1 6712 0 140 1 2746 0 56
0 826 0 668 1 5581 0 75
0 181 1 5626 1 6449 0 101
0 90 1 7066 1 6019 0 250
0 365 0 3585 1 5855 0 88
0 106 1 6856 1 4257 0 79
0 86 1 3616 1 4957 0 95
0 78 1 3791 1 7533 0 146
0 92 1 2283 1 3991 0 77
0 79 1 4500 1 7233 0 145
0 159 1 2396 1 3222 0 96
0 129 1 4740 1 3071 0 88
0 140 1 2847 0 759 0 279
0 125 1 4341 1 3750 0 85
0 123 1 8418 1 5166 0 83
0 90 1 3039 1 2413 0 184
0 99 1 2540 1 4154 0 94
0 102 1 6415 1 10562 0 185
0 69 1 3551 1 7219 0 278
0 80 1 2815 1 7694 0 193
0 202 1 5709 1 3501 0 92
0 121 1 3471 1 3932 0 76
0 129 1 4265 1 2893 0 86
1 4639 0 252 1 8244 0 89
0 91 1 5751 1 4712 0 162
0 92 1 4488 1 4998 0 144
0 91 1 4726 1 6606 0 153
0 83 1 6777 1 6116 0 155
0 108 1 4641 1 10053 0 135
0 88 1 4823 1 7269 0 91
0 96 1 6543 1 4625 0 72
0 225 1 4724 1 2915 0 60
0 244 1 5901 1 4760 0 64
0 119 1 7148 1 9247 0 76
0 100 1 6193 1 3489 0 70
0 114 1 7245 1 4956 0 84
0 114 1 5313 0 881 0 156
1 4335 0 223 1 3688 0 57
0 85 1 4741 1 6137 0 79
0 89 1 3705 1 5634 0 125
0 159 1 7958 1 4641 0 79
0 82 1 6133 1 4503 0 138
0 111 1 5109 1 3708 0 107
0 101 1 4691 1 4252 0 101
0 116 1 4477 1 7147 0 108
0 80 1 2961 0 1435 0 297
0 133 1 4065 0 227 1 6932
0 97 1 4308 1 5202 0 68
0 87 1 3083 1 4247 0 109
0 366 0 1294 1 3516 0 88
0 212 1 10630 1 6480 0 117
0 168 1 9756 1 4653 0 103
0 98 1 3649 1 6487 0 119
0 289 1 7319 1 4257 0 86
0 78 1 6429 1 5862 0 135
0 64 1 4519 0 363 0 940
0 94 1 3239 1 5850 0 89
0 167 1 3614 1 2421 0 76
0 133 1 2681 1 3002 0 90
0 124 1 7967 1 5082 0 126
0 163 1 3721 1 4023 0 79
0 72 1 5173 0 283 0 291
0 144 1 7405 1 5040 0 89
0 87 1 4053 0 195 1 4612
0 174 1 7818 1 4384 0 83
0 107 1 4380 1 3202 0 107
0 175 0 627 1 4307 0 77
0 138 1 3564 1 7842 0 235
0 155 1 4758 1 4128 0 80
0 167 1 7599 1 4110 0 105
0 80 1 12454 1 7998 0 87
0 115 1 4692 1 2721 0 88
0 164 1 5928 1 2847 0 95
0 113 1 3620 1 5904 0 91
0 70 1 3404 0 839 0 434
0 76 1 7970 1 7565 0 104
0 77 1 5092 1 6944 0 148
0 102 1 5566 1 4719 0 96
0 110 1 7673 1 5925 0 81
0 112 1 4552 0 801 0 223
0 134 1 4415 1 5656 0 90
0 69 1 4525 1 8944 0 254
0 110 1 3683 1 5497 0 140
0 95 1 6813 1 6455 0 154
0 129 1 3905 1 5716 0 134
0 108 1 4186 1 4850 0 90
0 142 1 3386 1 6107 0 138
0 99 1 3487 1 9317 0 148
0 87 1 2941 1 6885 0 147
0 101 1 3638 0 2842 0 335
0 214 1 8931 1 3157 0 75
0 117 1 4251 1 6814 0 83
0 118 1 5734 1 11179 0 85
0 102 1 4564 1 9111 0 97
0 111 0 1953 1 3779 0 117
0 78 1 7526 1 5048 0 102
0 211 0 3528 1 7645 0 71
0 118 1 6776 1 4950 0 89
0 88 1 4768 1 6791 0 117
0 99 1 2650 1 9775 0 98
0 70 1 3244 1 6120 0 125
0 102 1 4169 1 6082 0 94
0 586 0 474 1 3449 0 69
0 102 1 3725 1 6446 0 79
0 98 1 3359 1 6834 0 162
0 92 1 7116 1 4740 0 123
0 1876 0 155 1 3513 0 72
0 131 1 4257 1 8229 0 156
0 69 1 3865 1 7447 0 142
0 169 1 5466 1 6577 0 125
0 97 1 6073 1 8921 0 311
0 84 1 4455 1 7581 0 91
0 102 1 4785 1 6163 0 83
0 99 1 4184 1 6633 0 61
0 81 1 5359 1 4098 0 121
0 98 1 8697 1 14564 0 99
0 80 1 2917 1 5099 0 129
0 95 1 4638 1 4104 0 78
0 90 1 2460 1 4633 0 144
0 119 1 3819 1 4339 0 77
1 4801 0 254 1 6309 0 59
0 99 1 4391 1 6079 0 104
0 133 1 5352 1 4673 0 130
0 119 0 2084 1 8921 0 114
0 108 1 4682 1 6088 0 102
0 1303 0 932 1 3333 0 79
0 179 1 4887 1 7222 0 115
0 103 1 3123 1 8507 0 120
0 66 1 4143 1 5442 0 224
0 75 1 6763 0 6682 0 150
0 224 0 2568 1 4585 0 72
0 68 1 2680 1 3961 0 148
0 106 1 5978 1 3687 0 88
0 106 1 4273 1 10652 0 180
0 102 1 2283 1 6825 0 97
0 101 1 3933 1 3924 0 159
0 143 1 5431 1 3409 0 156
0 66 1 3880 1 3567 0 107
0 67 1 3524 1 3280 0 111
0 135 1 9321 1 5111 0 72
0 68 1 3132 1 3708 0 126
0 95 1 7377 1 3668 0 128
0 80 1 4779 1 4696 0 124
0 89 1 2053 1 7023 0 85
0 95 1 3290 1 5695 0 115
0 89 1 2938 1 10029 0 138
0 404 0 648 1 6602 0 123
0 142 1 3540 1 4411 0 74
0 99 1 7431 1 4058 0 110
0 229 1 3554 1 3343 0 98
0 66 1 3866 1 11698 0 169
0 254 0 1147 1 6473 0 74
0 182 1 6322 1 7084 0 148
0 140 1 4264 1 3317 0 88
0 66 1 7313 1 3275 0 142
0 79 1 6482 1 5738 0 145
0 594 0 384 1 3564 0 109
0 55 1 4685 1 5505 0 232
0 135 1 5880 1 5818 0 150
0 107 1 4956 1 4077 0 174
0 103 1 5884 1 4132 0 117
0 126 1 7714 1 5675 0 105
0 204 0 666 1 3474 0 153
0 123 1 3325 1 5170 0 123
0 81 1 4513 1 7232 0 189
0 167 1 5325 1 6781 0 95
0 64 1 5684 1 10439 0 189
0 247 0 1360 1 5164 0 88
0 89 1 4945 1 2287 0 78
0 162 1 3444 1 3932 0 97
0 158 1 5203 1 4867 0 93
0 84 1 5584 1 4142 0 132
0 130 1 8137 1 9834 0 77
0 145 1 5923 1 12176 0 100
0 107 1 5336 1 6487 0 77
0 114 1 10440 1 5278 0 145
0 63 1 6949 1 9197 0 218
0 117 1 2070 1 5468 0 145
0 113 1 4726 1 5327 0 72
0 129 1 3445 1 6360 0 82
0 80 1 3410 0 975 0 134
0 148 1 8588 1 5093 0 77
0 82 1 4376 1 8913 0 139
0 123 1 4974 0 1571 0 134
0 105 1 7755 1 4501 0 123
0 77 1 3411 0 183 1 8888
0 108 1 4037 1 2586 0 116
0 215 0 1801 1 3173 0 83
0 73 1 9137 1 4686 0 120
0 83 1 2292 0 192 1 4864
0 88 1 4930 1 3455 0 128
0 151 1 3303 1 3353 0 101
0 74 1 2095 1 5738 0 134
0 60 1 3590 1 4309 0 113
0 95 1 3317 1 6480 0 152
0 125 1 2433 1 7801 0 183
0 115 1 5164 1 5536 0 100
1 8924 0 244 1 5395 0 92
0 75 1 3978 1 5978 0 153
0 151 1 7284 1 6794 0 106
0 124 1 5198 0 2014 0 101
0 88 1 6971 1 3134 0 69
0 120 1 4545 1 5316 0 78
0 140 1 8074 1 5832 0 91
0 146 1 4701 1 6575 0 76
0 247 1 4288 1 4072 0 80
0 130 1 7314 1 6406 0 103
0 76 1 3397 1 8600 0 344
0 121 1 3922 1 4737 0 102
0 99 1 3729 0 223 0 787
0 185 1 6117 1 6494 0 101
0 78 1 5877 0 420 0 398
1 5405 0 180 1 2397 0 65
0 247 0 1119 1 2481 0 88
0 551 0 776 1 3777 0 86
0 130 1 6832 1 2982 0 170
0 110 1 6681 1 7161 0 104
0 324 0 444 1 4008 0 70
0 112 1 3076 1 6429 0 79
0 76 1 9670 1 5619 0 227
0 167 1 9273 1 5146 0 69
0 74 1 4461 0 365 1 7958
0 94 1 3320 1 4581 0 102
0 85 1 3411 1 3657 0 110
0 98 1 6153 1 7444 0 126
0 79 1 2726 1 4656 0 142
0 186 1 6627 1 4980 0 112
0 240 1 7852 1 4934 0 86
0 101 1 4453 1 3990 0 69
0 132 1 4041 1 5106 0 106
0 100 1 3057 1 4187 0 100
0 135 1 3877 1 3080 0 99
0 83 1 3121 1 4005 0 190
0 122 1 7020 1 3288 0 199
0 78 1 3277 0 2461 0 278
0 211 1 4433 1 4356 0 76
0 80 1 3613 0 4168 0 106
0 124 1 4991 1 3095 0 81
0 176 1 3804 1 4826 0 118
0 90 1 5054 1 3996 0 124
0 88 1 4510 1 5073 0 107
0 83 1 5109 1 3410 0 299
0 199 1 6731 1 3397 0 70
0 155 1 3176 1 3312 0 100
0 70 1 5437 1 4224 0 141
0 249 0 1176 1 4660 0 67
0 419 1 6084 1 7281 0 79
0 215 1 4981 1 4536 0 77
0 150 1 6249 1 8046 0 114
0 66 1 6588 1 7193 0 274
0 85 1 3487 0 256 0 2131
0 86 1 4234 1 6090 0 105
0 133 1 3870 1 8860 0 89
0 95 1 3852 1 3594 0 91
0 247 0 518 1 4170 0 63
0 85 1 3443 1 5687 0 130
0 92 1 3915 1 9335 0 80
0 116 1 3054 1 7903 0 127
0 86 1 7156 1 4622 0 183
0 80 1 3432 1 8118 0 168
0 126 1 5528 1 6030 0 161
0 185 1 4765 1 3210 0 93
0 150 1 7463 1 3765 0 100
0 177 1 6172 1 4290 0 72
0 105 1 9665 1 10777 0 147
0 159 1 4775 1 5527 0 126
0 210 1 6890 1 8496 0 88
0 76 1 3050 1 7382 0 170
0 111 1 5893 1 3298 0 76
0 284 1 7102 1 3994 0 72
0 147 1 4717 1 10802 0 122
0 118 1 4246 1 5399 0 179
0 83 1 7134 1 4309 0 94
0 63 1 8133 0 142 0 1309
0 146 1 9279 1 4120 0 98
0 92 1 4828 1 4697 0 95
0 212 1 8293 1 7548 0 67
0 143 1 3426 1 3466 0 84
0 95 1 5360 1 5631 0 155
0 112 1 4344 1 3033 0 75
0 145 1 4399 1 4500 0 106
0 145 1 7885 1 3962 0 87
0 99 1 3383 0 1093 0 137
0 99 1 3178 1 4298 0 96
1 6419 0 371 1 3868 0 66
0 88 1 4963 1 3208 0 76
1 7693 0 169 1 2803 0 85
0 75 1 3256 1 4033 0 269
0 92 1 5666 1 6515 0 123
0 125 1 6214 1 8260 0 342
0 106 1 4197 1 5882 0 97
0 71 1 4339 0 1456 0 187
0 90 1 4451 0 558 0 1436
0 91 1 3212 1 5480 0 153
0 165 1 5651 1 4772 0 133
0 95 1 5554 1 4430 0 82
0 104 1 2954 1 5063 0 98
0 128 1 4649 1 5163 0 88
0 99 1 7598 1 6390 0 111
0 128 1 4841 1 4076 0 146
0 104 1 6271 1 4037 0 100
0 171 1 6367 1 4340 0 81
0 221 1 5596 1 6542 0 184
0 107 1 2791 1 5008 0 141
0 114 1 3053 1 2055 0 89
0 125 1 7597 1 6507 0 130
0 77 1 4460 1 4770 0 237
0 115 1 3695 1 3081 0 174
0 117 1 2646 1 3958 0 72
0 74 1 7640 1 7151 0 127
0 80 1 2694 1 5881 0 140
0 138 1 10227 1 5020 0 147
0 87 1 4836 1 3693 0 91
0 135 1 9648 1 4913 0 141
0 168 1 7123 1 6917 0 113
0 148 1 7214 1 3926 0 83
0 94 1 2870 1 7498 0 99
0 111 1 7275 1 4735 0 80
0 103 1 5599 1 9872 0 131
0 127 1 8137 1 3192 0 112
0 73 1 6118 1 7287 0 111
0 63 1 4019 0 278 1 6300
0 67 1 9977 1 5926 0 134
0 187 1 4883 1 2274 0 102
0 87 1 3546 1 5155 0 110
0 92 1 4528 1 6939 0 134
0 233 1 7678 1 3502 0 71
0 136 1 8197 1 4068 0 92
0 215 1 3612 1 7002 0 78
0 102 1 4053 1 2595 0 72
0 106 0 1513 1 6914 0 87
1 9974 0 259 1 5142 0 62
0 116 1 5061 1 3664 0 103
0 154 1 2739 1 4676 0 109
0 69 1 2136 1 9275 0 153
0 93 1 9036 1 3414 0 67
0 119 1 8830 1 3269 0 92
0 96 1 6520 1 5612 0 171
0 129 1 5546 1 3519 0 100
0 45 1 4489 0 180 1 4574
0 73 1 3577 1 5222 0 214
0 122 1 4459 1 4852 0 115
0 114 1 2676 1 4016 0 152
0 107 1 6203 1 2175 0 83
0 1428 0 682 1 4414 0 68
0 67 1 3842 1 7001 0 202
0 121 1 5817 1 3602 0 125
0 132 1 3705 0 4318 0 243
0 116 1 3736 1 7901 0 94
0 93 1 2948 1 4687 0 240
0 139 1 11019 1 3228 0 72
0 196 1 12765 1 4694 0 66
0 84 1 4134 1 7460 0 97
0 62 1 4083 1 3299 0 141
0 66 1 5153 0 267 1 6893
0 116 1 3520 1 2329 0 84
0 236 1 5420 1 6198 0 73
0 110 1 3313 1 6554 0 72
0 90 1 7570 1 4273 0 111
0 234 1 3412 1 3789 0 65
0 113 1 7063 1 3815 0 158
0 105 1 4060 1 5834 0 183
0 66 1 3836 1 4066 0 156
0 68 1 2191 1 4380 0 108
0 87 1 4909 0 399 0 348
0 135 0 2380 1 2905 0 105
0 70 1 3794 1 5168 0 170
0 81 1 7373 1 4108 0 137
0 78 1 2090 0 587 0 253
0 81 1 5161 1 5339 0 129
0 94 1 4404 1 4359 0 178
0 81 1 3794 1 5620 0 117
0 119 1 7423 1 3820 0 99
0 118 1 5803 1 7352 0 117
0 94 1 3328 1 6222 0 129
0 443 1 7962 1 4741 0 67
0 89 1 2840 1 4529 0 187
0 153 1 7357 1 3793 0 81
0 123 1 7029 1 5648 0 112
0 138 1 4127 1 7184 0 131
0 71 1 3300 1 4623 0 170
0 105 1 6732 1 7223 0 108
0 174 1 9304 1 5223 0 68
0 59 0 5799 1 7789 0 142
0 106 1 3545 1 7399 0 100
0 89 1 6043 1 3698 0 110
0 166 1 11197 1 6568 0 90
0 92 1 4297 1 7154 0 116
0 122 1 3129 1 4449 0 119
0 387 1 5926 1 3757 0 70
0 83 1 4092 1 10105 0 124
0 130 1 5050 1 4159 0 118
0 73 1 1951 0 255 0 583
0 219 1 5041 1 7289 0 59
0 239 1 7229 1 3806 0 95
0 100 1 3407 1 2663 0 99
0 86 1 5220 1 4048 0 123
0 136 1 5418 1 5847 0 84
0 104 1 2568 1 3344 0 131
0 77 1 2196 1 3514 0 98
0 145 1 3002 1 6137 0 124
0 82 1 2263 1 4728 0 106
0 92 1 6515 1 4540 0 200
0 67 1 4474 1 6414 0 81
0 141 1 4635 1 4366 0 163
0 118 1 4730 1 3407 0 134
0 117 1 5704 1 9789 0 84
0 125 1 5038 1 2446 0 80
0 79 1 3490 0 630 0 264
0 74 1 7646 1 5939 0 125
0 137 1 6976 1 3001 0 104
0 164 1 3957 1 2578 0 96
0 93 1 7009 1 3420 0 111
0 107 1 7821 1 5442 0 92
0 154 1 6494 1 2636 0 103
0 107 1 4254 0 983 0 101
0 111 1 5034 1 4751 0 117
0 142 1 6432 1 5671 0 114
0 92 1 3564 1 7509 0 364
0 71 1 2366 0 1797 0 1052
0 114 1 5027 1 5742 0 107
0 129 1 3305 1 8546 0 83
0 85 1 5304 1 5143 0 98
0 223 1 5670 1 6167 0 90
0 113 1 3744 1 3825 0 104
0 75 1 4152 1 7074 0 117
0 89 1 9082 1 2462 0 108
0 130 1 6296 1 7434 0 107
0 118 1 7194 1 4184 0 92
0 80 1 2575 0 401 0 209
0 158 1 7310 1 6956 0 163
0 64 1 6722 1 9843 0 311
0 105 1 7533 1 6439 0 80
0 95 1 4605 1 3957 0 58
0 96 1 5589 1 5233 0 114
0 102 1 3770 1 4529 0 94
0 105 1 3821 1 3691 0 135
0 82 1 5697 1 3880 0 120
0 129 1 4980 0 316 0 551
0 101 1 5778 0 3650 0 163
1 6584 0 234 1 3453 0 120
0 90 1 3606 1 12569 0 198
0 133 1 7623 1 2427 0 69
0 279 1 6463 1 2386 0 79
0 95 1 4724 1 5963 0 172
0 92 1 2074 1 4081 0 97
0 88 1 13682 1 6407 0 87
0 265 0 829 1 5225 0 93
0 92 1 9094 1 3888 0 86
0 111 1 2866 1 6186 0 96
0 107 1 5406 1 5111 0 110
0 118 1 3682 1 6641 0 94
0 74 1 6620 1 16997 0 136
0 103 1 5104 1 7751 0 170
0 99 1 5811 1 7034 0 76
0 117 1 6284 1 5400 0 59
0 83 1 4706 1 6616 0 189
0 125 1 3028 1 5804 0 197
0 84 1 3274 0 4236 0 112
0 483 0 361 1 4648 0 126
0 136 1 7413 1 4192 0 92
0 129 1 5913 0 689 0 151
0 101 1 5241 1 6111 0 116
0 99 1 8801 1 2760 0 74
0 382 0 754 1 5145 0 83
0 78 1 6567 1 6462 0 80
0 87 1 5314 0 218 0 1004
0 118 1 5168 1 2011 0 103
0 108 0 2829 1 6949 0 142
0 80 1 7690 0 3151 0 127
0 92 1 7435 1 9199 0 140
0 109 1 5790 1 4296 0 73
0 100 1 5305 1 4214 0 98
0 84 1 4210 1 3731 0 85
0 104 1 4191 1 3476 0 144
0 219 0 2266 1 3279 0 72
0 72 1 3836 1 4701 0 251
0 123 1 3603 1 5929 0 244
0 132 1 5035 1 3922 0 71
0 111 1 2677 1 6165 0 95
0 84 1 4132 1 4921 0 141
0 120 1 3365 1 3074 0 80
0 321 0 2975 1 3855 0 56
0 138 1 7053 1 5887 0 104
0 114 1 3737 1 6787 0 99
0 125 1 4898 1 4208 0 89
0 75 1 3318 0 145 1 8251
0 232 1 9012 1 9248 0 79
0 107 1 6406 1 5472 0 91
0 95 1 4031 1 6175 0 142
0 104 1 5591 1 7404 0 66
0 82 1 4889 1 7097 0 331
0 107 1 4157 1 4612 0 221
0 120 1 3284 1 7677 0 136
0 123 1 4714 1 4425 0 69
0 318 0 1048 1 3468 0 86
0 148 1 6128 1 5359 0 86
0 79 1 3421 1 8067 0 110
0 73 1 4995 1 8192 0 92
0 80 1 3534 0 214 1 7234
0 78 1 4817 1 3769 0 102
0 180 1 4735 1 2065 0 89
0 159 1 6350 1 4531 0 99
0 80 1 7465 1 7089 0 128
0 105 1 3572 1 10967 0 122
0 161 1 3541 1 4332 0 106
0 113 1 6247 1 3711 0 104
0 72 1 4314 0 210 0 747
0 95 1 4865 1 6665 0 148
0 128 1 3328 1 3933 0 75
0 116 1 3429 0 2185 0 132
0 1426 0 607 1 4885 0 79
0 102 1 3510 1 7181 0 102
0 68 1 6671 1 4234 0 104
0 89 0 1014 1 4955 0 80
0 191 1 6868 1 2206 0 83
0 102 1 5082 1 3508 0 117
0 100 1 4754 1 4136 0 130
0 79 1 5110 1 4007 0 139
0 84 1 4518 1 5247 0 133
0 64 1 3373 1 3483 0 156
0 86 1 4030 1 6281 0 183
0 106 1 4961 1 4581 0 56
1 6600 0 208 1 7334 0 66
0 129 1 5373 1 6233 0 119
0 72 1 4879 1 5458 0 130
0 852 0 327 1 6760 0 152
0 99 1 3498 1 3898 0 69
0 198 1 5018 1 5354 0 49
0 123 1 6915 1 9263 0 174
0 97 1 4540 1 4303 0 108
0 138 1 5114 1 5914 0 149
0 77 1 1983 1 6055 0 110
0 97 1 1839 1 4571 0 168
0 81 1 4857 1 7291 0 107
0 69 1 4618 1 7883 0 423
0 84 1 5207 1 4401 0 101
0 79 1 6203 1 4746 0 87
0 97 1 7129 1 5277 0 136
0 103 1 3704 1 6446 0 157
0 115 1 7913 1 8942 0 429
0 120 1 2793 1 3126 0 108
0 135 0 994 1 3152 0 63
0 126 1 4187 1 6619 0 324
0 78 1 4659 1 7339 0 255
0 67 1 6229 1 7416 0 423
0 104 1 6312 1 3935 0 131
0 217 1 4204 0 1674 0 127
0 125 1 4235 1 4383 0 117
0 145 1 4788 1 7232 0 147
0 170 1 6293 1 7614 0 259
0 197 1 5511 1 5432 0 88
0 108 1 5056 0 2832 0 187
0 103 1 4703 1 5474 0 117
0 102 1 5373 1 4794 0 117
0 778 0 568 1 5334 0 117
0 77 1 4400 1 4751 0 250
0 90 1 2610 1 6721 0 135
0 72 1 6007 1 5967 0 75
0 83 1 3231 0 1369 0 196
0 155 1 5884 1 3929 0 89
0 106 1 5348 1 4350 0 130
0 85 1 3528 1 6181 0 127
0 150 1 4807 1 4313 0 96
0 73 1 2708 1 3712 0 227
0 127 1 4047 1 7036 0 135
0 88 1 3748 1 8702 0 143
0 143 1 5043 1 5508 0 111
0 80 1 4662 1 3405 0 89
0 90 1 6821 0 3227 0 108
0 85 1 3854 1 7995 0 85
0 110 1 5024 1 6889 0 54
0 156 1 7006 1 6466 0 99
0 104 1 4206 1 6063 0 99
0 99 1 5375 1 5415 0 112
0 181 1 5659 1 6454 0 73
0 376 0 367 1 2375 0 79
0 82 1 3617 1 5016 0 102
0 125 1 5518 1 4768 0 79
0 160 1 4454 1 12010 0 125
0 194 1 7098 1 3090 0 88
0 87 1 2370 1 6117 0 97
0 205 1 3279 1 7377 0 82
0 137 1 5634 1 5856 0 108
0 69 1 5610 1 3756 0 158
0 94 1 5397 1 3219 0 75
0 127 1 2279 1 8816 0 137
0 94 1 2746 0 162 1 6874
0 73 1 5825 1 5723 0 213
0 157 1 4431 1 5603 0 114
0 84 1 4668 1 3707 0 109
0 83 1 4107 1 7686 0 145
0 70 1 5356 0 423 0 426
0 221 1 7793 1 8369 0 96
0 156 0 1512 1 4991 0 102
0 110 1 2322 1 5141 0 78
0 57 1 4331 1 4354 0 233
0 285 0 423 1 3947 0 114
0 87 1 4891 1 5354 0 124
0 144 1 12483 1 3781 0 70
0 143 1 5094 1 7028 0 100
0 68 1 5083 1 10341 0 228
0 109 1 6464 0 417 1 5587
0 104 0 1140 1 5404 0 89
0 69 1 5530 0 490 0 279
0 117 0 3328 1 4162 0 90
0 332 1 4685 1 2826 0 101
0 71 1 8195 0 2355 0 356
0 1142 0 117 1 5873 0 119
0 122 1 4162 1 5731 0 155
0 87 1 8575 1 5237 0 115
0 174 1 6242 1 5366 0 84
0 88 1 3212 1 4087 0 99
0 98 1 4859 1 4070 0 137
0 90 1 3675 1 2980 0 115
0 105 1 7177 1 4356 0 97
0 150 1 5242 0 2513 0 148
0 177 1 7347 1 5202 0 117
0 80 1 4554 1 4645 0 72
0 83 1 8270 1 5014 0 87
0 117 1 4667 1 6035 0 85
0 266 1 8234 1 7516 0 92
0 241 1 8153 1 5996 0 90
0 197 1 7816 1 2006 0 83
0 113 1 4911 1 9364 0 97
0 69 1 4268 1 8721 0 225
0 72 1 3666 1 4358 0 309
0 189 1 7280 1 3060 0 116
0 418 0 949 1 6925 0 68
0 81 1 4234 1 3884 0 112
0 99 1 6041 1 3686 0 114
0 105 1 7986 1 5425 0 90
0 164 0 1228 1 5689 0 75
0 84 1 7905 1 6715 0 146
0 266 1 7964 1 6509 0 73
0 113 1 3472 1 5880 0 83
0 155 1 5209 1 2919 0 73
0 100 1 3732 1 5136 0 68
0 125 1 5162 1 4030 0 78
0 72 1 4277 1 7345 0 195
0 99 1 2477 0 970 0 390
0 146 1 5066 1 5408 0 98
0 102 1 5878 1 7719 0 165
0 118 1 2864 1 6290 0 76
1 4961 0 172 1 7214 0 84
0 96 1 4237 1 5537 0 121
0 94 1 4763 1 5921 0 107
0 76 1 5110 1 6417 0 65
0 83 1 2562 1 5559 0 107
0 93 1 4539 1 7919 0 105
0 62 1 4148 1 10377 0 253
0 58 1 3895 1 6036 0 291
0 77 1 4990 1 3626 0 112
0 240 1 7023 1 1856 0 67
0 201 1 4783 1 3661 0 90
0 99 1 4565 1 4127 0 129
0 564 0 535 1 4142 0 56
0 136 1 3893 1 2162 0 79
0 84 1 6492 1 2621 0 94
0 115 1 6296 1 2965 0 73
0 207 0 702 1 2671 0 110
0 76 1 4242 0 5303 0 113
1 7322 0 211 1 4342 0 88
0 109 1 5870 1 2931 0 128
0 149 1 5016 1 3755 0 111
0 224 1 8622 1 5181 0 68
0 91 1 7184 1 6366 0 101
0 181 1 5402 1 6664 0 87
0 75 1 2347 1 4989 0 115
0 75 1 3675 1 5989 0 222
0 334 1 5841 1 4192 0 84
0 91 1 6105 1 2938 0 126
0 216 1 7483 1 5052 0 100
0 112 1 4352 1 2762 0 73
0 90 1 2755 1 5323 0 230
0 165 1 3045 1 6608 0 150
0 113 1 6365 1 4343 0 217
0 122 1 5576 1 6939 0 81
0 135 1 5573 1 3986 0 57
0 65 1 4209 1 7317 0 154
0 130 1 5047 1 4900 0 76
0 103 1 4177 0 297 1 9552
0 63 1 3703 1 6632 0 128
0 101 1 10225 1 4947 0 70
0 207 1 3877 1 4760 0 177
0 145 1 6267 1 4168 0 145
0 110 1 3587 1 5106 0 143
0 91 1 7143 1 5367 0 79
0 115 1 4602 1 6425 0 94
0 104 1 7539 1 3870 0 94
0 136 1 4682 1 4512 0 91
0 79 1 2872 1 6887 0 174
0 86 1 2206 1 4550 0 118
0 83 1 6391 1 4745 0 77
0 91 1 2764 1 4665 0 113
0 101 1 2458 1 5840 0 188
0 144 1 6447 1 6555 0 89
0 106 1 2166 1 9160 0 92
0 117 1 2681 1 6254 0 186
0 102 1 4337 1 6796 0 103
0 77 1 7158 1 3598 0 64
0 94 1 6408 1 3380 0 87
0 168 0 2408 1 6178 0 68
0 103 1 4713 1 4706 0 112
0 100 1 4397 1 4085 0 74
0 85 1 6791 1 3903 0 84
0 108 1 10066 1 1729 0 163
0 90 1 5905 0 211 1 7493
0 192 1 6948 1 3158 0 102
0 92 1 4292 0 598 0 150
0 89 1 3735 1 2944 0 70
0 194 0 1534 1 3255 0 144
0 182 1 3840 1 4698 0 84
0 101 1 8041 1 4579 0 95
0 87 1 5322 1 6424 0 109
0 134 1 4247 1 6135 0 110
0 81 1 4576 1 2896 0 96
0 99 1 2665 1 4161 0 105
0 85 1 4238 1 5753 0 102
0 92 1 6155 1 4512 0 141
0 116 1 3706 0 2369 0 186
0 119 1 5993 1 7944 0 59
0 125 1 5642 1 6022 0 70
0 146 1 4724 1 5621 0 74
0 101 1 3004 1 5450 0 168
0 121 1 8290 1 6887 0 77
1 5082 0 151 1 8537 0 80
0 89 1 3800 1 5529 0 493
0 112 1 6253 1 6615 0 94
0 88 1 4093 1 16371 0 113
0 120 1 5445 1 2651 0 78
0 80 1 4033 1 2516 0 155
0 673 0 236 1 5405 0 65
0 79 1 4027 1 8681 0 163
0 88 1 4226 0 1973 0 115
0 102 1 4830 1 7891 0 110
0 105 1 4126 1 4621 0 64
0 126 1 6273 1 5494 0 138
0 192 1 6425 1 5872 0 126
0 67 1 6039 1 4864 0 218
0 162 1 6172 1 4620 0 110
0 65 1 5701 1 3782 0 119
0 90 1 4781 1 4622 0 143
0 129 1 4356 1 4140 0 110
0 104 1 4128 1 4444 0 87
0 111 1 5292 1 9272 0 234
1 8183 0 209 1 7034 0 133
0 100 1 4151 1 6448 0 73
0 102 1 2673 1 10614 0 207
0 130 1 3690 1 8217 0 83
0 65 1 5185 0 1450 0 293
0 233 0 442 1 4513 0 105
0 113 1 6372 1 4516 0 135
0 141 1 7071 1 6881 0 94
0 157 1 2703 1 6460 0 117
0 58 1 2397 1 5444 0 112
0 121 1 3888 1 13437 0 251
0 101 1 4025 1 6850 0 161
0 63 1 4159 1 2468 0 78
0 107 1 3199 1 4398 0 109
0 349 1 5395 1 4888 0 72
0 109 1 6227 1 4477 0 158
0 109 1 9015 1 3138 0 132
0 94 1 4447 1 5753 0 92
0 109 1 4383 1 2761 0 89
0 173 1 3424 1 1709 0 71
0 142 1 4896 1 5086 0 68
0 94 1 3640 1 4554 0 116
0 210 1 8137 1 5599 0 74
0 94 1 3098 1 4910 0 111
0 103 1 5258 1 3669 0 124
0 143 1 6671 1 2611 0 64
0 72 1 5036 1 3907 0 146
0 280 0 1707 1 2416 0 71
0 79 1 4015 1 4772 0 138
0 111 1 4014 1 7250 0 96
