Parameters: seed=634160526, s1=0.001000, s2=0.001000, s3=0.001000, s4=0.001000, e12=-0.200000, e13=0.000000, e14=0.000000, e23=0.000000, e24=0.000000, e34=-0.200000, r12=0.320000, r23=0.320000, r34=0.320000, h12=1, h13=1, h14=1, h23=1, h24=1, h34=1 , n_gen=10000000, n_ind=10000 initial freq: 0.000000 0.000000 0.000000 0.000000 0.000000 0.500000 0.000000 0.000000 0.000000 0.000000 0.500000 0.000000 0.000000 0.000000 0.000000 0.000000
0 348 1 7893 1 4110 0 112
0 154 1 4845 0 438 0 365
0 196 1 6610 1 5701 0 149
1 5387 0 124 1 4871 0 113
0 118 1 5620 1 7280 0 114
0 157 1 5422 0 205 1 7972
0 162 1 2844 1 6908 0 158
0 209 1 6479 1 5873 0 130
0 147 1 6747 0 140 1 7823
0 1011 0 265 1 6877 0 135
0 117 1 7338 1 3102 0 188
0 213 1 4708 1 7547 0 78
0 444 0 1012 1 4638 0 196
0 92 1 6627 1 6244 0 138
0 483 0 467 1 6420 0 91
1 12023 0 180 1 4858 0 105
0 114 1 6449 0 2884 0 253
0 206 1 5997 1 3622 0 101
0 254 1 5265 1 5729 0 215
0 96 1 7105 1 5801 0 137
0 538 1 7467 1 3436 0 111
0 168 0 1827 1 7786 0 197
0 161 1 10150 1 4817 0 129
0 152 1 7123 1 7451 0 145
0 163 0 787 1 4704 0 126
1 8390 0 456 1 3094 0 148
0 216 1 6800 0 392 0 270
0 288 1 7273 1 5889 0 264
0 160 1 5013 0 3549 0 371
0 325 1 8727 0 3675 0 109
0 90 0 1585 1 3945 0 102
0 442 0 715 1 3275 0 107
0 104 1 10544 0 211 1 6048
0 185 0 785 0 160 1 7509
0 85 1 4363 1 5176 0 169
0 154 1 6169 1 6091 0 221
0 88 1 6316 1 6555 0 146
0 843 0 263 0 541 0 228
0 108 1 4818 1 5024 0 300
0 305 1 4746 1 5540 0 252
0 632 1 7274 1 3188 0 90
0 451 1 8810 1 6837 0 108
0 351 1 6532 1 4303 0 96
0 152 1 6363 0 1735 0 178
0 141 1 4113 0 152 0 756
0 171 1 5212 1 9975 0 263
0 998 0 216 1 5656 0 173
0 145 1 6449 1 5113 0 85
0 106 1 6006 1 9995 0 170
0 771 0 176 1 4068 0 101
0 145 1 5810 1 5387 0 263
1 8804 0 300 0 970 0 117
0 634 0 736 0 1599 0 189
0 91 1 5349 1 7547 0 466
0 219 1 5620 1 5962 0 106
0 142 1 7153 0 875 0 150
0 152 0 1782 0 194 1 7057
0 104 1 3827 0 287 0 1244
1 4845 0 107 1 3501 0 183
0 125 1 11225 0 2648 0 120
0 122 1 6036 0 951 0 268
0 1687 0 391 1 6304 0 95
0 110 1 4192 1 7257 0 256
0 184 1 8326 1 6118 0 95
0 206 1 5974 1 3753 0 152
0 421 0 372 1 4521 0 113
0 191 1 6442 0 920 0 240
0 257 0 1711 1 4763 0 137
0 236 1 4001 1 4881 0 136
0 98 1 5953 0 1052 0 183
1 7135 0 195 1 3843 0 104
0 222 1 6903 1 5107 0 137
0 105 1 5057 1 5287 0 199
0 192 1 6017 0 287 1 5016
0 216 1 6333 1 7793 0 168
0 168 1 3415 1 8089 0 184
0 679 0 256 0 2425 0 135
0 160 1 5720 0 552 0 184
1 5879 0 244 1 9374 0 168
0 108 1 4548 1 5583 0 131
0 656 0 162 1 3228 0 90
1 6303 0 376 0 990 0 386
0 237 1 4573 1 5640 0 87
1 4516 0 147 1 3220 0 146
0 154 1 3888 0 2829 0 132
0 292 0 1308 0 1136 0 162
0 115 1 6939 1 6336 0 294
0 211 1 5858 1 6884 0 128
0 196 1 4963 1 4810 0 104
0 206 1 5804 1 8376 0 119
0 85 1 5042 1 5473 0 114
0 177 1 6501 0 313 1 11524
0 180 1 7116 1 5514 0 207
0 103 1 4348 0 661 0 207
0 454 0 280 1 6829 0 125
0 345 0 684 0 234 1 7910
0 354 0 794 1 4837 0 97
0 116 1 7676 1 4148 0 92
0 946 0 424 1 5419 0 275
0 153 0 2757 1 4810 0 138
1 11582 0 316 1 7828 0 88
0 110 0 806 0 582 0 319
0 204 0 370 1 5321 0 153
0 1957 0 419 1 6266 0 88
0 135 1 8130 0 363 0 355
0 206 0 523 1 6159 0 159
0 98 1 7370 0 217 1 7146
0 158 1 6415 0 1226 0 355
0 224 1 5163 1 4490 0 190
0 73 1 9436 1 6224 0 134
0 312 1 6169 0 1218 0 196
0 509 1 6897 1 3612 0 163
1 3744 0 144 1 6673 0 89
0 126 1 6097 0 186 1 5174
0 79 1 8086 0 308 0 403
0 240 0 404 1 5342 0 162
0 129 0 1991 1 6590 0 128
0 619 1 8964 1 9248 0 190
0 113 1 4948 1 4784 0 175
0 123 1 5260 0 189 0 5129
0 196 1 5732 0 525 0 569
0 226 1 4503 1 6058 0 134
0 113 1 4949 0 1228 0 108
0 177 1 5344 1 8826 0 144
0 135 1 5295 1 5111 0 133
0 230 1 6091 1 3889 0 122
0 743 0 206 1 5781 0 121
0 205 1 3141 1 3926 0 148
0 107 1 4394 0 1403 0 500
0 197 0 2128 1 6911 0 186
0 131 1 7928 0 2037 0 142
0 104 1 5762 1 2954 0 94
0 224 0 523 1 4121 0 156
0 127 1 9114 0 488 0 325
0 168 1 8077 0 2038 0 96
0 144 1 5903 1 3354 0 96
0 175 1 4366 1 9430 0 83
0 90 1 4161 0 178 0 3364
0 191 1 4067 0 342 1 7499
0 95 1 5070 1 5195 0 346
0 118 1 6184 1 4384 0 103
0 204 0 828 1 5823 0 122
0 373 1 8558 1 5638 0 132
0 235 0 2126 1 8154 0 113
0 89 1 4257 0 394 0 756
0 70 1 3942 1 4563 0 127
0 463 0 174 1 4671 0 154
0 115 1 3266 1 5839 0 100
0 276 0 1113 1 3250 0 108
0 302 0 972 0 260 1 3947
1 5058 0 183 1 3155 0 121
0 368 0 3237 0 543 0 358
0 91 1 5906 1 3214 0 114
0 3228 0 522 1 5461 0 118
0 701 0 477 1 12668 0 161
0 162 1 9556 1 4377 0 281
0 430 0 358 1 4050 0 75
0 106 1 4592 1 5792 0 174
0 365 1 6387 1 2681 0 79
0 446 0 357 1 7942 0 113
0 131 1 3132 1 7082 0 100
0 280 0 621 0 161 0 1044
0 177 0 1017 0 371 0 742
0 251 1 3886 1 3733 0 120
0 160 1 7512 1 3405 0 109
0 150 1 5960 0 134 1 7587
0 389 1 6393 1 5310 0 111
1 4658 0 166 1 3611 0 111
0 88 1 5984 0 150 1 9713
0 205 1 6695 0 700 0 400
0 148 1 4794 1 3489 0 91
0 93 1 3739 0 3243 0 324
0 172 0 1030 0 269 0 904
0 143 1 4594 0 1727 0 152
0 990 0 521 1 4155 0 191
0 168 1 7107 1 7024 0 116
0 283 0 624 1 3131 0 102
0 206 1 8721 0 303 0 891
0 184 1 10122 1 5997 0 113
0 505 1 7247 0 698 0 184
0 99 1 8088 0 334 0 836
1 7362 0 188 1 10015 0 242
0 447 0 2190 0 473 0 280
0 161 1 6721 1 7647 0 86
0 152 1 5563 0 2876 0 141
0 319 1 6496 1 2005 0 82
0 119 1 4240 0 348 0 829
0 364 0 1155 1 7566 0 112
0 115 0 1464 1 5765 0 107
0 128 1 5516 0 610 1 6605
0 151 1 8228 0 214 1 5919
0 88 1 5843 0 197 1 12439
0 338 0 666 1 4784 0 99
0 176 1 6937 0 243 0 462
0 101 1 5678 0 233 1 8249
0 162 0 339 0 695 0 943
1 8081 0 154 1 4725 0 126
0 125 1 5141 1 6782 0 125
0 677 0 487 1 6490 0 266
0 113 0 1313 0 897 0 342
0 134 1 5681 1 7069 0 213
0 174 0 1708 1 6015 0 159
0 98 1 6849 1 6760 0 169
0 194 1 4995 0 848 0 135
0 187 0 807 1 3771 0 94
0 104 1 7436 0 252 0 468
0 120 1 5341 0 888 0 404
0 99 1 4461 0 407 0 1060
0 332 1 3891 1 4002 0 238
0 155 1 3964 1 4163 0 137
0 98 1 6918 0 267 1 8408
0 103 1 5621 0 151 1 8168
0 102 1 6646 0 489 0 280
0 130 1 10887 0 2680 0 217
0 93 1 9483 0 151 1 3800
0 368 0 500 0 484 0 262
0 326 1 6319 0 180 0 1128
0 155 1 5265 1 3847 0 110
0 143 1 2528 0 1263 0 114
0 315 0 549 1 3583 0 66
0 111 1 4950 1 5909 0 111
0 161 1 4258 1 6209 0 172
0 343 1 6395 1 6595 0 111
0 85 1 5768 1 4030 0 97
0 378 0 2390 1 4387 0 174
0 297 1 4390 0 346 0 797
0 133 1 6653 1 9911 0 102
1 4352 0 116 1 4595 0 99
0 161 1 2726 1 5574 0 64
0 110 1 7023 0 363 0 802
0 569 0 736 1 3101 0 174
0 736 0 363 1 3847 0 128
0 394 1 6853 1 11836 0 170
0 213 0 2285 1 5060 0 203
0 273 1 7739 0 671 1 8185
0 82 1 3856 0 266 0 1071
0 176 1 6219 1 6898 0 184
0 106 1 5313 1 5721 0 181
1 5884 0 385 1 5717 0 92
0 186 1 12334 1 5108 0 244
0 142 1 4790 0 2137 0 118
0 161 1 5809 1 8014 0 214
0 120 1 5348 1 8386 0 148
0 127 1 7931 1 7501 0 119
0 142 1 7436 1 9054 0 136
0 235 1 8610 1 7025 0 127
0 86 1 3144 1 8166 0 142
0 131 1 8184 0 1458 0 144
0 165 0 966 1 4452 0 196
0 193 1 8201 1 6898 0 223
0 438 1 7225 1 4044 0 96
0 423 0 385 1 6414 0 159
1 4990 0 310 1 6696 0 83
0 139 1 5521 1 4796 0 138
0 129 1 5036 1 2900 0 176
0 87 1 5162 0 442 1 7398
0 126 1 3781 0 279 0 2916
0 132 1 3872 1 5146 0 339
0 331 0 223 1 8944 0 176
0 101 1 6718 1 10876 0 110
0 88 1 5278 0 169 0 2637
0 89 1 6966 0 245 0 1832
0 1107 0 310 1 5455 0 184
0 446 1 5944 1 3905 0 114
0 95 1 5593 1 8929 0 134
0 109 1 8798 0 541 0 377
0 236 1 4233 1 5920 0 115
0 157 1 8019 0 364 1 7167
0 172 0 702 1 4833 0 74
0 109 1 6491 0 120 1 6359
0 125 1 3184 0 521 0 513
0 129 1 11338 1 4976 0 161
0 1389 0 226 1 6747 0 158
0 6439 0 161 1 6301 0 103
0 131 1 4754 1 4798 0 103
0 259 1 6117 1 6984 0 171
0 131 1 5447 0 112 1 3398
0 166 1 5412 0 868 0 197
0 107 1 6776 0 306 1 4827
1 6321 0 171 1 6481 0 184
0 84 1 5410 1 4722 0 119
0 292 1 6716 1 4733 0 98
0 86 1 7558 0 297 1 4421
0 160 0 3814 1 6415 0 132
0 100 1 2419 0 886 0 388
0 151 1 5909 1 4342 0 243
1 9672 0 146 1 7097 0 85
0 116 1 4765 0 219 1 6490
0 198 0 2479 1 6633 0 154
0 82 1 4972 1 5399 0 177
0 1015 0 203 1 5583 0 260
0 107 1 5207 1 4023 0 81
0 117 1 5755 1 8366 0 109
0 102 1 7846 0 232 0 2909
0 207 0 1003 1 9330 0 183
0 1417 0 283 1 6017 0 79
1 7761 0 141 1 6625 0 85
0 179 1 7136 1 2998 0 146
0 83 1 4636 1 5714 0 193
0 394 1 8140 1 8131 0 662
0 169 1 5745 0 156 0 1419
0 257 1 8761 1 7680 0 108
1 9887 0 287 1 4033 0 251
0 179 0 961 1 4572 0 106
0 440 0 530 1 5767 0 118
0 140 0 888 0 420 0 277
0 99 1 5629 1 5370 0 152
1 10619 0 340 1 4246 0 79
0 182 1 9021 1 4479 0 84
0 89 1 4945 1 4660 0 177
0 242 1 6667 0 895 0 205
0 319 1 4726 1 5661 0 159
0 154 0 1150 1 7867 0 115
0 104 1 7009 0 1991 0 315
0 621 0 578 1 5757 0 158
0 300 0 316 1 3688 0 230
0 105 0 2279 0 2493 0 174
0 178 1 7029 1 7952 0 209
0 84 1 3763 0 286 0 1562
0 76 0 3667 1 8673 0 180
0 119 1 4392 1 4361 0 382
0 127 1 9939 0 851 0 210
0 116 1 7656 1 6082 0 170
0 862 0 341 1 4656 0 82
0 917 0 191 1 4708 0 104
0 151 1 6604 0 1159 0 178
0 267 1 8451 1 6589 0 107
0 155 1 8814 0 169 1 4571
0 209 0 573 0 553 1 7994
0 127 1 4877 0 188 0 733
1 9254 0 311 1 9640 0 101
1 4638 0 204 1 6414 0 131
0 156 1 5485 0 341 0 373
0 161 1 6705 1 3709 0 119
0 133 1 7196 1 5115 0 108
1 7958 0 179 1 6939 0 135
0 270 1 4876 1 3625 0 190
1 5070 0 158 1 3040 0 74
0 857 0 267 1 6406 0 459
0 165 1 3565 1 8252 0 123
1 5195 0 138 1 4932 0 158
0 108 0 1330 0 2975 0 180
0 120 1 7738 1 6564 0 142
0 294 0 1905 1 5985 0 173
0 1455 0 490 1 6300 0 108
0 109 1 4844 0 311 1 9304
0 1207 0 209 1 7057 0 136
0 391 0 1077 1 9086 0 175
0 176 1 5422 1 5768 0 147
0 160 1 6353 1 6397 0 120
0 167 1 9818 1 5884 0 158
0 561 1 5964 1 4297 0 125
1 5347 0 240 1 4810 0 174
0 197 1 3447 0 276 0 3479
0 113 1 4566 1 7054 0 167
0 150 1 3344 0 123 1 6405
0 732 0 1009 1 6567 0 167
0 438 0 558 1 4509 0 178
0 1014 0 172 1 3662 0 89
1 7820 0 460 1 5298 0 115
1 3566 0 260 1 5991 0 93
0 124 1 3487 1 4299 0 136
0 135 1 3010 1 5400 0 139
0 116 1 6645 0 242 0 268
0 168 1 5932 1 8887 0 154
0 96 1 5432 1 4961 0 195
1 6822 0 264 1 3772 0 236
0 3935 0 190 1 6688 0 113
0 269 0 462 1 3217 0 102
0 264 1 8199 1 6258 0 161
0 239 1 6553 1 9655 0 170
0 148 1 5312 1 4913 0 121
0 170 1 5298 1 4814 0 133
0 85 1 3419 0 295 1 7393
0 102 1 3885 1 5418 0 158
0 288 1 7397 1 5514 0 85
0 282 0 341 1 6575 0 123
0 176 1 11385 1 6327 0 86
0 308 0 1015 0 1345 0 152
0 167 1 4614 0 201 1 8814
0 132 1 6287 0 2367 0 127
1 8511 0 307 1 5141 0 98
0 127 1 5169 1 6089 0 395
0 357 0 326 1 5531 0 250
0 221 0 1695 1 7481 0 378
0 165 1 4428 1 3685 0 150
0 147 1 7335 1 4250 0 85
1 5347 0 224 1 6363 0 158
0 112 1 4529 0 959 0 275
0 145 0 1612 1 5545 0 136
0 102 1 4032 1 4957 0 144
0 131 1 5734 1 4919 0 157
0 113 1 4273 1 5157 0 308
0 129 1 6075 1 10284 0 150
0 175 1 10769 1 1648 0 89
1 7260 0 262 1 5731 0 174
0 127 1 5394 0 2590 0 180
0 167 1 5539 1 4926 0 183
0 147 1 7972 1 3474 0 144
0 87 1 5289 1 3702 0 252
0 128 1 7570 1 5172 0 101
0 64 1 4001 0 245 1 11171
0 300 1 6348 1 3321 0 93
0 309 0 206 0 4718 0 133
0 224 1 7648 1 10159 0 134
0 178 1 3202 0 185 0 1089
0 297 1 9385 0 355 0 714
0 245 0 1339 1 3580 0 137
0 98 1 3294 1 7256 0 93
0 120 1 6620 0 557 0 308
0 137 1 4650 1 4120 0 292
0 229 1 5951 1 5119 0 111
0 304 0 594 1 9933 0 84
0 96 1 3847 0 566 0 222
1 8949 0 418 0 2251 0 201
0 140 1 4997 1 4344 0 87
0 96 1 4478 1 6577 0 229
0 277 0 1203 1 8676 0 324
0 160 1 6663 1 3055 0 127
0 113 1 4965 0 832 0 305
0 156 1 4264 0 290 0 675
0 282 0 3881 1 7290 0 345
0 246 1 5108 0 2993 0 968
0 125 1 7351 0 1018 0 342
0 105 1 3706 1 6087 0 86
0 191 1 6129 0 530 0 415
0 128 1 5800 1 4289 0 136
0 188 1 6938 1 8314 0 240
0 96 1 4069 1 6077 0 197
0 120 1 5659 1 5049 0 152
0 133 1 5568 0 4428 0 233
1 6003 0 218 1 4693 0 55
0 81 1 4007 1 9790 0 214
0 249 1 9015 1 5660 0 164
0 5457 0 336 0 865 0 114
0 164 0 3856 0 732 0 372
1 7385 0 203 1 4985 0 153
0 123 0 1044 1 3896 0 173
0 124 1 4450 1 6638 0 213
0 86 1 5471 0 373 0 995
0 149 0 3240 1 5393 0 70
0 573 0 415 0 3079 0 171
0 2215 0 157 1 3307 0 94
0 180 1 5626 1 6739 0 117
0 105 1 4389 1 3584 0 215
0 670 0 567 1 3612 0 129
0 248 1 15005 0 611 0 323
0 142 1 4440 1 2962 0 116
0 123 1 5901 1 8577 0 132
0 105 1 3977 0 188 1 4717
0 107 1 7057 0 334 1 5878
0 162 1 6492 1 4858 0 104
0 68 1 3251 0 1045 0 269
0 200 1 7997 1 7197 0 151
0 55 1 8090 0 889 0 284
0 183 1 7184 1 4593 0 119
0 411 0 651 1 6417 0 110
0 275 1 6893 1 6459 0 99
0 411 0 1046 0 4267 0 168
1 3973 0 100 1 3290 0 236
0 135 1 4239 0 344 1 8447
0 1865 0 320 1 4276 0 206
0 134 1 8402 1 6588 0 253
0 118 1 4128 1 8943 0 115
0 114 0 1265 1 5927 0 219
0 223 1 6826 0 1572 0 371
0 1842 0 159 1 5435 0 79
0 143 1 10730 1 11046 0 292
0 116 0 2065 1 5942 0 111
0 936 0 281 1 3142 0 171
0 104 1 6599 1 4137 0 138
0 168 1 6652 0 3794 0 112
0 250 1 7234 0 799 1 12119
0 2288 0 195 1 3549 0 126
0 145 1 5358 0 244 1 5953
0 293 1 7853 0 541 0 229
0 179 1 5594 1 4733 0 136
0 157 1 3495 1 7768 0 120
0 209 0 697 1 6808 0 112
0 178 1 4065 1 6545 0 86
0 233 0 605 1 7439 0 117
0 139 1 4528 1 5245 0 186
0 85 1 5418 0 95 1 5222
1 6237 0 207 1 13763 0 140
0 141 0 647 1 9226 0 101
0 281 0 317 1 3819 0 123
0 1616 0 327 0 379 0 399
0 218 0 742 1 5262 0 155
0 139 1 5594 0 466 0 296
0 147 1 6566 0 149 1 5144
0 190 1 2996 0 352 1 6886
0 105 1 6452 1 4246 0 106
0 368 0 1970 1 7636 0 144
0 122 1 5631 1 8845 0 201
0 97 1 4053 0 1033 0 184
0 599 0 437 1 5304 0 129
0 98 1 4614 1 6086 0 197
0 130 1 7855 0 1312 0 253
0 207 1 8343 1 7566 0 119
0 111 1 6815 1 9440 0 227
0 113 1 3901 1 5935 0 132
0 409 0 345 1 5822 0 112
0 103 1 4693 0 455 0 159
0 105 1 3294 1 5263 0 100
0 203 1 7816 1 2639 0 185
0 267 1 11311 1 2810 0 95
0 278 1 9575 1 6927 0 133
0 193 1 7732 1 5144 0 308
0 152 1 5146 1 5427 0 120
0 97 1 4075 1 5657 0 254
0 195 1 5826 0 395 0 520
0 389 0 321 1 7508 0 108
0 83 1 5395 0 3062 0 244
0 86 1 4624 1 5929 0 206
0 157 1 3739 1 8055 0 225
0 456 0 245 1 6458 0 128
0 147 1 5701 0 481 0 583
1 8667 0 286 0 1796 0 114
0 121 1 4970 0 162 1 4204
0 150 1 6825 1 5435 0 321
0 158 1 3263 1 6531 0 196
0 104 1 4238 1 6566 0 161
0 480 0 1476 1 5396 0 107
0 108 1 4354 1 3364 0 144
0 167 1 3771 1 5227 0 104
0 93 1 5016 0 235 1 5989
0 100 1 4812 0 426 0 366
0 212 0 2508 1 8265 0 179
0 231 1 4533 1 4609 0 102
0 223 1 6557 0 958 0 180
0 195 0 1038 1 7455 0 70
0 176 1 11110 1 4791 0 94
0 224 1 6404 1 6902 0 161
0 161 1 7176 1 4700 0 100
0 196 0 1493 1 8083 0 332
0 94 1 2883 0 158 1 6015
0 194 1 7779 1 6343 0 112
0 175 1 5806 1 3607 0 111
0 107 1 5522 0 352 0 2656
0 140 1 7108 1 5596 0 162
0 127 1 8796 1 4505 0 94
0 262 1 10418 1 6265 0 89
0 161 1 6300 0 984 0 456
0 115 1 4561 0 354 1 6986
0 1205 0 696 0 877 0 199
0 82 1 8176 0 221 1 12634
0 226 1 5869 1 6260 0 332
0 274 0 795 1 4419 0 250
0 433 0 280 1 4615 0 108
0 103 1 4320 0 1454 0 314
0 124 1 4487 1 6081 0 109
0 135 1 5112 1 3751 0 211
0 162 1 5079 0 110 1 6902
0 156 1 3737 1 6760 0 126
0 2087 0 407 1 7156 0 181
0 143 1 5568 1 5924 0 115
0 819 0 401 1 3926 0 197
0 267 1 8279 0 2848 0 96
0 98 1 5223 0 1275 0 484
0 233 1 3667 1 4119 0 189
0 259 0 774 1 4722 0 116
0 595 0 224 1 8967 0 187
0 189 1 4117 1 7999 0 124
0 293 0 247 0 3186 0 179
0 194 1 7114 1 7123 0 117
0 895 0 477 1 6274 0 97
0 94 1 4127 1 2850 0 150
0 226 1 4989 1 5498 0 95
0 295 0 2862 1 3239 0 141
0 76 1 3621 1 3712 0 144
0 141 1 4684 1 3819 0 173
0 190 1 3594 1 6163 0 177
1 6949 0 186 1 5040 0 76
0 178 0 546 1 5272 0 204
0 193 1 5645 1 4276 0 122
0 161 1 3908 1 6538 0 163
1 7105 0 161 1 4790 0 84
0 74 1 4226 0 145 1 7403
0 104 1 4280 1 6487 0 134
0 71 1 4167 1 8777 0 364
0 263 1 7701 1 6478 0 145
0 419 0 260 1 4306 0 95
0 145 1 9047 1 7293 0 192
0 2293 0 172 1 8166 0 135
0 130 1 7986 1 5105 0 156
0 393 0 543 1 6006 0 163
0 98 1 4793 0 427 0 1306
0 211 1 6850 1 8393 0 201
0 169 1 5699 1 7525 0 327
0 126 1 6151 1 4795 0 110
0 204 1 8355 1 5493 0 126
0 296 0 2510 1 3484 0 151
0 130 0 1308 1 5125 0 170
0 117 1 8925 1 3040 0 111
0 168 1 9982 1 8378 0 256
0 102 1 12186 1 5822 0 144
0 87 1 3871 1 9453 0 315
0 117 1 5757 1 5904 0 128
0 185 1 4285 1 6728 0 101
0 275 1 5883 0 1756 0 146
0 104 1 5588 1 7425 0 131
1 4671 0 334 1 2747 0 140
0 89 1 3813 0 229 1 8033
0 406 0 4402 1 4649 0 174
1 4812 0 223 1 6695 0 169
0 114 1 5445 0 959 0 307
0 147 0 1358 0 212 1 4581
0 93 1 4720 1 5530 0 149
0 192 1 5928 0 3251 0 217
1 6493 0 170 1 6716 0 169
0 106 1 7357 0 266 0 307
0 154 1 9243 1 7699 0 110
0 1413 0 361 1 4388 0 85
0 644 1 5491 1 5770 0 120
0 164 1 3325 1 5791 0 78
0 142 1 4514 1 6893 0 244
0 132 0 1324 1 4365 0 79
0 148 1 7649 1 7414 0 146
0 118 1 6118 1 3788 0 102
0 390 1 6389 1 5404 0 103
0 246 0 2814 1 8625 0 132
0 881 0 330 1 7760 0 221
0 171 1 4941 1 6657 0 98
0 129 1 7822 1 4456 0 79
0 131 1 8700 1 3798 0 116
0 241 0 642 1 8531 0 140
0 117 1 4083 1 3883 0 85
0 136 1 4876 0 966 0 177
1 5351 0 319 1 7651 0 252
0 76 1 6975 1 3371 0 155
0 315 0 587 1 3662 0 180
0 125 1 6422 1 7614 0 133
0 143 1 4076 1 4888 0 210
0 118 1 6570 1 2224 0 102
0 247 0 568 1 3973 0 158
0 244 1 4290 0 1170 0 175
0 122 1 5560 1 5823 0 221
0 116 1 3978 1 5012 0 269
0 87 1 4209 1 3779 0 102
0 104 1 6190 0 185 0 6811
0 394 1 7758 1 4620 0 79
0 142 1 7313 0 404 0 391
0 130 1 7511 1 4626 0 119
0 846 0 197 0 3329 0 200
0 288 1 6221 1 3624 0 149
0 288 1 4082 1 4389 0 159
0 97 1 4287 0 2135 0 204
0 171 1 11228 0 1095 0 361
0 440 0 734 1 3336 0 128
0 136 1 4242 0 413 0 222
0 281 0 1159 1 6114 0 171
0 142 1 7910 1 6335 0 259
0 84 1 6388 1 3928 0 120
0 249 0 395 1 6155 0 239
0 148 0 947 1 3892 0 120
0 180 1 8896 0 324 0 314
0 206 0 1055 1 10617 0 139
0 214 1 6235 0 2366 0 336
0 150 1 4567 0 1088 0 168
0 395 0 1318 1 4404 0 110
0 260 0 1102 0 714 0 149
0 125 1 6811 1 5969 0 119
0 277 0 4501 1 5285 0 155
0 111 1 4879 1 11682 0 268
0 114 1 5041 1 6374 0 322
0 105 1 6375 0 118 1 7382
0 88 1 4865 1 5560 0 280
0 113 1 3596 1 8757 0 151
0 107 1 2523 1 7122 0 174
0 127 1 4200 0 424 0 294
0 93 1 5633 0 240 1 4465
0 3471 0 281 1 4545 0 105
0 91 1 4748 1 3865 0 147
0 207 1 4084 0 187 0 859
0 154 1 10106 1 8604 0 182
1 6985 0 236 1 4203 0 141
0 87 1 4459 1 6506 0 142
1 8558 0 216 1 12830 0 253
0 158 1 4784 1 3600 0 64
0 121 1 6911 1 11289 0 97
0 172 1 7850 1 5155 0 115
0 138 0 1848 1 8372 0 476
0 212 1 5294 1 8392 0 92
0 258 0 1280 1 5190 0 178
0 177 1 4269 0 383 0 344
0 424 0 523 1 5782 0 168
0 170 1 6063 1 7800 0 105
0 380 0 590 1 4455 0 270
0 155 1 5791 1 6856 0 195
0 145 1 5477 0 154 0 2270
0 367 1 6913 1 10265 0 218
0 149 1 4238 0 1169 0 429
0 128 1 6256 0 136 1 4641
0 153 1 7738 0 159 1 2976
0 104 1 5776 1 4239 0 214
0 306 1 4528 0 231 1 5332
0 259 1 7557 1 5490 0 115
0 151 1 5366 0 639 0 182
0 110 1 3387 0 913 0 120
0 122 1 4108 1 6421 0 144
0 175 1 7569 0 756 0 155
0 106 1 6636 1 6339 0 111
0 86 1 5081 1 6415 0 340
1 6458 0 191 1 3969 0 101
0 1065 0 340 0 3971 0 147
0 134 1 7949 1 5428 0 96
0 189 0 433 0 1443 0 468
0 89 1 3923 0 3132 0 236
0 254 1 8232 1 4641 0 418
0 252 0 283 1 2728 0 118
0 109 1 7112 1 3875 0 149
0 889 0 537 0 1156 0 168
0 97 1 6400 1 5899 0 176
0 191 1 7873 1 8011 0 350
0 132 1 6906 1 4328 0 312
0 219 1 7204 0 259 0 450
0 255 1 8346 1 6166 0 146
0 588 0 373 1 8432 0 204
0 88 1 4531 0 354 0 655
0 83 1 4249 1 8540 0 127
0 219 0 395 0 1408 0 513
0 92 1 4152 1 4679 0 125
0 99 1 7383 0 173 1 9331
0 251 0 4328 1 6181 0 219
0 336 0 504 0 881 0 248
0 112 1 4073 1 5892 0 112
0 74 1 7157 1 5531 0 75
0 173 1 4431 0 1245 0 157
0 372 1 6869 1 5059 0 79
0 339 1 5684 1 6137 0 290
0 132 1 5086 1 10135 0 126
0 126 1 4852 1 5675 0 284
0 225 1 8899 1 6168 0 110
0 110 1 8729 0 403 0 318
0 125 1 7069 1 5026 0 232
0 94 1 5954 0 2457 0 156
0 82 1 2751 1 6605 0 212
0 145 1 5790 1 5120 0 122
0 247 1 6407 1 4181 0 125
0 175 0 2158 0 178 1 4950
1 4496 0 187 1 9007 0 249
0 79 1 3716 0 180 1 4753
0 1835 0 211 1 5814 0 197
0 133 1 5753 1 4753 0 107
1 8075 0 268 1 8807 0 203
0 152 1 6748 1 4881 0 125
0 114 1 6953 1 6905 0 160
0 154 1 3081 1 6526 0 122
0 118 0 603 1 7894 0 341
0 70 1 3714 0 386 0 557
0 135 1 3666 0 105 1 5247
0 107 1 6600 0 3029 0 263
0 161 0 5484 1 2326 0 112
0 68 1 5347 0 673 0 154
0 200 0 617 1 5804 0 160
0 164 0 1505 1 4060 0 177
0 199 1 8238 1 3504 0 115
0 133 1 5363 0 658 0 461
0 115 1 5845 0 629 0 1424
0 195 0 358 1 4375 0 125
0 131 1 6142 1 3898 0 142
0 193 0 1007 0 303 0 427
0 120 0 1216 1 5738 0 130
0 100 1 3429 1 3656 0 376
0 237 1 5299 0 127 0 1533
1 7581 0 170 1 4725 0 188
1 6264 0 346 1 4962 0 102
0 131 0 6365 0 167 0 2186
1 2917 0 157 1 6925 0 127
0 111 1 3591 1 5943 0 166
0 771 0 283 1 8179 0 198
0 137 1 7873 0 3010 0 235
0 191 0 850 0 1105 0 98
0 200 1 4003 0 2601 0 344
0 106 1 6541 1 5171 0 76
0 131 1 9715 0 1183 0 132
0 140 1 3267 0 1348 0 166
0 416 0 318 1 7951 0 122
0 139 1 6030 1 4227 0 197
0 296 1 9693 0 360 0 520
0 143 1 5697 1 3918 0 99
0 178 1 11084 0 2749 0 173
0 450 0 741 1 5452 0 104
0 222 1 5659 0 271 1 5103
1 5736 0 181 0 2505 0 161
0 164 0 5701 1 4985 0 173
0 328 0 1141 1 5223 0 87
0 151 1 5606 1 6767 0 86
0 178 1 15433 1 6772 0 88
0 138 1 4337 0 359 1 7397
0 88 1 6444 1 5116 0 133
0 138 1 3661 1 5216 0 183
0 222 1 5536 1 4585 0 117
1 4542 0 175 1 6618 0 105
1 6432 0 305 0 1184 0 180
0 180 1 4585 1 4752 0 103
0 151 1 8016 0 659 0 245
0 107 1 6820 1 4845 0 158
0 103 1 3940 0 155 1 6306
0 117 1 5258 1 5240 0 142
0 104 1 5592 1 6962 0 181
0 86 1 3111 0 1001 0 351
0 155 1 6953 1 5816 0 255
0 121 1 10295 1 6514 0 108
0 158 1 7391 0 282 1 9237
0 116 1 7915 1 5710 0 110
0 168 1 5737 0 1620 0 143
0 1011 0 243 1 5944 0 145
0 141 0 3209 1 6047 0 95
0 134 1 4995 0 1155 0 300
0 296 0 823 1 4307 0 171
0 173 1 5635 1 3481 0 162
0 135 1 4247 1 5749 0 318
0 123 1 4530 1 5849 0 296
0 275 1 6096 1 5850 0 146
0 118 1 3929 0 1585 0 144
0 318 0 1819 0 232 1 5293
0 104 1 5086 1 4549 0 119
0 142 1 8464 0 635 0 1128
0 113 0 2900 0 1756 0 152
0 194 1 8963 0 440 1 6165
0 489 0 437 1 5748 0 217
0 127 1 3871 1 5922 0 99
0 112 1 4232 1 4897 0 76
0 69 1 6393 1 6021 0 245
0 74 1 4886 0 140 1 5286
0 84 1 5758 0 703 0 228
0 244 0 2174 1 6434 0 98
0 282 0 1056 0 316 1 13578
0 162 1 4754 1 5536 0 152
0 162 1 6571 0 286 1 5375
0 104 0 1986 1 4937 0 165
0 162 1 7609 1 5660 0 225
0 512 0 1058 0 4146 0 176
0 287 1 6869 1 6828 0 186
0 139 1 6201 0 985 0 165
0 143 1 7753 0 259 0 2101
0 121 1 7621 0 894 0 228
0 101 1 5411 0 209 1 6098
0 98 1 7492 0 128 1 6365
0 475 0 260 1 4245 0 103
0 154 1 3249 1 13031 0 140
0 290 0 586 1 4036 0 140
0 134 1 11045 1 9286 0 357
0 125 1 6332 1 3620 0 110
0 112 1 6705 0 609 0 177
0 117 1 3116 0 642 0 382
0 138 1 7999 0 1361 0 300
0 238 0 2040 0 695 0 745
0 163 1 8072 1 5512 0 199
0 317 1 11177 1 6482 0 167
0 175 1 4225 1 5145 0 125
0 325 1 9517 1 9422 0 102
0 91 1 3988 0 625 0 477
0 89 1 3629 0 537 0 460
0 97 1 4159 1 6720 0 191
0 94 1 6486 1 2235 0 136
0 115 1 6517 1 7213 0 235
0 174 1 5596 1 4625 0 81
0 78 1 6994 0 249 0 595
0 144 1 5574 1 8612 0 112
0 247 0 739 0 438 1 7104
0 140 1 3628 0 183 1 7109
0 212 1 8367 0 184 1 5047
0 119 0 1351 1 5169 0 163
0 186 0 867 0 1834 0 203
0 211 0 2018 0 1272 0 154
0 104 1 2891 0 147 1 5257
0 231 1 5174 1 6312 0 196
1 11153 0 183 1 7702 0 101
0 182 1 3918 1 3474 0 126
0 107 1 2760 0 1261 0 161
0 75 1 4954 0 427 0 431
1 5309 0 217 1 6163 0 90
0 136 1 7299 0 363 0 213
0 113 1 7894 0 488 0 275
0 100 1 6924 1 6550 0 159
0 102 1 6774 1 6871 0 199
0 150 0 5392 1 4840 0 301
0 174 1 10777 1 4183 0 143
1 7805 0 128 1 4080 0 139
0 1766 0 367 1 4445 0 109
0 251 1 5443 0 1513 0 152
0 115 1 4935 1 3585 0 169
0 274 0 575 1 7828 0 177
0 311 1 7800 0 462 0 801
0 192 1 4262 1 7423 0 132
0 116 1 7345 0 2618 0 168
0 135 1 6727 0 5781 0 276
0 132 1 6108 1 4094 0 91
0 693 0 499 0 1387 0 156
0 215 1 4473 1 5279 0 162
0 574 0 243 1 8196 0 146
0 414 0 351 1 5809 0 100
0 302 1 7611 0 1220 0 181
0 99 1 5275 0 274 1 11432
0 1037 0 362 1 5723 0 127
0 193 1 6286 0 179 0 4594
0 182 1 3779 1 7638 0 72
0 196 1 5440 1 6808 0 119
0 217 1 3119 1 5554 0 125
0 120 1 6798 0 646 0 391
0 119 1 5204 1 4638 0 199
0 191 1 4701 1 5130 0 230
0 465 0 569 0 177 1 10772
0 149 1 5429 0 2610 0 154
0 178 1 4853 1 4559 0 154
0 137 1 2333 0 209 1 7877
0 108 1 4276 1 5105 0 175
0 171 1 5182 1 7101 0 293
0 315 1 5450 1 4392 0 109
0 180 1 4341 0 1767 0 118
0 823 0 351 1 5486 0 113
0 280 1 6394 1 3432 0 131
0 544 0 506 1 7274 0 122
0 118 1 5647 0 407 0 1459
0 203 1 6804 1 5576 0 136
0 95 1 7774 1 4058 0 165
0 91 0 686 1 8001 0 123
0 989 0 196 1 5898 0 93
0 231 1 6523 1 4396 0 189
0 108 1 4927 0 464 0 302
0 92 1 5258 1 8428 0 215
0 187 1 9584 1 4798 0 90
0 117 1 4134 1 3574 0 187
0 166 1 11173 0 174 0 483
0 184 1 3515 1 10114 0 301
0 238 1 5735 0 2291 0 215
0 153 1 4982 0 484 0 530
0 133 1 5240 1 9488 0 180
0 214 1 3227 1 5818 0 127
0 300 0 836 1 5923 0 136
0 133 1 3317 0 1450 0 107
0 247 1 8361 0 2920 0 153
0 178 1 6223 1 5613 0 200
0 246 1 3748 1 9708 0 224
0 880 0 269 1 2838 0 132
0 151 1 8153 1 9059 0 251
1 3869 0 218 0 346 0 580
0 94 1 4975 1 4348 0 206
0 205 1 5055 1 12026 0 176
0 249 1 4052 1 4379 0 90
0 122 1 4066 1 4741 0 189
0 158 1 2883 1 5201 0 167
0 132 1 4317 1 8011 0 191
0 218 1 7451 1 3622 0 162
0 276 1 6705 1 7240 0 113
0 106 1 4476 1 5977 0 161
0 121 1 5016 1 8017 0 80
0 272 1 7249 1 2696 0 138
0 136 1 9573 0 1526 0 370
0 108 1 3068 1 4421 0 181
1 7768 0 463 1 6208 0 221
0 155 1 5637 1 4701 0 165
0 107 1 6825 1 4867 0 219
0 161 1 5555 0 1017 0 268
0 84 1 6588 0 353 0 308
0 96 1 9664 0 155 1 6812
1 5848 0 211 1 4681 0 95
0 105 1 4903 0 146 1 6306
0 70 1 5975 1 4548 0 131
0 1824 0 230 1 4920 0 100
0 129 1 2857 0 214 1 3803
1 11397 0 240 1 4001 0 305
0 190 1 4282 0 823 0 256
0 217 0 2734 0 397 0 261
1 5146 0 119 1 3526 0 101
0 273 0 741 1 5769 0 122
0 271 1 7412 1 4264 0 91
0 139 1 7084 1 3706 0 97
0 104 1 6180 0 1789 0 227
0 117 0 992 1 4846 0 151
0 302 0 685 1 7671 0 209
0 83 1 2298 0 262 0 592
0 154 1 8099 1 15297 0 127
1 8333 0 138 1 6779 0 154
0 134 1 4307 1 5380 0 101
0 296 0 2260 1 6090 0 152
0 513 0 622 0 4183 0 209
0 137 0 2094 1 3963 0 318
0 89 1 4435 0 196 1 4763
0 151 1 4156 1 6962 0 89
0 113 1 4421 0 259 0 331
0 134 1 6418 0 1620 0 285
0 155 1 7039 1 4386 0 90
0 235 1 4829 1 6109 0 128
0 113 1 3608 0 99 1 6978
0 100 1 11701 0 179 1 6395
0 172 1 5598 1 3244 0 123
0 129 1 7085 1 6960 0 121
0 173 1 4732 1 9102 0 127
1 10461 0 146 1 3525 0 161
0 132 1 5623 1 6823 0 521
0 92 1 4357 1 9090 0 527
0 122 1 4245 1 4837 0 343
0 338 1 4993 1 5270 0 124
0 187 1 4343 1 5348 0 121
0 749 0 264 1 3860 0 95
0 163 1 10621 1 4550 0 102
0 249 1 4547 0 807 0 222
