Parameters: seed=624311624, s1=0.001000, s2=0.001000, s3=0.001000, s4=0.001000, e12=-0.200000, e13=0.000000, e14=0.000000, e23=0.000000, e24=0.000000, e34=-0.200000, r12=0.150000, r23=0.150000, r34=0.150000, h12=1, h13=1, h14=1, h23=1, h24=1, h34=1 , n_gen=10000000, n_ind=10000 initial freq: 0.000000 0.000000 0.000000 0.000000 0.000000 0.500000 0.000000 0.000000 0.000000 0.000000 0.500000 0.000000 0.000000 0.000000 0.000000 0.000000
0 94 1 8523 1 6094 0 73
0 802 0 273 1 3430 0 78
0 75 1 3658 1 2952 0 132
0 62 1 4590 0 534 0 355
0 138 1 5080 1 3345 0 76
0 108 1 7072 1 5741 0 82
0 61 1 4640 1 5184 0 214
0 113 1 5090 1 3967 0 115
0 75 1 4005 1 7510 0 89
0 73 1 6276 1 6000 0 98
0 75 1 4966 1 4272 0 146
0 116 1 4000 1 3124 0 164
0 93 1 3758 1 9224 0 131
0 102 1 4270 1 8545 0 203
0 147 1 6466 0 273 1 5403
0 69 1 3560 1 6950 0 296
0 97 1 5799 1 6913 0 150
0 105 1 7519 1 5110 0 104
0 95 1 8420 1 4084 0 102
0 130 1 2876 1 5422 0 123
0 114 1 6120 1 4631 0 118
0 127 1 3646 1 4465 0 71
0 84 1 4534 1 4842 0 181
0 56 1 3874 1 9800 0 232
0 242 1 9968 1 3356 0 86
0 140 1 7522 0 2371 0 132
0 102 1 6927 1 4879 0 71
0 250 1 5252 1 4465 0 91
0 162 0 6614 1 3556 0 98
0 61 1 6649 1 2297 0 99
0 85 1 2979 1 6573 0 95
0 104 1 4192 1 7103 0 218
0 77 1 7169 1 3238 0 76
0 98 1 4465 1 6257 0 78
0 155 0 1580 1 5568 0 70
1 5403 0 224 1 2846 0 57
0 184 1 8566 1 4494 0 67
0 150 1 3594 1 3715 0 66
0 195 1 4935 1 4525 0 91
0 97 1 5693 0 3487 0 127
1 5606 0 117 1 2179 0 60
0 101 1 4607 1 2968 0 84
0 100 1 3583 1 4491 0 169
0 81 1 5721 1 3484 0 115
0 71 1 3628 1 5976 0 114
0 95 1 3840 1 6327 0 108
0 123 1 5302 1 5018 0 79
0 67 1 4115 1 7991 0 99
1 5781 0 132 1 6432 0 73
0 92 1 3395 1 4394 0 127
0 126 1 4997 1 6440 0 91
0 212 1 8963 1 2390 0 63
1 8460 0 338 1 3499 0 90
0 141 1 4090 1 4341 0 70
0 111 1 3360 1 6323 0 129
0 75 1 3110 1 5265 0 74
0 100 1 5717 1 7611 0 105
0 92 1 3046 1 4552 0 117
0 73 1 3272 1 3716 0 149
0 74 1 4596 1 6675 0 179
0 189 1 4023 1 6211 0 156
0 473 1 5289 1 3898 0 73
0 112 1 5465 1 11034 0 111
0 115 1 6606 1 4427 0 85
0 319 1 7977 1 7580 0 82
0 91 1 6204 1 6236 0 119
0 76 1 5561 1 4555 0 141
0 120 1 9157 1 6174 0 74
0 79 1 4189 1 4945 0 127
0 153 1 5461 1 3605 0 124
0 82 1 8360 1 4730 0 93
0 80 1 4768 0 308 1 3688
0 168 1 8846 1 3272 0 127
0 3652 0 167 1 3974 0 73
0 99 1 4957 1 2358 0 97
0 102 1 5428 1 5302 0 120
0 242 0 1309 1 6204 0 146
0 119 1 3980 1 6334 0 96
0 164 1 5589 1 3907 0 77
0 426 1 16344 1 4646 0 85
0 135 1 2650 1 4961 0 78
0 75 1 4469 1 4434 0 93
0 153 1 7800 1 2847 0 88
0 94 1 5059 1 4082 0 86
0 107 1 4573 0 2063 0 82
0 1386 0 195 1 4818 0 100
0 91 1 5203 1 3996 0 90
0 269 0 1178 1 3949 0 87
0 95 1 7493 1 12528 0 184
0 114 1 3550 1 6726 0 115
0 71 1 4307 0 1199 0 163
0 91 1 3462 1 3319 0 106
0 91 1 2589 1 2498 0 80
0 121 1 7286 1 5611 0 93
0 112 1 3274 1 4510 0 101
0 117 0 5348 1 3303 0 152
0 81 1 4089 1 4477 0 85
0 113 1 9532 1 3960 0 139
0 96 1 6819 0 289 1 9963
0 133 1 4029 1 5260 0 98
0 89 1 11155 1 6574 0 211
0 110 1 5911 1 3490 0 101
0 99 1 4181 1 6156 0 137
0 71 1 3057 1 5537 0 86
0 74 1 4786 1 10102 0 150
0 82 1 5149 1 8652 0 114
0 105 1 3374 1 2352 0 72
0 89 1 4820 1 4465 0 116
0 152 0 1029 1 6149 0 86
0 75 1 5104 0 218 0 599
0 130 1 4699 1 7121 0 110
0 77 1 3635 1 7967 0 98
0 73 1 4887 1 5434 0 110
0 73 1 4079 1 2644 0 77
0 97 1 3888 1 6720 0 146
0 102 1 3632 1 3620 0 81
0 82 1 6487 1 1427 0 106
0 87 1 3173 1 5002 0 89
0 73 1 8669 1 3522 0 103
0 93 1 3576 1 5363 0 124
0 663 0 330 1 5239 0 102
0 109 1 2920 1 4857 0 153
0 146 1 5408 1 9781 0 68
0 90 1 6057 1 6042 0 90
0 114 1 4117 1 4788 0 115
0 85 1 5281 1 6230 0 100
0 199 1 4352 1 5450 0 96
0 100 1 5072 1 4972 0 104
0 141 1 4048 1 4729 0 84
0 77 1 3537 1 7991 0 126
0 81 1 2934 1 5557 0 212
0 73 1 3981 1 4139 0 99
0 208 1 5649 1 6424 0 78
0 97 1 2291 1 3607 0 258
0 119 1 3337 1 6296 0 128
0 90 1 3645 0 207 1 9622
0 204 1 4037 1 3454 0 130
0 82 1 4736 1 5767 0 228
0 76 1 5072 1 6166 0 146
0 88 1 3937 1 5127 0 203
0 92 1 4884 1 5898 0 113
0 74 1 5122 1 5820 0 109
0 79 1 3437 1 3941 0 88
0 121 1 3404 1 3094 0 74
0 156 1 7036 1 4294 0 70
0 105 1 5041 1 7818 0 82
0 78 1 7587 1 5049 0 89
0 108 1 6284 1 4105 0 97
0 150 1 2020 1 5135 0 89
0 288 1 14951 1 4071 0 82
0 154 1 3309 1 5959 0 95
0 135 1 4790 1 4379 0 169
0 66 1 5108 1 5007 0 87
0 91 1 3177 1 5657 0 191
0 92 1 2322 1 4599 0 98
0 163 1 5540 1 4371 0 81
0 96 1 6226 1 5588 0 115
0 97 1 1931 0 1734 0 281
0 108 1 3377 1 5302 0 146
0 66 1 2197 0 1255 0 550
0 54 1 3160 0 944 0 415
0 165 0 920 1 11331 0 144
0 100 1 2295 0 1275 0 185
0 116 1 5113 1 5796 0 59
0 133 1 4705 1 6467 0 74
0 100 1 5796 1 5063 0 123
0 173 1 5267 1 10352 0 108
0 145 1 3288 1 5007 0 110
0 104 1 4871 1 6199 0 84
0 94 1 5345 1 3298 0 117
0 84 1 5143 1 3140 0 116
0 70 1 6408 1 4312 0 151
0 86 1 6354 1 5927 0 170
0 72 1 5828 1 1913 0 98
0 68 1 3325 1 4507 0 90
0 138 1 4638 1 3268 0 95
0 90 1 6254 0 2194 0 202
0 116 0 3508 1 3861 0 132
0 167 1 4850 1 5531 0 77
0 94 1 8219 1 5014 0 75
0 153 1 8606 1 6953 0 122
0 93 1 2649 0 3684 0 293
0 86 1 5042 1 12610 0 77
0 93 1 3844 1 5750 0 103
0 268 0 429 1 3301 0 68
0 229 1 3734 1 3853 0 94
0 151 1 5772 1 4650 0 97
0 91 1 5902 1 2005 0 87
0 114 1 6908 1 6105 0 165
0 172 0 922 1 3838 0 79
0 100 1 6288 1 6676 0 83
0 131 1 5429 1 7284 0 57
0 108 1 3372 1 3411 0 174
0 62 1 4821 0 692 0 415
0 131 1 3700 1 4393 0 83
0 91 1 4915 1 5379 0 184
0 97 1 6185 1 1978 0 104
0 84 1 2818 1 3729 0 108
0 75 1 1938 1 3324 0 78
0 63 1 2444 0 791 0 188
0 173 1 5675 1 3104 0 74
0 113 1 8033 1 6360 0 101
0 53 1 4289 0 184 1 6796
0 101 1 5859 1 4570 0 120
0 87 1 8787 1 7207 0 185
0 71 1 3707 1 5048 0 240
0 137 1 5122 1 6505 0 83
0 103 1 7069 1 3978 0 99
0 161 1 6119 1 4787 0 97
0 88 1 3661 1 8210 0 128
0 137 1 10221 1 2804 0 66
0 231 1 6381 1 5577 0 96
0 95 1 4654 1 4369 0 110
0 168 1 3843 1 3895 0 79
0 87 1 5549 1 5204 0 102
0 217 1 6548 1 4438 0 81
0 80 1 3559 0 153 1 5134
0 107 1 2831 1 4021 0 82
0 115 1 4072 0 2182 0 99
0 86 1 5200 1 5185 0 99
0 93 1 5425 1 6861 0 147
0 70 1 5822 1 6227 0 154
0 170 0 2806 1 3384 0 74
0 170 1 10410 1 3604 0 104
0 79 1 4528 1 3878 0 138
0 195 0 1706 1 6410 0 101
0 100 1 7641 1 3630 0 94
0 186 0 1076 1 6361 0 143
0 205 1 5022 1 2327 0 75
0 109 1 5090 1 3414 0 89
0 76 1 4337 1 4277 0 90
0 99 1 4798 1 2788 0 94
0 86 1 3636 1 4017 0 68
0 85 1 5640 1 6222 0 117
0 90 1 4507 1 4742 0 96
0 115 1 5120 1 4513 0 81
0 155 1 5508 0 2037 0 170
0 1906 0 480 1 4756 0 76
0 107 1 6855 1 3456 0 105
0 80 1 6369 1 5586 0 114
0 108 1 3164 1 5864 0 95
0 89 1 5807 1 7148 0 102
0 90 1 4877 1 8226 0 89
0 161 1 9431 1 3696 0 114
0 73 1 2988 1 5057 0 117
0 161 1 6697 1 4716 0 70
0 64 1 8773 0 333 1 8714
0 113 1 7265 1 5376 0 154
0 72 1 4430 0 397 0 464
0 76 1 6735 1 5490 0 186
0 77 1 4348 1 4330 0 110
0 93 1 4218 1 8692 0 169
0 110 1 6718 1 6274 0 115
0 84 1 7604 1 7349 0 154
0 92 1 6311 1 4149 0 109
0 139 1 3546 1 7786 0 82
0 79 1 5065 1 5016 0 139
0 106 1 3267 1 6071 0 96
1 3889 0 281 1 1854 0 81
0 98 1 4804 1 2151 0 101
0 97 1 5179 1 7020 0 112
0 185 1 3862 1 2492 0 88
0 95 1 5439 1 7502 0 108
0 85 1 5550 1 7647 0 100
0 114 1 4421 1 4523 0 162
0 79 1 4961 1 7978 0 115
0 142 1 4305 1 5062 0 87
0 527 1 5860 1 2801 0 93
0 83 1 4204 1 6145 0 79
0 133 1 7068 1 2394 0 116
0 81 1 2667 1 8004 0 106
0 93 1 6433 1 7470 0 87
0 84 1 4051 1 4919 0 87
1 4858 0 259 1 4899 0 66
0 101 1 7504 1 7664 0 115
0 110 1 8367 1 3821 0 174
0 93 1 8355 1 4707 0 77
0 86 1 5345 1 7425 0 193
0 134 1 6121 1 7027 0 110
1 8978 0 484 1 2559 0 55
0 147 1 4787 1 3966 0 93
0 74 1 2807 1 5851 0 177
0 147 1 7742 1 3868 0 88
0 81 1 4031 1 7129 0 91
0 114 1 3486 1 4252 0 77
0 115 1 7389 1 5622 0 109
0 95 1 3883 1 8007 0 99
0 356 1 7497 1 3314 0 84
0 153 1 3786 1 3402 0 146
0 85 1 4631 1 4241 0 173
0 110 1 6190 1 4426 0 89
0 141 1 3647 1 9193 0 91
0 190 1 7022 1 2840 0 94
0 83 1 3207 1 3227 0 93
0 88 1 3031 1 7300 0 94
1 4764 0 269 1 2692 0 71
0 76 1 8409 1 5752 0 157
0 135 1 3492 1 3133 0 81
0 56 1 4397 0 466 0 463
0 119 1 3281 1 4696 0 76
0 86 1 4163 0 360 0 399
0 83 1 2803 1 4238 0 89
0 79 1 3436 1 2773 0 124
0 124 1 4364 1 3044 0 76
0 181 1 5407 1 4249 0 69
0 84 1 4992 1 6668 0 96
0 94 1 2378 1 6092 0 113
0 121 1 5103 1 4838 0 138
0 725 0 281 1 3906 0 56
0 86 1 8471 1 4138 0 82
0 89 1 6301 1 5609 0 199
0 115 1 4211 1 3774 0 139
0 249 1 6104 1 4559 0 76
0 98 1 3591 1 3874 0 82
0 224 1 9828 1 2565 0 84
0 119 1 5019 1 5302 0 127
0 55 1 3265 0 154 1 6242
0 104 1 4831 1 4601 0 80
0 113 1 5203 1 6453 0 90
0 87 1 3258 1 6078 0 140
0 101 1 3103 1 2983 0 160
0 60 1 6657 0 968 0 259
0 299 0 4422 1 4607 0 88
0 166 1 6659 1 5913 0 62
0 196 0 3392 1 3181 0 67
0 121 1 2924 1 3584 0 103
0 226 1 4088 1 4433 0 110
0 185 1 3858 1 6306 0 83
0 332 0 543 1 4957 0 66
0 96 1 3797 1 7742 0 145
0 190 1 11316 1 3965 0 64
0 502 1 7012 1 1871 0 82
0 93 1 3098 1 3400 0 105
0 116 1 7496 1 3697 0 101
0 123 1 5047 1 6515 0 96
0 94 1 5257 1 6903 0 140
0 85 1 8552 0 225 1 6001
0 86 1 4699 1 6534 0 133
0 72 1 2492 1 5401 0 124
0 168 1 4756 1 4315 0 80
0 99 1 4863 1 5233 0 74
0 125 1 3399 1 7910 0 99
0 86 1 5198 1 4521 0 72
0 71 1 3315 1 6480 0 88
0 90 1 7165 1 5247 0 187
0 142 1 2182 1 5584 0 166
0 95 1 9350 1 8936 0 193
0 216 1 3732 1 2676 0 126
0 289 1 9540 1 4305 0 91
0 116 1 5727 1 7162 0 111
0 213 1 8121 1 8573 0 69
0 99 1 3964 1 6119 0 201
0 167 1 6119 1 6605 0 64
0 83 1 4099 1 7831 0 78
0 531 0 619 1 4115 0 63
0 123 1 8887 1 6786 0 93
0 113 1 5868 1 2530 0 81
0 89 1 2875 1 2992 0 79
0 84 1 5813 0 5872 0 103
0 165 1 6566 1 4914 0 92
0 80 1 4939 1 3234 0 106
0 107 1 9919 1 9345 0 76
0 113 1 4784 1 4045 0 127
0 114 1 5939 1 3470 0 88
0 143 1 7336 1 3922 0 91
0 227 1 8882 1 3267 0 147
0 285 1 3832 1 2608 0 97
0 118 1 4123 1 5881 0 123
0 87 1 3495 0 1423 0 150
0 162 1 9207 1 4962 0 78
0 181 1 11193 1 3456 0 111
0 1424 0 256 1 5815 0 65
0 83 1 4459 1 5331 0 136
0 181 1 5406 1 8803 0 71
0 94 1 5092 1 3600 0 222
0 83 1 3116 1 7548 0 122
0 103 0 3101 1 7487 0 124
0 698 0 643 1 7921 0 86
0 93 1 3861 1 5041 0 259
0 81 1 4285 1 8154 0 131
0 168 1 4233 1 2231 0 70
0 145 1 7592 1 3733 0 109
0 124 1 5219 1 3190 0 68
0 82 1 3056 0 772 0 166
0 77 1 5544 1 5050 0 97
0 146 1 7224 1 4364 0 252
0 133 1 3470 1 7661 0 99
0 135 1 3471 1 7130 0 96
0 294 1 10056 1 5827 0 160
0 79 1 3988 1 3158 0 73
0 96 1 3379 1 9134 0 81
0 49 1 4120 0 165 1 6924
0 82 1 7910 1 6372 0 160
0 63 1 3318 1 7056 0 155
0 104 1 4475 1 9618 0 181
0 93 1 5208 1 6576 0 100
0 193 1 7524 1 5748 0 105
0 110 1 5566 1 5052 0 90
0 101 1 5230 1 4812 0 109
0 79 1 4577 1 4551 0 104
0 84 1 5138 0 2850 0 275
0 107 1 7488 1 10369 0 153
0 204 1 4789 1 3273 0 59
0 97 1 3112 0 3856 0 420
0 136 1 2713 1 4330 0 68
0 70 1 3814 0 1338 0 483
0 117 1 5434 1 4797 0 68
0 147 1 2489 1 6150 0 104
0 94 1 3663 1 5044 0 146
0 64 1 4005 0 773 0 257
0 89 1 3515 1 5287 0 110
0 104 1 7081 0 2074 0 128
0 97 1 3050 1 4417 0 94
0 90 1 2936 1 5844 0 109
0 82 1 2938 1 5268 0 121
0 161 1 6054 1 10466 0 87
0 138 1 4464 1 5895 0 117
0 74 1 3370 1 5114 0 94
0 100 1 7849 1 5382 0 79
0 148 1 4404 1 3664 0 83
0 110 1 2626 1 2531 0 77
0 99 1 3440 1 5715 0 126
0 342 1 2868 1 3697 0 71
0 81 1 5313 1 4576 0 99
0 158 1 7017 1 7556 0 136
1 7109 0 152 1 1986 0 50
0 272 1 2702 1 2742 0 61
0 152 1 3152 1 3635 0 116
0 96 1 4316 1 3932 0 82
0 230 1 6883 1 7850 0 77
0 233 1 6237 1 4674 0 106
0 92 1 6992 1 5966 0 101
0 155 0 1113 1 7269 0 88
0 75 1 2394 0 235 0 637
0 867 0 403 1 4383 0 85
0 91 1 4886 1 3571 0 147
0 126 1 5662 1 4162 0 97
0 318 1 6823 1 4188 0 66
0 142 1 3229 1 4177 0 117
0 152 1 4232 1 2824 0 83
0 79 1 4768 1 5983 0 104
0 102 1 3983 1 4101 0 132
0 111 1 3421 1 4537 0 111
0 73 1 3013 1 7330 0 158
0 126 1 4042 1 5496 0 86
0 82 1 7378 1 5622 0 191
0 100 1 4880 1 2509 0 78
0 112 1 4720 1 3937 0 96
0 102 1 1855 1 10419 0 244
0 101 1 3496 1 6136 0 127
0 126 1 3812 1 4141 0 96
0 258 0 1552 1 3092 0 74
0 70 1 5011 1 4280 0 108
0 143 1 5476 1 5990 0 105
0 111 1 4180 1 6872 0 76
0 109 1 5950 1 6001 0 108
0 103 1 2504 1 10848 0 226
0 75 1 3487 1 4207 0 138
0 72 1 3255 1 4396 0 170
0 185 1 7647 1 2475 0 72
0 77 1 4778 1 2586 0 85
0 212 1 5843 1 3832 0 123
0 110 1 7368 1 3756 0 90
0 116 1 4867 1 4730 0 88
0 98 1 4549 1 6800 0 95
0 2535 0 280 1 3548 0 59
0 75 1 3754 1 4438 0 136
0 112 1 3954 1 2474 0 78
0 255 1 7225 1 8063 0 78
0 112 1 5549 1 3309 0 199
0 63 1 6556 1 6195 0 216
0 110 1 4458 1 3360 0 123
0 89 1 6316 1 2634 0 87
0 100 1 4523 1 3855 0 102
0 75 1 3973 1 4795 0 170
0 120 1 10192 1 3680 0 96
0 260 0 1005 1 2656 0 80
0 106 1 7026 1 6725 0 77
0 88 1 4311 1 6370 0 149
0 105 1 3304 1 4087 0 101
0 137 1 5860 1 2972 0 77
0 78 1 5431 1 5553 0 150
0 129 0 5103 1 3786 0 92
0 131 1 10650 1 3980 0 85
0 96 1 7794 1 7471 0 142
0 131 1 7156 1 4540 0 115
0 98 1 5684 1 4911 0 61
0 129 1 8148 1 3726 0 106
0 84 1 6023 1 5668 0 136
0 74 1 9198 1 4581 0 121
0 88 1 6456 1 6181 0 155
0 95 1 2195 0 584 0 232
0 123 1 7591 1 4760 0 104
0 99 1 3190 1 4388 0 142
0 85 1 3960 1 4759 0 90
0 123 1 5691 1 3980 0 95
0 118 1 4988 1 11790 0 96
0 122 1 5726 1 6876 0 116
0 93 1 7546 1 3400 0 103
1 7812 0 174 1 4731 0 71
0 132 1 5177 1 4181 0 99
0 97 1 3669 1 5448 0 83
0 105 1 3988 1 3626 0 157
0 81 1 7130 1 4001 0 120
0 291 1 7181 1 3750 0 71
0 145 1 11491 1 8251 0 137
0 92 1 5887 1 4745 0 135
0 116 1 6330 1 9127 0 67
0 98 1 3748 1 5327 0 131
0 100 1 5075 1 5042 0 69
0 113 1 5177 1 6457 0 94
0 80 1 3946 1 10400 0 139
0 70 1 4902 1 2763 0 88
0 147 1 4505 1 3602 0 167
0 135 1 7892 1 2210 0 102
0 151 1 5131 1 4142 0 141
0 237 1 7410 1 4545 0 61
0 89 1 3133 1 6767 0 157
0 134 1 4817 1 6162 0 72
0 88 1 4048 1 4631 0 128
0 112 1 3718 1 7109 0 66
0 55 1 3904 0 403 0 411
0 154 1 6096 1 3694 0 104
0 116 1 5205 1 4609 0 96
0 169 1 7242 1 2855 0 57
0 128 1 3147 1 4111 0 87
0 115 1 5553 1 1803 0 92
0 99 1 7700 0 840 0 384
0 112 1 7643 1 5262 0 89
0 177 1 6701 1 7022 0 62
0 66 1 3145 1 6673 0 81
0 122 1 4320 1 3603 0 83
0 226 1 4501 1 5991 0 79
0 80 1 4306 1 5711 0 131
0 68 1 4808 1 5716 0 139
0 94 1 7017 1 5176 0 259
0 73 1 2866 1 2821 0 104
0 144 1 4937 1 4617 0 97
0 242 1 9288 1 2705 0 67
0 85 1 4723 1 4741 0 155
0 131 1 3643 1 8057 0 79
0 169 1 10146 1 3847 0 65
0 89 1 5885 1 6540 0 139
0 418 0 1213 1 6544 0 59
0 171 1 9492 1 4758 0 107
0 74 1 3215 1 4812 0 138
0 80 1 2346 0 230 1 6651
0 73 1 3972 0 114 1 5533
0 87 1 2589 1 4506 0 111
0 93 1 8622 1 5497 0 202
0 100 1 2424 1 4792 0 136
0 121 1 8710 1 3501 0 82
0 80 1 7848 1 2135 0 111
0 124 1 3776 1 4023 0 73
0 77 1 5745 0 1389 0 211
0 90 1 3674 1 4931 0 147
0 68 1 5530 0 1236 0 133
0 99 1 6153 1 6718 0 81
0 88 1 4836 1 3938 0 198
0 132 1 4070 0 4156 0 121
0 70 1 5241 0 278 0 962
0 115 1 3889 1 4665 0 94
0 618 0 205 1 7373 0 62
0 128 1 7397 1 3111 0 54
0 72 1 5290 1 3245 0 130
0 84 1 7887 1 3397 0 146
0 79 1 4155 1 2507 0 95
0 82 1 3019 1 7084 0 99
0 126 1 4978 1 7664 0 128
0 160 1 4286 1 4217 0 70
0 119 1 4288 1 5497 0 306
0 109 1 5615 1 13034 0 157
0 66 1 3118 1 10810 0 96
0 119 1 3148 1 4258 0 91
0 98 1 5817 1 4501 0 67
0 103 1 5015 1 3362 0 134
0 123 1 6298 1 12777 0 185
0 74 1 3056 1 4339 0 110
0 153 1 6089 1 4720 0 91
0 62 1 4153 1 7818 0 128
0 139 1 6701 1 3375 0 105
0 73 1 5212 0 244 0 1061
0 167 1 5781 1 3500 0 104
0 131 1 5179 1 1909 0 67
0 84 1 6141 1 5318 0 116
0 115 1 7521 1 5919 0 151
0 101 1 9092 1 4197 0 157
0 80 1 4862 0 676 0 2967
0 116 1 2824 1 3470 0 96
0 90 1 3231 1 3947 0 144
0 93 1 4879 1 7807 0 102
0 98 1 5855 1 6340 0 108
0 89 1 5288 1 3355 0 91
0 107 1 4941 1 2998 0 86
0 187 1 8770 1 4001 0 91
0 92 1 3975 1 6516 0 126
0 205 1 4219 1 6415 0 98
0 127 1 5342 1 8679 0 93
0 77 1 4803 1 4566 0 157
0 95 0 2848 1 4505 0 63
0 67 1 2566 1 6673 0 110
0 70 1 3425 1 7733 0 76
0 116 1 4027 1 4067 0 83
0 80 1 5804 1 2849 0 66
0 76 1 2452 1 3634 0 74
0 115 1 3758 1 5805 0 317
0 76 1 7069 1 2387 0 109
0 129 1 6048 1 2481 0 74
0 131 1 4369 1 5568 0 135
0 111 1 2559 1 5398 0 107
0 79 1 1904 0 2544 0 130
0 149 1 6893 1 7384 0 140
0 168 1 3219 1 4624 0 88
0 81 1 7809 1 10665 0 113
0 89 1 4056 1 5488 0 104
0 190 1 7965 1 7151 0 112
0 92 1 5090 0 526 1 8590
0 56 1 2336 0 1702 0 143
0 84 1 4825 0 534 0 801
0 96 1 4098 1 3142 0 101
0 86 1 5422 1 5114 0 206
0 99 1 5258 1 5026 0 94
0 75 1 3951 0 293 1 9365
0 233 1 9295 1 3698 0 81
0 80 1 5544 1 3484 0 115
0 137 1 8012 1 7176 0 121
0 79 1 4157 1 3764 0 206
0 65 1 3964 0 836 0 251
0 81 1 3684 1 4334 0 203
0 228 1 6797 1 2190 0 101
0 117 1 5669 1 8543 0 121
0 110 1 6896 1 7056 0 106
0 168 1 3486 1 8706 0 81
0 117 1 3445 1 4538 0 110
0 108 1 5528 1 4090 0 121
0 82 1 4381 1 4147 0 73
0 82 1 3463 1 6089 0 81
0 384 1 5805 1 3075 0 75
0 77 1 3823 1 7399 0 152
0 132 1 3338 1 3057 0 85
0 122 1 5662 1 6612 0 85
0 121 1 7300 1 3877 0 84
0 98 1 5514 1 6017 0 59
0 233 1 5070 1 4007 0 103
0 141 1 5585 1 5710 0 108
0 112 1 2895 1 3742 0 80
0 126 1 2653 1 5954 0 116
0 73 1 2730 1 8090 0 526
0 109 1 3503 1 5472 0 155
0 260 1 7949 1 3368 0 98
0 92 1 5897 1 7177 0 95
0 91 1 5941 1 5185 0 109
0 91 1 7483 1 5801 0 86
0 201 1 5055 1 3385 0 58
0 108 1 4124 1 3276 0 158
0 110 1 6304 1 4745 0 68
0 91 1 3205 1 6276 0 72
0 132 1 3514 1 4499 0 77
0 93 1 4007 1 4791 0 109
0 116 1 8073 1 3147 0 93
0 68 1 4323 1 6760 0 220
0 127 1 4330 1 4112 0 91
0 93 1 4954 1 3584 0 135
0 81 1 5295 1 6808 0 300
0 86 1 4702 1 7133 0 121
0 213 1 7148 1 6463 0 84
0 84 1 3405 1 5191 0 100
0 82 1 3599 1 6878 0 698
0 69 1 5896 1 3975 0 88
0 107 1 8385 1 6483 0 163
0 227 1 5387 1 4679 0 82
0 131 1 5811 1 8642 0 105
0 138 1 6891 1 5987 0 102
0 62 1 6666 1 7178 0 208
0 507 1 5585 1 2128 0 51
0 65 1 4731 0 2579 0 235
0 77 1 6524 1 5869 0 82
0 76 1 4439 1 10812 0 135
0 58 1 3338 1 6804 0 161
0 75 1 5106 1 3679 0 161
0 151 1 4282 1 2873 0 124
0 86 1 2052 1 4437 0 116
0 80 1 7354 1 3075 0 96
0 109 1 5679 1 3569 0 67
0 92 1 3486 0 1996 0 261
0 79 1 3405 1 3602 0 204
0 354 0 322 1 5511 0 74
0 110 1 3065 1 3319 0 93
0 199 1 4965 1 5124 0 85
0 81 1 4022 1 3443 0 132
0 101 1 7659 1 4592 0 94
0 91 1 5498 1 6335 0 112
0 101 1 4404 1 3949 0 241
0 181 1 7102 1 4164 0 82
0 106 1 3168 1 1750 0 59
0 93 1 4194 1 7713 0 133
0 130 1 6444 1 3308 0 81
0 463 0 1206 1 3561 0 80
0 104 1 7590 1 6855 0 105
0 233 1 7418 1 5360 0 75
0 156 1 13689 1 4722 0 95
0 107 1 3960 1 4639 0 107
0 121 1 6780 0 2585 0 167
0 81 1 4199 1 9351 0 83
0 104 1 5835 1 4828 0 104
0 117 1 6188 1 3780 0 91
0 129 1 8247 1 3903 0 128
0 108 1 5397 1 4106 0 113
0 217 1 6030 1 7793 0 96
0 87 1 5728 1 3710 0 148
0 121 0 2924 1 4095 0 122
0 81 1 3159 1 4732 0 142
0 151 1 4123 1 7625 0 153
0 84 1 4264 1 4767 0 85
0 212 0 1184 1 2952 0 72
0 115 1 5224 1 5248 0 80
0 79 1 4865 1 3336 0 96
0 90 1 4359 1 9417 0 88
0 69 1 4725 1 14856 0 189
0 92 1 3490 1 5271 0 70
0 100 1 3457 1 2650 0 95
0 101 1 3947 1 4412 0 87
0 83 1 6337 0 402 0 3508
0 80 1 3245 1 6080 0 83
0 103 1 7529 1 4984 0 111
0 107 1 2932 1 6991 0 86
0 88 1 7370 1 5886 0 126
0 230 1 4150 1 5398 0 78
0 858 0 488 1 6529 0 99
0 86 1 4566 1 2667 0 68
0 146 1 5547 1 4405 0 85
0 126 1 3917 1 3793 0 113
0 85 1 4418 1 4897 0 98
0 95 1 4281 1 6457 0 78
0 119 1 7921 1 6601 0 87
0 148 1 5389 1 5047 0 78
0 131 1 5891 1 6531 0 94
0 77 1 4714 0 1777 0 389
0 113 1 5216 1 2858 0 112
0 112 1 6857 1 4544 0 164
0 60 1 2757 1 4975 0 94
0 82 1 2590 1 3932 0 83
0 81 1 4572 0 1449 0 361
0 108 1 6167 1 4262 0 93
1 8417 0 353 1 10281 0 75
0 117 1 4372 1 5519 0 107
0 89 1 12301 1 8181 0 190
0 112 1 3048 0 376 0 352
0 108 1 4771 1 2410 0 106
0 66 1 4361 1 4967 0 108
0 202 0 3397 1 2588 0 64
0 97 1 2816 1 3405 0 215
0 57 1 3753 0 2916 0 435
0 104 1 5026 1 4210 0 82
0 137 1 5131 1 2789 0 106
0 64 1 6094 1 2547 0 151
0 135 1 8272 0 1547 0 92
0 125 1 7532 1 7525 0 81
0 73 1 2746 1 4610 0 117
0 444 1 7708 1 4204 0 97
0 105 1 6097 1 5771 0 172
0 87 1 3160 1 4210 0 202
0 124 1 11333 1 4720 0 95
0 96 1 4208 1 5101 0 89
0 86 1 6182 1 3491 0 142
0 502 0 960 1 2629 0 100
0 71 1 5599 1 5131 0 111
0 61 1 3713 0 329 0 425
0 160 1 7236 1 6303 0 119
0 80 1 6893 0 414 0 519
0 145 1 3326 0 5398 0 149
0 86 1 3052 1 6970 0 63
0 233 0 343 1 3330 0 70
0 97 1 2994 1 3089 0 120
0 205 1 6114 1 4598 0 70
0 76 1 4553 1 2990 0 103
0 90 1 5025 1 6015 0 115
0 81 1 2799 1 8465 0 119
0 80 1 3346 1 2763 0 110
1 2125 0 129 1 2597 0 79
1 3432 0 166 1 6038 0 70
0 212 1 11789 1 7726 0 59
0 115 1 2575 1 4663 0 144
0 75 1 4928 0 144 1 5071
0 98 1 6367 1 2628 0 57
0 607 1 4022 1 4622 0 126
0 70 0 1235 1 6461 0 84
0 156 1 6606 1 5342 0 71
0 86 1 8038 1 5776 0 89
0 89 1 8475 1 7767 0 116
0 61 1 3147 1 4943 0 117
0 109 1 2814 1 5314 0 114
0 140 1 5326 1 6206 0 86
0 60 1 6155 1 4601 0 111
0 98 1 5153 1 8252 0 92
0 125 1 7042 1 7696 0 116
0 117 1 5380 0 694 0 306
0 176 1 4679 1 6115 0 92
0 156 1 4156 1 5543 0 119
0 81 1 6065 1 5712 0 72
0 88 1 6281 1 5555 0 95
0 100 1 7334 1 5548 0 145
0 143 1 7026 1 5181 0 131
0 129 1 4939 1 5682 0 98
0 93 1 4856 1 3641 0 103
0 135 1 6698 1 2998 0 72
0 171 1 7351 1 3895 0 81
0 211 1 5781 1 5946 0 106
0 71 1 3844 0 211 0 2419
0 106 1 9070 1 8746 0 109
0 351 0 361 1 5280 0 91
0 126 1 5362 1 10643 0 116
0 97 1 2319 0 1702 0 119
0 89 1 4928 1 4213 0 116
0 98 1 6536 1 6258 0 141
0 103 1 4511 1 2543 0 73
0 117 1 3672 1 6264 0 115
0 98 1 3446 1 7717 0 102
0 71 1 4186 1 5277 0 142
0 88 1 8521 1 3559 0 66
0 110 1 6787 1 6174 0 143
0 130 1 5104 1 7132 0 113
0 73 1 4303 0 471 0 612
0 88 1 4670 1 7189 0 91
0 140 1 3652 1 4689 0 66
0 131 1 5668 1 5451 0 105
0 68 1 3789 0 406 0 741
0 108 1 8761 1 5677 0 126
0 76 1 2602 1 7574 0 172
0 82 1 4663 1 5829 0 94
0 135 1 5809 1 4532 0 122
0 216 1 6804 1 10654 0 113
0 56 1 4994 1 5937 0 128
0 230 0 2123 1 2886 0 54
0 122 1 4024 1 3521 0 81
0 70 1 7390 1 8277 0 160
1 5801 0 160 1 2801 0 81
0 241 1 4218 1 6734 0 92
0 82 1 2894 1 6016 0 118
0 96 1 4305 0 772 0 754
0 111 1 5004 1 5014 0 82
0 72 1 3847 1 5571 0 86
0 77 1 3247 1 6676 0 63
0 143 1 7270 1 6343 0 101
0 168 1 9122 1 3522 0 76
0 135 1 3931 1 5421 0 92
0 98 1 5046 1 8811 0 136
0 291 0 525 1 4540 0 137
0 133 1 7285 1 3699 0 100
0 382 0 416 1 1862 0 82
0 96 1 7246 1 3160 0 81
0 153 1 4257 1 5054 0 82
0 160 1 4437 1 5433 0 68
0 173 1 6595 1 5217 0 62
0 87 1 4030 0 581 0 224
0 107 1 7365 0 2305 0 127
0 79 1 6524 1 6519 0 119
0 123 1 3739 1 4326 0 147
0 94 1 7248 1 5934 0 113
0 72 1 2707 1 2576 0 96
0 94 1 3662 1 3352 0 66
0 95 1 6953 1 5211 0 101
0 87 1 4426 0 2115 0 397
0 66 1 5733 0 199 0 1952
0 95 1 3030 1 5318 0 121
0 148 0 897 1 4714 0 61
0 99 1 4989 1 6247 0 85
0 79 1 5964 1 4260 0 499
0 82 1 3873 0 369 0 1082
0 82 1 3406 1 5296 0 87
0 107 1 6363 1 6470 0 111
0 169 1 6940 1 7624 0 71
0 147 1 3356 1 4488 0 76
0 114 1 5061 1 3272 0 103
0 62 1 2460 1 6879 0 326
0 185 1 5673 1 2553 0 80
0 66 1 4706 1 2986 0 71
0 107 1 4272 1 7294 0 90
0 132 1 5502 1 4961 0 75
0 69 1 5529 0 367 1 6535
0 121 1 4007 1 4579 0 73
0 335 0 752 1 4816 0 73
0 109 1 6168 1 3473 0 63
0 91 1 6182 1 4943 0 122
0 181 1 6444 1 4069 0 66
0 210 0 1188 1 5213 0 68
0 145 1 6412 1 2898 0 84
0 87 1 5054 1 3202 0 177
0 133 1 5763 1 7323 0 79
0 83 1 3211 1 11905 0 350
0 92 1 5335 1 3629 0 102
0 85 1 5414 1 9567 0 122
0 160 1 3127 1 4531 0 70
0 118 1 5566 1 4541 0 111
0 106 1 5379 1 3785 0 87
0 122 1 3012 1 3883 0 100
0 128 1 5416 1 10619 0 77
0 136 1 5095 1 5019 0 146
0 93 1 6704 1 4467 0 96
0 136 1 6031 1 4678 0 96
0 96 1 4557 1 4639 0 108
0 74 1 1667 0 255 1 11949
0 132 1 3116 1 7548 0 143
0 80 1 2144 1 4255 0 133
0 75 1 6417 1 3594 0 74
0 104 1 4541 1 2570 0 121
0 106 1 4732 0 5370 0 93
0 172 1 4649 1 2959 0 88
0 126 1 8290 1 5210 0 81
0 143 1 10018 1 3136 0 74
0 92 1 2941 1 7884 0 140
0 219 1 7134 1 3916 0 87
0 91 1 3035 1 7461 0 169
0 82 1 5638 1 6596 0 132
0 119 1 4448 1 2305 0 122
0 97 1 3474 1 8575 0 87
0 81 1 5514 1 4930 0 173
0 161 1 10011 1 3705 0 60
0 80 1 6798 1 4167 0 116
0 87 1 5398 1 5541 0 115
0 65 1 5997 1 10511 0 98
0 87 1 4969 1 4373 0 74
0 238 0 1344 1 4529 0 57
1 5690 0 223 1 3215 0 69
0 239 0 760 1 4316 0 72
0 110 1 4338 1 5779 0 268
0 119 1 3565 1 3554 0 103
0 286 1 7449 1 7038 0 82
0 129 1 4472 1 5649 0 86
0 85 1 3861 1 6108 0 103
0 66 1 3500 1 6069 0 185
0 201 1 7130 1 3200 0 90
0 104 0 1543 1 4032 0 122
0 67 1 4109 1 4412 0 151
0 219 1 3981 1 6243 0 105
0 148 1 5826 1 4268 0 121
0 70 1 3072 1 7709 0 89
1 6865 0 298 1 4126 0 101
0 122 1 5989 1 4344 0 125
0 96 1 5586 1 7255 0 102
0 135 1 4840 1 5629 0 164
0 79 1 6099 1 5580 0 121
0 87 1 6296 1 3338 0 73
0 91 1 5613 1 3919 0 102
0 118 1 3773 1 2751 0 221
0 143 1 5258 1 4201 0 82
0 109 1 5376 1 3822 0 87
0 66 1 3500 1 5617 0 151
0 83 1 3229 1 5661 0 82
0 143 1 4893 1 3411 0 64
0 227 0 3741 1 5098 0 85
0 127 0 1537 1 4611 0 125
0 108 1 6362 0 1139 0 209
0 115 1 4865 1 8390 0 83
0 67 1 3007 1 7171 0 82
0 99 1 5866 1 5782 0 173
0 120 1 6563 0 4730 0 289
0 62 1 1858 1 5766 0 193
0 56 1 3671 1 5096 0 114
0 81 1 3104 1 7654 0 125
0 117 1 3610 1 3305 0 155
0 96 1 5018 1 4425 0 72
0 175 1 3720 1 9404 0 79
0 138 1 4886 1 3022 0 146
0 217 1 4968 1 4779 0 115
0 293 1 7881 1 2559 0 81
0 85 1 4453 1 4174 0 182
0 95 1 3911 1 5482 0 106
0 93 1 9207 1 5865 0 77
0 119 1 5453 1 3978 0 84
0 127 1 4567 1 3939 0 82
0 136 1 5532 1 4122 0 99
0 93 1 4673 1 5829 0 161
0 107 1 4671 1 6247 0 80
0 77 1 7167 1 5289 0 205
0 97 1 4777 1 3740 0 86
0 62 1 3181 1 6332 0 114
0 78 1 3237 1 3761 0 76
0 65 1 2223 1 7735 0 191
1 4396 0 433 1 3049 0 58
0 82 1 3673 1 8936 0 248
0 100 1 4482 1 3693 0 114
0 120 1 4282 1 3044 0 75
0 165 1 5109 1 2274 0 88
0 156 1 6312 1 3084 0 80
1 4187 0 249 1 3491 0 57
0 149 1 7661 1 10753 0 201
0 98 1 8015 1 5224 0 71
0 89 1 4772 1 3260 0 94
0 115 1 4577 1 5955 0 124
0 71 1 3433 1 9628 0 156
0 136 1 5598 1 2337 0 80
0 87 1 5392 1 3748 0 64
1 6637 0 251 1 2405 0 107
0 81 1 3842 1 5051 0 69
1 5548 0 213 1 3511 0 74
0 73 1 4268 0 2054 0 172
0 223 1 5616 1 3189 0 73
0 74 1 3207 1 4495 0 99
0 70 1 2212 1 5620 0 84
