Parameters: seed=650816263, s1=0.001000, s2=0.001000, s3=0.001000, s4=0.001000, e12=-0.200000, e13=0.000000, e14=0.000000, e23=0.000000, e24=0.000000, e34=-0.200000, r12=0.000100, r23=0.000100, r34=0.000100, h12=1, h13=1, h14=1, h23=1, h24=1, h34=1 , n_gen=10000000, n_ind=10000 initial freq: 0.000000 0.000000 0.000000 0.000000 0.000000 0.500000 0.000000 0.000000 0.000000 0.000000 0.500000 0.000000 0.000000 0.000000 0.000000 0.000000
1 31 0 31 1 31 0 31
1 43 0 43 1 43 0 43
1 201 0 45 1 45 0 45
0 35 1 35 0 35 1 46
1 34 0 34 1 34 0 34
0 34 1 34 0 34 1 34
1 36 0 36 1 36 0 36
0 34 1 34 0 34 1 34
0 37 1 37 0 37 1 37
1 165 0 40 1 40 0 40
0 43 1 43 0 49 1 49
1 44 0 35 1 35 0 35
0 39 1 39 0 39 1 39
0 48 1 48 0 48 1 89
1 1951 0 39 1 39 0 39
0 32 1 32 0 32 1 32
0 54 1 124 0 73 1 734
1 31 0 31 1 31 0 31
1 39 0 39 1 39 0 39
1 63 0 48 1 48 0 48
0 43 1 43 0 43 1 43
1 41 0 41 1 41 0 41
1 35 0 35 1 35 0 35
1 54 0 47 1 47 0 47
1 35 0 35 1 35 0 35
0 38 1 38 0 38 1 38
0 41 1 41 0 41 1 313
0 42 1 42 0 42 1 55
0 47 1 56 0 56 1 80
0 30 1 32 0 32 1 32
0 46 1 46 0 46 1 46
1 420 0 44 1 44 0 44
1 75 0 47 1 44 0 44
1 47 0 47 1 47 0 47
0 47 1 47 0 47 1 47
1 265 0 60 1 60 0 60
1 57 0 57 1 57 0 57
1 399 0 48 1 48 0 48
1 53 0 53 1 53 0 53
0 38 1 38 0 38 1 38
0 37 1 38 0 38 1 63
1 198 0 44 1 44 0 44
0 44 1 44 0 44 1 60
0 38 1 38 0 38 1 38
1 43 0 43 1 43 0 43
1 58 0 41 1 41 0 41
1 789 0 37 1 37 0 37
1 45 0 45 1 45 0 45
1 99 0 45 1 45 0 45
0 42 1 42 0 42 1 150
0 37 1 37 0 37 1 603
0 37 1 37 0 37 1 37
0 40 1 40 0 40 1 50
1 141 0 35 1 35 0 35
0 47 1 60 0 50 1 85
0 37 1 37 0 37 1 54
1 38 0 38 1 38 0 38
0 41 1 41 0 41 1 125
1 78 0 37 1 37 0 37
1 35 0 35 1 35 0 35
1 67 0 41 1 41 0 41
1 41 0 40 1 40 0 40
0 39 1 39 0 39 1 39
0 48 1 48 0 48 1 48
0 44 1 44 0 44 1 62
1 48 0 48 1 43 0 43
0 46 1 47 0 47 1 343
1 45 0 45 1 45 0 45
1 57 0 35 1 35 0 35
1 112 0 43 1 43 0 43
1 151 0 44 1 44 0 44
1 55 0 47 1 44 0 44
0 39 1 39 0 39 1 116
0 40 1 40 0 40 1 141
1 41 0 36 1 36 0 36
1 43 0 43 1 43 0 43
1 37 0 37 1 37 0 36
0 42 1 42 0 42 1 66
0 38 1 38 0 38 1 38
0 41 1 41 0 41 1 41
1 45 0 45 1 45 0 45
1 40 0 40 1 40 0 40
0 49 1 49 0 49 1 939
0 40 1 40 0 40 1 40
0 63 1 63 0 63 1 108
1 128 0 38 1 39 0 39
1 48 0 48 1 48 0 48
1 40 0 40 1 40 0 40
1 42 0 42 1 42 0 42
0 31 1 31 0 30 1 107
1 146 0 42 1 42 0 42
0 39 1 39 0 39 1 76
0 41 1 41 0 41 1 107
0 39 1 39 0 39 1 256
1 53 0 53 1 53 0 53
0 36 1 36 0 36 1 255
1 138 0 44 1 44 0 44
1 296 0 49 1 49 0 47
1 1462 0 36 1 36 0 36
1 1508 0 71 1 71 0 71
0 37 1 37 0 37 1 167
1 42 0 42 1 42 0 42
0 39 1 56 0 56 1 117
1 44 0 44 1 44 0 43
1 35 0 35 1 35 0 35
1 178 0 49 1 49 0 49
1 46 0 46 1 46 0 46
1 170 0 59 1 59 0 59
0 43 1 43 0 43 1 51
1 49 0 49 1 49 0 49
0 45 1 45 0 45 1 46
0 39 1 39 0 39 1 409
1 34 0 34 1 34 0 34
1 44 0 44 1 44 0 44
1 88 0 49 1 49 0 43
0 43 1 43 0 43 1 258
0 38 1 38 0 38 1 38
0 36 1 36 0 36 1 188
1 171 0 44 1 44 0 44
1 44 0 44 1 44 0 44
1 35 0 35 1 35 0 35
1 121 0 45 1 45 0 45
1 87 0 54 1 54 0 54
1 77 0 46 1 46 0 37
1 38 0 38 1 38 0 38
1 1747 0 46 1 46 0 45
0 46 1 46 0 46 1 53
0 38 1 38 0 38 1 38
1 66 0 66 1 39 0 39
0 38 1 38 0 38 1 38
1 1086 0 51 1 51 0 51
0 41 1 41 0 41 1 256
0 42 1 42 0 42 1 42
0 42 1 42 0 42 1 136
1 262 0 57 1 57 0 57
0 48 1 48 0 48 1 65
0 40 1 40 0 40 1 40
1 36 0 36 1 36 0 36
1 1559 0 35 1 35 0 35
1 119 0 53 1 53 0 53
0 38 1 39 0 39 1 154
0 43 1 43 0 43 1 92
0 48 1 48 0 48 1 552
1 45 0 45 1 45 0 45
1 41 0 41 1 37 0 37
1 37 0 37 1 37 0 37
0 37 1 37 0 37 1 37
0 39 1 39 0 39 1 145
1 117 0 45 1 45 0 45
1 49 0 49 1 49 0 49
0 40 1 40 0 40 1 811
1 45 0 45 1 45 0 45
0 33 1 33 0 33 1 33
0 42 1 52 0 52 1 52
1 37 0 37 1 37 0 37
1 72 0 51 1 51 0 51
1 231 0 45 1 45 0 45
1 42 0 42 1 42 0 42
0 34 1 34 0 34 1 34
0 44 1 44 0 44 1 56
1 43 0 43 1 43 0 43
1 35 0 35 1 35 0 34
0 38 1 38 0 38 1 150
1 212 0 72 1 72 0 54
0 35 1 35 0 35 1 66
0 47 1 47 0 47 1 47
1 53 0 50 1 50 0 50
1 273 0 56 1 56 0 56
1 1077 0 41 1 53 0 53
1 216 0 34 1 34 0 34
1 43 0 43 1 43 0 43
0 36 1 36 0 36 1 36
1 336 0 67 1 67 0 66
0 42 1 42 0 42 1 130
0 31 1 31 0 31 1 56
1 930 0 42 1 42 0 42
0 37 1 37 0 37 1 37
1 158 0 41 1 41 0 41
0 37 1 37 0 37 1 84
1 37 0 37 1 37 0 37
1 36 0 36 1 36 0 36
1 41 0 41 1 41 0 41
1 36 0 36 1 36 0 36
0 39 1 39 0 39 1 70
0 43 1 43 0 43 1 170
1 50 0 50 1 50 0 46
1 100 0 36 1 36 0 36
0 42 1 42 0 42 1 42
1 35 0 35 1 35 0 35
1 41 0 41 1 41 0 36
0 33 1 33 0 33 1 33
0 42 1 42 0 42 1 46
0 39 1 39 0 39 1 43
0 35 1 35 0 35 1 37
0 53 1 53 0 53 1 597
1 92 0 46 1 46 0 38
0 36 1 36 0 36 1 63
0 40 1 40 0 40 1 69
0 37 1 37 0 37 1 74
0 36 1 36 0 36 1 36
0 45 1 45 0 45 1 93
1 1043 0 39 1 39 0 39
0 35 1 35 0 35 1 35
0 40 1 40 0 40 1 40
1 175 0 38 1 38 0 38
0 40 1 44 0 44 1 132
1 52 0 52 1 52 0 46
1 448 0 46 1 46 0 46
1 43 0 43 1 43 0 43
1 158 0 43 1 43 0 43
1 44 0 40 1 40 0 40
0 35 1 35 0 35 1 35
1 782 0 58 1 49 0 49
0 45 1 45 0 45 1 45
0 38 1 38 0 38 1 38
1 1568 0 65 1 65 0 57
0 35 1 35 0 35 1 35
1 153 0 39 1 39 0 39
1 1207 0 47 1 47 0 47
1 838 0 37 1 37 0 37
0 43 1 43 0 43 1 43
0 33 1 33 0 34 1 34
1 52 0 41 1 41 0 40
0 37 1 37 0 37 1 37
1 2148 0 54 1 54 0 54
0 45 1 45 0 45 1 45
0 46 1 46 0 46 1 46
1 142 0 41 1 41 0 41
1 50 0 50 1 50 0 50
1 53 0 33 1 33 0 33
0 38 1 38 0 38 1 70
0 39 1 39 0 39 1 39
0 31 1 31 0 31 1 31
0 37 1 37 0 37 1 711
0 35 1 35 0 35 1 35
1 99 0 54 1 54 0 54
0 38 1 38 0 38 1 38
1 156 0 51 1 51 0 51
1 501 0 72 1 72 0 58
1 843 0 39 1 39 0 39
0 39 1 39 0 39 1 240
0 45 1 45 0 45 1 45
1 432 0 40 1 39 0 39
1 48 0 41 1 41 0 41
0 38 1 38 0 38 1 68
0 50 1 50 0 50 1 50
0 38 1 38 0 38 1 45
0 41 1 41 0 41 1 184
1 1142 0 39 1 39 0 39
1 105 0 44 1 44 0 44
1 46 0 46 1 43 0 43
1 224 0 36 1 36 0 36
0 34 1 34 0 34 1 36
0 36 1 36 0 36 1 582
1 44 0 43 1 45 0 45
1 39 0 39 1 39 0 39
0 39 1 40 0 40 1 40
0 49 1 58 0 58 1 58
1 158 0 54 1 54 0 54
0 45 1 45 0 45 1 45
1 44 0 44 1 44 0 33
0 34 1 34 0 34 1 34
0 34 1 34 0 34 1 48
0 65 1 70 0 70 1 129
1 60 0 36 1 36 0 36
1 41 0 41 1 41 0 41
1 47 0 47 1 47 0 47
0 32 1 32 0 32 1 32
0 44 1 49 0 49 1 113
0 41 1 41 0 36 1 268
0 54 1 54 0 54 1 54
1 49 0 49 1 49 0 49
0 36 1 36 0 36 1 36
0 49 1 49 0 49 1 68
1 101 0 40 1 40 0 40
1 37 0 37 1 37 0 37
1 45 0 45 1 45 0 45
0 35 1 55 0 55 1 55
1 58 0 42 1 42 0 42
0 49 1 49 0 40 1 40
0 41 1 41 0 41 1 407
1 94 0 41 1 41 0 41
1 44 0 44 1 44 0 44
1 50 0 33 1 33 0 33
1 79 0 38 1 38 0 38
1 45 0 40 1 40 0 40
1 46 0 46 1 46 0 46
1 52 0 52 1 52 0 52
0 37 1 37 0 37 1 124
0 33 1 33 0 44 1 44
1 361 0 43 1 43 0 43
0 33 1 33 0 33 1 33
1 2724 0 57 1 57 0 57
0 41 1 41 0 41 1 84
1 47 0 47 1 47 0 47
1 206 0 40 1 40 0 40
1 549 0 35 1 35 0 35
1 52 0 40 1 40 0 40
1 37 0 37 1 37 0 37
0 48 1 48 0 48 1 48
0 38 1 38 0 38 1 491
0 38 1 38 0 38 1 38
1 38 0 38 1 38 0 38
0 44 1 44 0 44 1 44
1 43 0 43 1 43 0 43
0 41 1 42 0 42 1 93
1 175 0 52 1 52 0 52
0 40 1 40 0 40 1 40
0 47 1 47 0 47 1 47
1 36 0 36 1 36 0 36
1 41 0 41 1 41 0 41
0 44 1 44 0 44 1 98
0 51 1 51 0 51 1 51
0 36 1 36 0 37 1 75
0 38 1 38 0 38 1 38
0 43 1 43 0 43 1 125
1 75 0 56 1 56 0 56
1 40 0 40 1 40 0 40
1 34 0 34 1 34 0 34
0 38 1 38 0 38 1 38
0 38 1 38 0 38 1 55
0 42 1 42 0 42 1 42
1 41 0 41 1 41 0 41
1 43 0 43 1 43 0 43
1 45 0 39 1 39 0 39
0 44 1 44 0 44 1 44
0 48 1 48 0 48 1 48
1 40 0 40 1 40 0 40
1 51 0 51 1 46 0 45
0 51 1 51 0 39 1 39
1 52 0 52 1 52 0 41
0 35 1 35 0 35 1 39
1 45 0 45 1 45 0 45
0 42 1 42 0 42 1 42
0 34 1 34 0 34 1 34
0 41 1 41 0 41 1 43
1 41 0 41 1 41 0 41
1 43 0 43 1 43 0 43
1 43 0 43 1 43 0 43
1 93 0 49 1 49 0 49
1 38 0 38 1 38 0 38
0 50 1 57 0 57 1 57
1 43 0 43 1 43 0 43
1 45 0 45 1 45 0 45
0 43 1 43 0 43 1 43
0 44 1 44 0 44 1 148
1 124 0 52 1 52 0 52
0 35 1 35 0 35 1 35
1 43 0 43 1 43 0 43
1 57 0 37 1 37 0 37
0 35 1 35 0 35 1 124
1 1094 0 43 1 43 0 43
1 39 0 39 1 39 0 39
0 40 1 40 0 40 1 45
0 56 1 56 0 56 1 159
1 108 0 46 1 46 0 46
0 53 1 53 0 53 1 596
1 40 0 40 1 40 0 40
0 47 1 47 0 47 1 47
1 40 0 40 1 40 0 40
0 41 1 41 0 41 1 137
1 36 0 36 1 36 0 36
0 39 1 39 0 39 1 153
0 44 1 44 0 44 1 52
1 1092 0 38 1 38 0 38
0 39 1 39 0 38 1 38
1 43 0 43 1 43 0 43
1 51 0 51 1 51 0 51
0 36 1 36 0 36 1 36
1 649 0 54 1 60 0 60
1 54 0 54 1 54 0 45
1 312 0 36 1 36 0 36
0 34 1 34 0 34 1 34
0 40 1 40 0 40 1 44
1 37 0 36 1 36 0 36
1 81 0 41 1 41 0 41
1 38 0 38 1 38 0 38
0 75 1 75 0 75 1 633
1 101 0 38 1 38 0 38
1 50 0 50 1 50 0 50
1 246 0 42 1 42 0 42
1 76 0 47 1 47 0 47
0 33 1 37 0 37 1 37
0 38 1 38 0 38 1 38
1 38 0 38 1 38 0 38
0 53 1 53 0 56 1 62
0 43 1 43 0 43 1 122
0 43 1 43 0 43 1 43
1 617 0 51 1 51 0 51
0 37 1 37 0 37 1 37
1 1241 0 43 1 43 0 43
0 39 1 39 0 35 1 35
0 45 1 45 0 45 1 70
1 102 0 46 1 46 0 46
0 47 1 49 0 49 1 60
1 43 0 43 1 43 0 43
1 92 0 48 1 48 0 48
0 47 1 47 0 47 1 140
0 35 1 35 0 35 1 35
0 34 1 34 0 34 1 34
1 44 0 36 1 36 0 36
1 97 0 44 1 46 0 46
1 43 0 43 1 43 0 43
1 205 0 35 1 35 0 35
1 34 0 34 1 34 0 34
1 48 0 48 1 48 0 48
1 79 0 54 1 54 0 54
0 50 1 51 0 51 1 731
1 495 0 34 1 34 0 34
1 96 0 45 1 45 0 39
0 39 1 39 0 39 1 39
0 39 1 39 0 39 1 39
1 45 0 45 1 45 0 45
0 46 1 46 0 46 1 247
1 302 0 59 1 59 0 59
1 44 0 36 1 36 0 36
0 40 1 40 0 40 1 40
1 35 0 35 1 35 0 35
0 53 1 53 0 48 1 274
1 228 0 36 1 36 0 36
0 38 1 38 0 38 1 38
0 37 1 37 0 37 1 142
0 36 1 36 0 36 1 36
1 35 0 35 1 35 0 35
0 42 1 42 0 42 1 133
0 41 1 41 0 41 1 41
0 46 1 46 0 46 1 51
1 59 0 41 1 41 0 41
1 47 0 47 1 47 0 47
0 49 1 49 0 49 1 101
1 47 0 43 1 43 0 43
1 39 0 39 1 39 0 38
1 45 0 45 1 45 0 45
1 32 0 32 1 32 0 31
1 316 0 51 1 51 0 51
0 35 1 35 0 35 1 87
0 41 1 41 0 39 1 1755
0 42 1 42 0 42 1 926
0 39 1 39 0 39 1 39
0 43 1 44 0 44 1 44
1 38 0 38 1 36 0 36
0 37 1 37 0 37 1 87
1 69 0 41 1 41 0 41
0 46 1 46 0 46 1 84
1 82 0 41 1 41 0 41
0 43 1 43 0 43 1 43
0 43 1 43 0 43 1 43
0 48 1 48 0 48 1 58
1 36 0 36 1 36 0 36
0 47 1 50 0 50 1 75
1 45 0 45 1 45 0 45
1 39 0 39 1 39 0 39
1 38 0 38 1 38 0 38
0 40 1 40 0 40 1 40
1 55 0 47 1 47 0 47
1 34 0 34 1 34 0 34
0 40 1 40 0 45 1 97
1 36 0 36 1 36 0 36
1 197 0 57 1 57 0 47
0 44 1 44 0 44 1 44
1 39 0 39 1 39 0 39
0 40 1 40 0 40 1 571
0 38 1 38 0 38 1 70
1 43 0 40 1 40 0 40
1 341 0 40 1 40 0 40
0 33 1 33 0 33 1 33
1 36 0 36 1 36 0 36
0 37 1 37 0 37 1 37
1 645 0 43 1 43 0 46
0 35 1 35 0 35 1 90
1 45 0 45 1 45 0 45
1 71 0 50 1 48 0 48
0 49 1 49 0 49 1 102
1 38 0 38 1 38 0 38
1 31 0 31 1 31 0 31
0 39 1 39 0 39 1 95
1 36 0 36 1 36 0 36
1 43 0 43 1 43 0 43
1 119 0 59 1 59 0 59
1 40 0 40 1 40 0 40
1 40 0 40 1 40 0 40
1 37 0 37 1 37 0 37
1 49 0 49 1 47 0 47
1 36 0 36 1 36 0 36
0 42 1 42 0 42 1 151
0 44 1 44 0 44 1 106
1 276 0 47 1 46 0 46
0 37 1 37 0 37 1 590
0 37 1 37 0 37 1 57
0 38 1 38 0 38 1 137
1 32 0 32 1 34 0 34
0 46 1 46 0 46 1 114
1 148 0 41 1 41 0 41
0 47 1 47 0 47 1 296
1 140 0 37 1 37 0 37
1 109 0 36 1 36 0 36
1 37 0 37 1 37 0 37
1 48 0 48 1 47 0 47
0 37 1 37 0 37 1 37
0 34 1 34 0 34 1 34
0 41 1 41 0 41 1 41
0 34 1 34 0 34 1 34
0 31 1 31 0 31 1 31
0 40 1 40 0 40 1 164
1 41 0 41 1 41 0 41
1 1190 0 48 1 48 0 48
1 39 0 39 1 39 0 39
1 38 0 38 1 38 0 38
1 91 0 41 1 41 0 34
0 36 1 36 0 36 1 36
1 207 0 36 1 36 0 36
1 44 0 44 1 44 0 44
0 44 1 44 0 44 1 213
1 33 0 33 1 33 0 33
1 35 0 35 1 35 0 35
1 47 0 39 1 39 0 39
0 36 1 36 0 36 1 36
1 32 0 32 1 32 0 32
1 749 0 39 1 39 0 39
1 40 0 40 1 40 0 40
0 37 1 37 0 37 1 37
0 43 1 43 0 43 1 60
0 42 1 42 0 42 1 42
0 53 1 53 0 52 1 134
1 313 0 50 1 50 0 50
0 37 1 37 0 37 1 37
1 789 0 50 1 50 0 50
1 37 0 37 1 37 0 37
1 63 0 39 1 39 0 39
0 42 1 42 0 34 1 3252
0 34 1 34 0 34 1 34
1 41 0 41 1 41 0 41
0 42 1 42 0 42 1 126
1 64 0 35 1 35 0 35
0 49 1 49 0 49 1 109
1 48 0 40 1 40 0 38
1 1494 0 74 1 74 0 62
0 46 1 46 0 46 1 46
1 37 0 37 1 37 0 37
0 52 1 52 0 52 1 146
1 42 0 39 1 39 0 39
1 291 0 57 1 57 0 51
0 77 1 77 0 77 1 309
0 40 1 40 0 40 1 40
1 44 0 44 1 44 0 44
1 49 0 49 1 49 0 49
0 36 1 36 0 36 1 708
1 32 0 32 1 32 0 32
0 34 1 34 0 34 1 34
0 44 1 44 0 44 1 85
0 43 1 43 0 43 1 43
1 38 0 38 1 37 0 37
0 39 1 39 0 39 1 39
0 45 1 45 0 43 1 57
1 441 0 39 1 39 0 39
0 39 1 39 0 38 1 38
0 59 1 63 0 63 1 1445
1 43 0 43 1 45 0 45
1 1095 0 52 1 52 0 52
0 36 1 36 0 36 1 290
0 46 1 46 0 46 1 49
1 41 0 41 1 41 0 41
1 42 0 42 1 42 0 42
1 104 0 44 1 44 0 44
1 62 0 62 1 62 0 55
0 51 1 51 0 51 1 168
0 35 1 35 0 35 1 35
0 44 1 44 0 44 1 44
1 46 0 42 1 42 0 42
1 110 0 41 1 41 0 41
1 39 0 39 1 39 0 39
0 47 1 47 0 47 1 74
0 54 1 58 0 58 1 428
0 37 1 37 0 37 1 37
0 41 1 41 0 41 1 41
1 94 0 42 1 42 0 42
0 35 1 35 0 35 1 35
1 38 0 38 1 38 0 38
1 76 0 40 1 40 0 40
1 56 0 56 1 56 0 41
0 36 1 36 0 36 1 105
1 49 0 49 1 49 0 49
0 42 1 42 0 44 1 44
0 41 1 41 0 41 1 41
0 49 1 49 0 49 1 49
1 42 0 42 1 42 0 42
1 40 0 40 1 40 0 40
1 49 0 39 1 39 0 39
1 36 0 36 1 36 0 36
0 40 1 40 0 40 1 40
0 37 1 38 0 38 1 48
0 47 1 47 0 47 1 47
0 38 1 38 0 37 1 37
0 37 1 37 0 37 1 37
0 41 1 41 0 41 1 234
0 41 1 41 0 45 1 62
0 48 1 48 0 48 1 327
0 43 1 43 0 43 1 89
0 41 1 45 0 45 1 58
1 66 0 49 1 49 0 49
0 41 1 41 0 41 1 1312
0 34 1 34 0 34 1 42
1 67 0 64 1 64 0 64
0 44 1 44 0 44 1 44
1 51 0 51 1 51 0 48
1 56 0 36 1 36 0 36
0 42 1 42 0 42 1 42
0 50 1 50 0 50 1 50
0 37 1 37 0 37 1 39
1 43 0 43 1 43 0 43
0 38 1 38 0 38 1 230
1 33 0 33 1 33 0 33
0 35 1 35 0 35 1 35
0 41 1 41 0 41 1 41
1 48 0 41 1 41 0 36
1 41 0 41 1 41 0 41
1 34 0 34 1 34 0 34
1 132 0 45 1 45 0 45
1 2027 0 42 1 42 0 42
1 820 0 35 1 35 0 35
0 40 1 40 0 40 1 40
1 37 0 37 1 37 0 37
1 210 0 40 1 40 0 40
0 40 1 41 0 49 1 68
0 51 1 51 0 47 1 129
0 51 1 51 0 51 1 51
0 38 1 38 0 38 1 144
1 56 0 56 1 56 0 56
1 1666 0 45 1 45 0 45
0 45 1 45 0 45 1 374
0 41 1 206 0 41 1 41
1 1204 0 41 1 41 0 41
0 34 1 34 0 34 1 34
1 34 0 34 1 34 0 34
0 37 1 37 0 37 1 44
1 48 0 36 1 36 0 36
1 38 0 38 1 38 0 38
0 36 1 41 0 41 1 41
1 50 0 50 1 50 0 38
1 144 0 46 1 39 0 39
0 39 1 39 0 39 1 39
0 42 1 42 0 42 1 42
0 43 1 54 0 54 1 54
0 41 1 41 0 41 1 86
1 156 0 47 1 47 0 47
0 44 1 44 0 44 1 44
1 33 0 33 1 33 0 33
0 34 1 34 0 34 1 34
0 41 1 41 0 41 1 41
1 91 0 43 1 43 0 43
0 51 1 51 0 51 1 51
0 36 1 36 0 36 1 37
1 32 0 32 1 32 0 32
1 38 0 38 1 38 0 38
1 42 0 42 1 42 0 42
1 71 0 37 1 37 0 37
0 53 1 53 0 53 1 104
1 37 0 37 1 37 0 37
0 48 1 48 0 48 1 48
1 42 0 42 1 42 0 42
0 45 1 47 0 47 1 52
0 47 1 47 0 47 1 162
1 49 0 49 1 42 0 42
1 232 0 43 1 43 0 43
0 39 1 39 0 39 1 56
1 56 0 44 1 44 0 44
1 492 0 63 1 63 0 53
1 357 0 45 1 45 0 45
1 1461 0 60 1 60 0 60
0 39 1 39 0 39 1 80
0 41 1 41 0 41 1 82
1 85 0 39 1 39 0 39
0 51 1 51 0 51 1 549
0 39 1 39 0 39 1 39
0 56 1 56 0 49 1 55
0 40 1 40 0 40 1 121
1 66 0 46 1 46 0 46
1 55 0 48 1 48 0 48
1 52 0 43 1 43 0 43
0 41 1 41 0 41 1 192
0 37 1 37 0 43 1 43
1 48 0 48 1 48 0 48
1 224 0 36 1 36 0 36
0 38 1 38 0 38 1 193
1 61 0 50 1 50 0 50
1 90 0 41 1 41 0 41
0 38 1 38 0 38 1 89
0 37 1 37 0 37 1 37
1 40 0 40 1 40 0 40
0 37 1 37 0 37 1 37
1 48 0 48 1 48 0 48
1 49 0 49 1 49 0 49
1 262 0 44 1 44 0 44
1 40 0 40 1 39 0 39
1 1991 0 49 1 49 0 49
1 498 0 37 1 37 0 37
1 37 0 37 1 37 0 37
0 39 1 39 0 39 1 150
1 41 0 41 1 41 0 41
1 45 0 45 1 45 0 45
0 38 1 38 0 38 1 38
1 52 0 52 1 52 0 38
0 50 1 50 0 50 1 131
0 38 1 38 0 38 1 48
1 41 0 41 1 41 0 41
1 37 0 37 1 37 0 37
0 41 1 46 0 46 1 46
0 48 1 48 0 48 1 249
1 301 0 36 1 36 0 36
0 41 1 41 0 50 1 50
1 31 0 31 1 31 0 31
0 47 1 47 0 47 1 131
0 39 1 39 0 39 1 39
1 48 0 45 1 45 0 45
1 92 0 42 1 42 0 42
1 42 0 42 1 42 0 42
0 37 1 37 0 37 1 37
0 39 1 39 0 39 1 39
0 37 1 37 0 37 1 37
0 43 1 43 0 43 1 328
1 53 0 53 1 53 0 53
1 42 0 42 1 42 0 42
0 44 1 44 0 44 1 439
1 40 0 40 1 40 0 40
0 38 1 38 0 38 1 94
0 39 1 39 0 39 1 39
0 39 1 39 0 39 1 48
0 40 1 40 0 40 1 40
0 36 1 36 0 36 1 324
0 34 1 34 0 34 1 34
0 37 1 37 0 37 1 37
0 46 1 46 0 46 1 46
1 860 0 48 1 48 0 48
1 55 0 55 1 55 0 55
1 41 0 41 1 41 0 41
1 45 0 45 1 45 0 45
0 45 1 45 0 45 1 62
0 62 1 62 0 62 1 150
1 68 0 68 1 68 0 68
1 241 0 46 1 46 0 46
1 65 0 49 1 49 0 49
1 380 0 64 1 64 0 64
0 48 1 48 0 39 1 39
0 36 1 36 0 36 1 36
0 57 1 57 0 57 1 57
0 41 1 41 0 41 1 41
0 38 1 38 0 38 1 38
0 39 1 39 0 39 1 39
1 36 0 36 1 36 0 36
0 37 1 37 0 37 1 37
1 233 0 47 1 47 0 42
0 39 1 39 0 39 1 39
0 39 1 39 0 33 1 33
1 38 0 38 1 38 0 38
1 302 0 41 1 41 0 41
1 39 0 39 1 39 0 39
1 892 0 49 1 49 0 49
0 41 1 46 0 46 1 46
1 55 0 45 1 45 0 45
1 34 0 34 1 34 0 34
0 46 1 46 0 46 1 46
1 33 0 33 1 33 0 33
1 162 0 47 1 47 0 47
0 36 1 36 0 36 1 36
0 34 1 34 0 34 1 34
1 105 0 34 1 34 0 34
1 157 0 41 1 41 0 41
0 37 1 37 0 37 1 37
1 269 0 41 1 41 0 41
1 47 0 47 1 47 0 47
0 34 1 34 0 34 1 34
0 34 1 34 0 34 1 34
1 41 0 41 1 41 0 41
0 51 1 51 0 51 1 51
0 41 1 41 0 41 1 512
1 40 0 40 1 36 0 36
1 40 0 40 1 40 0 40
0 44 1 44 0 44 1 93
0 39 1 43 0 43 1 83
1 42 0 38 1 38 0 38
0 48 1 48 0 48 1 48
0 39 1 39 0 39 1 39
0 41 1 41 0 41 1 41
0 46 1 46 0 46 1 1146
1 48 0 48 1 48 0 44
1 35 0 35 1 35 0 35
1 56 0 56 1 56 0 38
1 183 0 44 1 44 0 44
1 45 0 45 1 45 0 45
1 330 0 39 1 39 0 39
1 38 0 37 1 37 0 37
1 129 0 39 1 39 0 39
1 56 0 48 1 48 0 48
1 46 0 46 1 46 0 41
1 83 0 43 1 43 0 43
1 36 0 36 1 36 0 36
0 44 1 44 0 44 1 60
0 45 1 57 0 57 1 57
1 39 0 39 1 39 0 39
1 43 0 43 1 43 0 43
0 41 1 41 0 41 1 62
0 43 1 43 0 43 1 43
1 49 0 49 1 47 0 47
0 41 1 41 0 41 1 82
1 36 0 36 1 36 0 34
1 65 0 49 1 49 0 49
0 38 1 38 0 38 1 164
0 39 1 39 0 39 1 50
1 85 0 44 1 44 0 44
0 36 1 36 0 36 1 112
1 39 0 39 1 39 0 39
1 36 0 36 1 36 0 36
0 37 1 37 0 37 1 37
1 36 0 36 1 36 0 36
0 41 1 41 0 41 1 41
0 39 1 39 0 39 1 168
1 42 0 42 1 42 0 42
1 89 0 40 1 40 0 40
1 586 0 56 1 56 0 56
0 39 1 39 0 39 1 39
0 43 1 43 0 43 1 43
0 41 1 41 0 41 1 41
1 309 0 48 1 48 0 48
1 338 0 40 1 40 0 40
1 39 0 39 1 39 0 39
0 32 1 32 0 32 1 32
1 106 0 47 1 47 0 47
1 47 0 47 1 47 0 47
0 43 1 43 0 43 1 43
1 49 0 49 1 49 0 49
0 38 1 38 0 34 1 118
0 38 1 38 0 38 1 38
1 42 0 42 1 42 0 42
0 35 1 35 0 49 1 179
0 42 1 42 0 42 1 62
0 38 1 38 0 38 1 188
1 768 0 35 1 35 0 35
1 57 0 57 1 57 0 57
1 54 0 54 1 54 0 52
1 38 0 38 1 38 0 38
0 45 1 45 0 45 1 45
0 48 1 48 0 48 1 48
1 64 0 38 1 38 0 38
1 152 0 50 1 50 0 48
0 36 1 36 0 36 1 249
1 44 0 44 1 44 0 44
0 40 1 40 0 40 1 40
1 117 0 50 1 50 0 50
0 41 1 41 0 41 1 94
1 45 0 45 1 45 0 45
0 51 1 51 0 51 1 51
0 41 1 41 0 41 1 41
1 67 0 38 1 38 0 38
0 34 1 34 0 34 1 125
1 50 0 49 1 49 0 49
1 98 0 40 1 40 0 40
0 37 1 37 0 37 1 37
0 38 1 38 0 38 1 38
1 92 0 37 1 37 0 37
1 59 0 35 1 35 0 35
0 34 1 34 0 34 1 118
1 53 0 47 1 47 0 47
0 36 1 36 0 36 1 78
0 38 1 38 0 38 1 38
0 40 1 40 0 40 1 56
0 35 1 35 0 35 1 35
1 55 0 55 1 55 0 41
0 38 1 38 0 45 1 67
1 35 0 35 1 35 0 35
1 39 0 39 1 39 0 39
1 45 0 45 1 45 0 45
1 39 0 39 1 39 0 39
0 35 1 35 0 35 1 230
0 47 1 47 0 47 1 47
0 39 1 39 0 39 1 39
0 37 1 37 0 37 1 37
1 1639 0 40 1 40 0 40
0 52 1 52 0 52 1 243
0 39 1 39 0 39 1 39
0 42 1 42 0 42 1 42
0 40 1 40 0 44 1 153
0 40 1 40 0 45 1 45
1 44 0 43 1 43 0 43
1 116 0 40 1 40 0 40
0 43 1 43 0 43 1 43
1 35 0 35 1 35 0 35
1 42 0 42 1 42 0 42
0 34 1 34 0 34 1 34
0 43 1 43 0 43 1 43
0 32 1 32 0 32 1 32
0 42 1 42 0 42 1 221
0 42 1 42 0 42 1 42
0 35 1 35 0 35 1 35
1 75 0 47 1 43 0 43
0 34 1 34 0 34 1 34
0 39 1 39 0 40 1 431
1 43 0 43 1 43 0 43
0 39 1 42 0 42 1 174
1 45 0 45 1 45 0 45
0 39 1 39 0 39 1 49
0 37 1 37 0 37 1 345
0 37 1 37 0 37 1 37
0 45 1 45 0 45 1 129
1 390 0 40 1 40 0 40
0 40 1 40 0 40 1 161
1 259 0 47 1 47 0 47
1 36 0 33 1 33 0 33
1 41 0 41 1 41 0 41
0 49 1 50 0 50 1 389
1 61 0 61 1 61 0 61
1 54 0 54 1 54 0 47
1 44 0 44 1 44 0 44
1 36 0 36 1 36 0 36
0 62 1 62 0 62 1 570
1 39 0 39 1 39 0 39
0 48 1 48 0 48 1 48
0 45 1 45 0 45 1 576
1 51 0 51 1 51 0 51
1 44 0 44 1 44 0 44
1 133 0 41 1 41 0 41
0 53 1 53 0 53 1 473
0 35 1 35 0 35 1 35
1 48 0 48 1 48 0 48
1 48 0 37 1 37 0 37
0 36 1 36 0 36 1 43
0 33 1 33 0 33 1 33
1 97 0 43 1 43 0 43
1 49 0 49 1 49 0 44
0 44 1 53 0 53 1 69
0 41 1 42 0 42 1 42
1 67 0 67 1 62 0 62
0 45 1 45 0 45 1 142
0 37 1 37 0 37 1 187
1 79 0 33 1 33 0 33
1 37 0 37 1 37 0 37
0 35 1 35 0 35 1 541
1 85 0 32 1 32 0 32
1 41 0 38 1 42 0 42
1 136 0 38 1 38 0 38
0 48 1 48 0 48 1 48
0 38 1 46 0 46 1 46
0 28 1 28 0 28 1 28
1 35 0 33 1 33 0 33
0 38 1 39 0 39 1 135
1 40 0 40 1 40 0 40
0 52 1 52 0 52 1 52
0 44 1 44 0 44 1 61
0 43 1 43 0 43 1 43
0 36 1 36 0 36 1 275
0 37 1 37 0 37 1 37
1 167 0 43 1 43 0 43
0 44 1 44 0 44 1 168
0 37 1 37 0 37 1 37
1 54 0 54 1 54 0 41
1 40 0 40 1 40 0 40
1 36 0 36 1 36 0 36
1 345 0 34 1 34 0 34
0 43 1 43 0 43 1 95
0 39 1 39 0 39 1 39
0 37 1 37 0 37 1 37
1 177 0 57 1 57 0 57
1 44 0 44 1 44 0 44
0 36 1 36 0 36 1 36
1 41 0 41 1 41 0 41
0 39 1 39 0 39 1 39
1 38 0 38 1 38 0 38
0 45 1 45 0 45 1 45
1 45 0 44 1 44 0 44
1 198 0 39 1 39 0 39
1 162 0 50 1 50 0 50
1 35 0 35 1 35 0 35
1 51 0 51 1 51 0 51
0 46 1 46 0 46 1 173
0 36 1 36 0 36 1 36
0 39 1 39 0 39 1 61
0 31 1 31 0 31 1 39
1 122 0 45 1 45 0 45
0 50 1 50 0 50 1 50
1 37 0 37 1 37 0 37
0 36 1 36 0 36 1 36
1 52 0 37 1 37 0 37
0 43 1 59 0 59 1 270
1 38 0 38 1 38 0 38
1 44 0 44 1 44 0 44
1 43 0 43 1 43 0 43
0 46 1 46 0 46 1 46
0 47 1 47 0 47 1 55
1 43 0 43 1 43 0 43
0 33 1 33 0 33 1 33
0 40 1 40 0 40 1 40
0 37 1 37 0 37 1 62
1 49 0 49 1 49 0 49
0 50 1 50 0 63 1 63
1 40 0 40 1 40 0 40
1 33 0 33 1 33 0 33
1 42 0 42 1 42 0 42
0 35 1 35 0 35 1 35
1 89 0 37 1 37 0 37
0 46 1 48 0 46 1 46
0 35 1 35 0 35 1 35
