Parameters: seed=650833070, s1=0.001000, s2=0.001000, s3=0.001000, s4=0.001000, e12=-0.200000, e13=0.000000, e14=0.000000, e23=0.000000, e24=0.000000, e34=-0.200000, r12=0.000200, r23=0.000200, r34=0.000200, h12=1, h13=1, h14=1, h23=1, h24=1, h34=1 , n_gen=10000000, n_ind=10000 initial freq: 0.000000 0.000000 0.000000 0.000000 0.000000 0.500000 0.000000 0.000000 0.000000 0.000000 0.500000 0.000000 0.000000 0.000000 0.000000 0.000000
1 40 0 40 1 40 0 40
1 40 0 40 1 40 0 40
1 98 0 51 1 51 0 37
1 282 0 34 1 34 0 34
1 84 0 41 1 41 0 41
0 47 1 47 0 47 1 133
1 113 0 36 1 36 0 36
0 42 1 42 0 42 1 179
1 73 0 53 1 53 0 53
1 156 0 43 1 43 0 43
1 644 0 47 1 47 0 47
0 55 1 55 0 49 1 49
1 226 0 42 1 42 0 42
0 53 1 55 0 55 1 733
0 44 1 44 0 44 1 44
1 156 0 55 1 55 0 55
0 42 1 42 0 42 1 42
0 36 1 36 0 35 1 173
0 35 1 35 0 36 1 191
1 88 0 60 1 60 0 50
1 47 0 39 1 39 0 39
1 32 0 32 1 32 0 32
0 31 1 47 0 32 1 32
0 34 1 34 0 34 1 321
0 50 1 50 0 50 1 174
0 48 1 48 0 52 1 109
0 64 1 64 0 64 1 955
1 122 0 52 1 52 0 45
1 45 0 40 1 40 0 40
1 232 0 54 1 54 0 47
0 56 1 56 0 56 1 1360
0 43 1 43 0 42 1 114
0 54 1 57 0 57 1 474
0 36 1 36 0 36 1 36
1 42 0 35 1 35 0 36
0 50 1 50 0 50 1 190
0 42 1 42 0 42 1 65
0 46 1 46 0 46 1 635
1 120 0 45 1 45 0 39
0 40 1 40 0 36 1 56
0 35 1 35 0 35 1 94
1 45 0 42 1 42 0 42
1 38 0 38 1 38 0 38
0 51 1 51 0 51 1 114
0 44 1 44 0 42 1 42
1 42 0 42 1 42 0 42
1 137 0 41 1 41 0 41
1 48 0 33 1 33 0 33
1 61 0 37 1 37 0 37
1 50 0 50 1 50 0 50
1 40 0 40 1 40 0 40
1 40 0 40 1 40 0 40
1 206 0 37 1 37 0 37
0 38 1 40 0 40 1 110
0 45 1 45 0 45 1 98
0 47 1 47 0 47 1 2199
1 39 0 39 1 39 0 39
1 586 0 56 1 56 0 42
0 42 1 59 0 59 1 59
1 41 0 41 1 41 0 41
0 31 1 31 0 31 1 82
1 365 0 46 1 46 0 46
1 175 0 36 1 36 0 36
0 69 1 73 0 73 1 846
1 156 0 35 1 35 0 35
0 44 1 44 0 44 1 1271
1 48 0 48 1 48 0 48
1 84 0 50 1 50 0 50
0 48 1 48 0 48 1 138
1 86 0 33 1 33 0 33
0 40 1 40 0 41 1 388
0 32 1 136 0 32 1 321
1 51 0 34 1 34 0 34
0 40 1 40 0 40 1 41
0 32 1 32 0 32 1 32
0 34 1 34 0 34 1 34
0 43 1 46 0 46 1 55
0 42 1 42 0 42 1 431
0 30 1 30 0 30 1 30
1 258 0 52 1 52 0 52
1 74 0 54 1 41 0 41
1 1284 0 42 1 42 0 42
1 63 0 35 1 35 0 35
1 76 0 39 1 39 0 39
0 43 1 46 0 46 1 228
1 1755 0 49 1 46 0 45
0 42 1 44 0 44 1 44
0 54 1 58 0 58 1 886
0 61 1 61 0 61 1 1426
1 186 0 53 1 53 0 53
0 40 1 44 0 44 1 268
0 45 1 53 0 53 1 359
0 41 1 41 0 41 1 41
1 647 0 51 1 51 0 51
0 45 1 45 0 45 1 679
1 42 0 42 1 42 0 42
0 52 1 52 0 47 1 69
0 42 1 42 0 42 1 93
1 532 0 41 1 41 0 38
0 33 1 33 0 33 1 56
1 157 0 40 1 40 0 40
1 368 0 66 1 66 0 66
1 63 0 36 1 36 0 36
0 33 1 33 0 33 1 85
1 2840 0 48 1 48 0 48
1 131 0 31 1 31 0 31
0 42 1 42 0 42 1 82
1 2446 0 52 1 52 0 51
0 39 1 43 0 43 1 68
1 125 0 38 1 38 0 38
1 34 0 34 1 34 0 34
1 41 0 41 1 37 0 37
0 39 1 39 0 39 1 498
0 41 1 41 0 41 1 371
0 35 1 35 0 35 1 35
0 48 1 56 0 56 1 56
1 75 0 43 1 43 0 39
0 38 1 40 0 40 1 614
1 34 0 34 1 34 0 34
1 38 0 38 1 38 0 38
1 345 0 45 1 45 0 45
1 5097 0 46 1 46 0 46
1 58 0 41 1 41 0 41
0 37 1 37 0 37 1 94
0 34 1 34 0 34 1 953
1 42 0 42 1 42 0 42
0 41 1 41 0 41 1 206
0 36 1 36 0 36 1 38
0 39 1 39 0 39 1 96
1 90 0 41 1 41 0 41
1 37 0 37 1 37 0 37
0 44 1 44 0 44 1 281
0 41 1 43 0 43 1 96
0 51 1 51 0 51 1 51
0 41 1 41 0 41 1 155
1 137 0 36 1 36 0 36
1 247 0 45 1 45 0 45
1 101 0 47 1 47 0 47
1 43 0 43 1 43 0 43
0 44 1 44 0 41 1 61
1 1037 0 50 1 50 0 50
0 45 1 45 0 45 1 108
1 2071 0 47 1 47 0 47
0 41 1 46 0 46 1 61
0 36 1 42 0 42 1 266
1 137 0 41 1 41 0 41
0 43 1 43 0 43 1 43
0 42 1 49 0 49 1 1212
0 40 1 40 0 40 1 78
0 38 1 38 0 38 1 416
1 277 0 46 1 46 0 46
1 270 0 43 1 43 0 43
1 57 0 41 1 41 0 41
0 45 1 45 0 45 1 124
1 43 0 43 1 43 0 43
1 380 0 47 1 47 0 47
1 121 0 38 1 38 0 38
0 39 1 39 0 39 1 92
1 668 0 40 1 40 0 40
0 39 1 39 0 51 1 313
1 194 0 53 1 53 0 53
0 40 1 40 0 40 1 40
0 39 1 39 0 39 1 142
0 45 1 45 0 45 1 1839
0 45 1 45 0 43 1 184
0 40 1 40 0 40 1 66
0 28 1 28 0 28 1 28
1 1114 0 52 1 52 0 49
0 44 1 44 0 44 1 44
1 47 0 45 1 45 0 45
0 44 1 44 0 44 1 44
0 39 1 39 0 39 1 39
0 39 1 41 0 41 1 41
0 52 1 52 0 52 1 749
1 81 0 33 1 33 0 33
1 36 0 36 1 36 0 36
0 39 1 47 0 47 1 226
0 62 1 62 0 45 1 166
1 408 0 40 1 44 0 44
1 41 0 41 1 41 0 41
0 44 1 75 0 47 1 213
0 38 1 36 0 36 1 36
1 36 0 36 1 36 0 36
1 777 0 37 1 37 0 37
0 34 1 36 0 36 1 36
0 46 1 46 0 46 1 84
1 186 0 51 1 51 0 51
1 81 0 39 1 39 0 39
1 411 0 43 1 43 0 43
1 900 0 43 1 43 0 43
1 107 0 47 1 47 0 47
0 38 1 38 0 38 1 242
0 37 1 39 0 39 1 39
1 383 0 48 1 48 0 48
0 40 1 40 0 40 1 40
0 49 1 49 0 49 1 435
0 46 1 46 0 46 1 118
0 47 1 47 0 47 1 51
1 320 0 40 1 40 0 40
1 41 0 41 1 41 0 36
0 42 1 42 0 42 1 206
0 51 1 51 0 51 1 60
0 39 1 48 0 48 1 210
1 104 0 33 1 33 0 33
1 160 0 41 1 41 0 41
0 34 1 34 0 34 1 92
0 49 1 49 0 49 1 98
0 37 1 37 0 37 1 37
0 44 1 55 0 55 1 181
1 342 0 37 1 37 0 37
0 38 1 38 0 38 1 199
1 52 0 38 1 40 0 40
1 38 0 38 1 38 0 37
0 53 1 53 0 53 1 63
1 38 0 38 1 38 0 38
1 451 0 43 1 43 0 43
1 892 0 54 1 54 0 48
0 40 1 40 0 40 1 233
0 38 1 38 0 38 1 38
1 93 0 38 1 38 0 38
1 491 0 44 1 44 0 44
0 60 1 60 0 59 1 1229
1 43 0 43 1 43 0 43
0 34 1 34 0 34 1 34
1 538 0 56 1 56 0 55
0 38 1 38 0 38 1 38
1 1424 0 56 1 46 0 46
0 38 1 38 0 38 1 38
1 681 0 55 1 55 0 55
1 42 0 41 1 41 0 41
1 82 0 36 1 36 0 36
0 39 1 39 0 39 1 124
1 43 0 43 1 43 0 43
1 124 0 46 1 49 0 49
1 38 0 38 1 38 0 38
1 2671 0 50 1 50 0 50
0 37 1 37 0 37 1 37
1 246 0 50 1 50 0 50
1 47 0 47 1 47 0 47
0 39 1 39 0 39 1 93
0 36 1 36 0 36 1 40
1 3722 0 53 1 53 0 53
1 422 0 40 1 40 0 40
1 96 0 50 1 50 0 50
0 48 1 48 0 34 1 58
1 538 0 41 1 41 0 41
0 32 1 32 0 32 1 1284
1 112 0 35 1 35 0 35
0 39 1 39 0 41 1 272
1 170 0 37 1 37 0 37
1 42 0 42 1 42 0 42
1 619 0 34 1 34 0 34
1 37 0 37 1 37 0 37
1 1183 0 50 1 50 0 50
0 35 1 35 0 35 1 39
1 49 0 49 1 49 0 49
0 43 1 43 0 43 1 503
1 452 0 53 1 53 0 46
1 708 0 36 1 36 0 36
0 40 1 53 0 53 1 131
1 39 0 39 1 39 0 39
1 297 0 37 1 37 0 37
0 59 1 59 0 59 1 286
0 42 1 42 0 42 1 85
1 50 0 48 1 48 0 48
0 45 1 45 0 45 1 113
0 39 1 39 0 39 1 3840
1 114 0 40 1 40 0 40
1 42 0 42 1 42 0 42
0 38 1 38 0 38 1 96
0 54 1 54 0 54 1 149
1 39 0 39 1 39 0 39
0 38 1 38 0 38 1 38
0 42 1 42 0 36 1 151
1 605 0 37 1 37 0 37
1 499 0 42 1 42 0 41
0 43 1 43 0 43 1 875
1 1142 0 43 1 43 0 38
1 54 0 54 1 54 0 54
0 39 1 44 0 44 1 139
1 1428 0 49 1 44 0 44
1 174 0 35 1 35 0 35
1 87 0 37 1 37 0 37
0 41 1 41 0 41 1 80
0 51 1 51 0 51 1 433
1 400 0 43 1 44 0 44
0 38 1 38 0 38 1 38
0 39 1 39 0 39 1 39
0 35 1 35 0 38 1 182
0 46 1 46 0 46 1 742
1 40 0 40 1 40 0 38
0 46 1 46 0 45 1 330
1 44 0 39 1 39 0 39
0 54 1 54 0 54 1 398
0 34 1 34 0 33 1 33
0 38 1 38 0 38 1 616
1 314 0 38 1 38 0 38
0 61 1 63 0 63 1 858
0 32 1 32 0 32 1 235
1 268 0 42 1 42 0 42
1 79 0 41 1 41 0 41
1 69 0 45 1 45 0 45
0 35 1 35 0 35 1 170
1 43 0 40 1 40 0 40
1 106 0 45 1 45 0 45
0 39 1 39 0 39 1 890
0 43 1 59 0 59 1 61
1 70 0 53 1 53 0 53
1 317 0 47 1 47 0 47
0 44 1 45 0 45 1 597
1 104 0 39 1 39 0 39
1 1170 0 47 1 47 0 44
0 48 1 48 0 48 1 66
0 42 1 42 0 42 1 42
1 253 0 44 1 44 0 44
0 40 1 40 0 40 1 44
1 283 0 50 1 48 0 48
1 319 0 36 1 36 0 36
0 43 1 43 0 43 1 274
0 35 1 35 0 35 1 83
1 46 0 44 1 44 0 44
0 43 1 43 0 43 1 43
0 37 1 37 0 38 1 226
0 57 1 67 0 67 1 306
0 42 1 42 0 43 1 160
1 510 0 40 1 40 0 40
1 334 0 51 1 51 0 51
1 47 0 47 1 47 0 47
0 38 1 38 0 38 1 345
0 37 1 37 0 37 1 37
1 40 0 40 1 40 0 40
1 44 0 44 1 44 0 44
1 80 0 44 1 44 0 44
1 2631 0 58 1 58 0 58
1 219 0 38 1 37 0 37
0 46 1 46 0 53 1 53
0 48 1 48 0 48 1 48
0 42 1 42 0 42 1 42
0 55 1 55 0 55 1 435
0 38 1 38 0 38 1 38
1 443 0 52 1 52 0 52
0 46 1 46 0 46 1 74
0 31 1 31 0 31 1 459
1 152 0 42 1 42 0 42
1 82 0 41 1 41 0 41
1 43 0 43 1 43 0 43
0 39 1 45 0 45 1 69
1 201 0 35 1 35 0 35
0 39 1 39 0 36 1 130
1 86 0 58 1 58 0 48
0 32 1 32 0 32 1 163
0 39 1 39 0 39 1 47
0 41 1 41 0 41 1 41
1 423 0 44 1 44 0 44
1 44 0 44 1 44 0 44
0 37 1 37 0 37 1 37
0 40 1 40 0 40 1 95
1 54 0 35 1 35 0 33
1 69 0 36 1 36 0 36
0 38 1 38 0 38 1 163
0 40 1 47 0 47 1 60
1 106 0 40 1 40 0 40
0 38 1 38 0 38 1 502
1 2644 0 50 1 50 0 50
1 277 0 41 1 41 0 41
1 331 0 49 1 49 0 49
1 554 0 41 1 41 0 41
1 109 0 44 1 44 0 44
0 39 1 41 0 41 1 825
1 53 0 47 1 47 0 47
0 39 1 39 0 39 1 299
1 35 0 34 1 34 0 34
0 45 1 45 0 45 1 415
0 36 1 36 0 36 1 3733
0 46 1 51 0 51 1 93
0 42 1 45 0 45 1 2891
0 42 1 42 0 41 1 68
0 46 1 46 0 46 1 1082
1 43 0 43 1 43 0 45
1 133 0 43 1 43 0 43
1 34 0 34 1 34 0 34
0 36 1 36 0 36 1 74
1 70 0 44 1 44 0 44
1 47 0 43 1 43 0 43
1 118 0 40 1 40 0 40
1 140 0 42 1 42 0 42
1 116 0 39 1 44 0 44
1 193 0 40 1 40 0 40
0 48 1 48 0 48 1 279
0 41 1 41 0 41 1 847
1 401 0 60 1 60 0 48
0 42 1 42 0 42 1 224
0 31 1 31 0 31 1 57
0 37 1 38 0 39 1 123
1 130 0 41 1 41 0 41
1 39 0 36 1 36 0 35
0 46 1 46 0 46 1 1538
0 42 1 42 0 42 1 385
1 100 0 49 1 49 0 49
0 42 1 42 0 42 1 42
1 536 0 48 1 48 0 48
0 49 1 49 0 49 1 77
1 45 0 37 1 37 0 37
0 32 1 32 0 32 1 137
0 40 1 40 0 40 1 40
1 88 0 47 1 55 0 55
1 934 0 51 1 51 0 49
0 42 1 42 0 42 1 525
0 34 1 34 0 34 1 1037
1 47 0 47 1 47 0 47
1 438 0 49 1 49 0 49
0 53 1 53 0 53 1 670
0 43 1 43 0 43 1 511
1 45 0 45 1 45 0 45
1 46 0 46 1 46 0 46
0 35 1 37 0 40 1 193
1 1527 0 48 1 51 0 51
1 263 0 40 1 40 0 40
1 156 0 60 1 60 0 60
0 38 1 38 0 38 1 43
1 58 0 58 1 58 0 41
1 41 0 41 1 41 0 41
0 31 1 31 0 31 1 46
1 42 0 42 1 42 0 36
0 39 1 39 0 39 1 94
0 43 1 43 0 43 1 181
0 34 1 34 0 34 1 38
1 307 0 40 1 40 0 40
1 42 0 39 1 39 0 39
0 48 1 48 0 48 1 56
0 46 1 46 0 46 1 832
0 40 1 40 0 40 1 87
1 597 0 48 1 344 0 48
1 33 0 33 1 33 0 33
1 1167 0 47 1 47 0 47
1 348 0 35 1 35 0 35
1 48 0 48 1 48 0 48
1 3051 0 41 1 41 0 41
1 418 0 62 1 62 0 43
0 48 1 48 0 48 1 537
0 38 1 38 0 32 1 32
0 46 1 101 0 46 1 126
0 41 1 41 0 43 1 43
1 855 0 36 1 36 0 36
0 43 1 68 0 35 1 55
1 44 0 44 1 44 0 44
0 38 1 38 0 40 1 83
1 554 0 50 1 50 0 50
1 1108 0 39 1 39 0 39
0 52 1 60 0 60 1 60
1 96 0 42 1 42 0 42
0 45 1 45 0 45 1 706
0 42 1 42 0 42 1 191
1 57 0 40 1 40 0 40
1 49 0 49 1 49 0 40
0 45 1 45 0 45 1 526
0 39 1 39 0 39 1 73
1 78 0 35 1 35 0 35
1 391 0 32 1 32 0 32
1 38 0 38 1 38 0 38
0 41 1 41 0 36 1 65
0 50 1 50 0 50 1 191
0 62 1 62 0 62 1 246
1 173 0 39 1 39 0 39
1 37 0 37 1 37 0 37
0 34 1 34 0 34 1 34
1 261 0 42 1 42 0 42
1 172 0 42 1 42 0 42
1 42 0 42 1 42 0 42
0 44 1 44 0 44 1 51
1 50 0 39 1 39 0 39
0 60 1 60 0 60 1 449
1 1099 0 35 1 35 0 35
0 40 1 41 0 41 1 1078
0 45 1 45 0 45 1 45
0 34 1 34 0 34 1 34
1 190 0 43 1 43 0 43
1 45 0 45 1 45 0 45
1 389 0 40 1 40 0 37
0 34 1 34 0 34 1 40
1 262 0 38 1 38 0 38
0 37 1 37 0 37 1 37
0 41 1 41 0 41 1 526
0 36 1 36 0 36 1 304
1 100 0 51 1 51 0 51
1 194 0 50 1 50 0 50
1 114 0 42 1 42 0 42
0 37 1 37 0 37 1 37
0 47 1 47 0 47 1 64
1 47 0 38 1 38 0 38
1 287 0 53 1 53 0 53
0 44 1 47 0 47 1 170
0 53 1 53 0 53 1 551
0 39 1 39 0 39 1 160
0 44 1 44 0 44 1 156
0 39 1 39 0 39 1 39
0 47 1 47 0 47 1 299
0 46 1 46 0 46 1 170
0 47 1 47 0 47 1 173
1 47 0 47 1 47 0 47
0 35 1 35 0 37 1 185
1 201 0 43 1 43 0 43
1 58 0 33 1 33 0 33
1 79 0 36 1 36 0 36
0 41 1 41 0 41 1 567
1 1154 0 53 1 59 0 59
0 41 1 41 0 42 1 215
0 47 1 47 0 47 1 49
0 46 1 46 0 46 1 46
1 104 0 38 1 38 0 38
0 39 1 41 0 41 1 41
1 689 0 45 1 45 0 45
1 1163 0 43 1 43 0 42
1 77 0 45 1 45 0 45
0 47 1 47 0 47 1 215
1 313 0 42 1 42 0 42
1 128 0 42 1 42 0 42
1 60 0 42 1 46 0 46
1 32 0 32 1 35 0 35
0 49 1 49 0 49 1 54
0 52 1 52 0 42 1 189
0 29 1 30 0 30 1 465
1 417 0 42 1 42 0 42
0 33 1 33 0 33 1 229
1 45 0 37 1 36 0 36
1 69 0 48 1 48 0 48
0 38 1 38 0 38 1 39
0 38 1 38 0 38 1 291
0 33 1 33 0 33 1 33
0 40 1 40 0 40 1 206
0 38 1 38 0 38 1 38
1 219 0 34 1 34 0 34
1 45 0 45 1 45 0 41
1 68 0 45 1 45 0 40
1 60 0 53 1 53 0 52
1 121 0 40 1 40 0 40
1 150 0 42 1 42 0 42
0 44 1 44 0 44 1 120
0 40 1 40 0 40 1 144
1 35 0 31 1 31 0 31
0 38 1 38 0 38 1 117
0 43 1 43 0 43 1 43
0 46 1 46 0 46 1 46
0 33 1 33 0 33 1 71
0 36 1 39 0 39 1 39
0 53 1 53 0 53 1 126
0 40 1 40 0 40 1 40
0 37 1 37 0 37 1 188
1 346 0 48 1 48 0 42
1 38 0 38 1 38 0 38
1 44 0 40 1 40 0 40
0 37 1 37 0 37 1 130
0 45 1 45 0 45 1 258
1 84 0 44 1 44 0 39
1 60 0 45 1 40 0 40
0 38 1 39 0 43 1 43
0 57 1 64 0 64 1 394
0 49 1 49 0 49 1 138
1 1166 0 39 1 42 0 42
1 407 0 46 1 46 0 46
1 84 0 39 1 39 0 39
1 541 0 69 1 69 0 69
0 37 1 37 0 37 1 54
1 38 0 38 1 38 0 38
1 367 0 40 1 43 0 43
1 101 0 48 1 51 0 51
0 35 1 35 0 35 1 727
1 133 0 49 1 49 0 49
1 40 0 37 1 37 0 37
1 35 0 35 1 35 0 35
0 44 1 46 0 46 1 76
0 38 1 38 0 38 1 38
1 42 0 42 1 42 0 42
1 175 0 61 1 61 0 43
0 44 1 44 0 47 1 338
0 55 1 55 0 55 1 597
0 48 1 48 0 48 1 48
1 41 0 41 1 41 0 41
0 34 1 34 0 34 1 63
1 231 0 37 1 37 0 37
0 50 1 50 0 50 1 110
1 76 0 38 1 38 0 38
0 35 1 35 0 35 1 69
1 31 0 31 1 36 0 36
0 43 1 43 0 43 1 61
0 40 1 41 0 41 1 41
0 42 1 42 0 42 1 690
0 33 1 33 0 33 1 33
1 1543 0 41 1 41 0 41
1 226 0 33 1 33 0 33
1 173 0 43 1 42 0 42
0 43 1 43 0 43 1 139
1 218 0 45 1 45 0 45
1 150 0 44 1 44 0 44
1 39 0 39 1 39 0 39
0 38 1 38 0 38 1 40
1 45 0 45 1 45 0 45
1 51 0 51 1 51 0 51
1 42 0 42 1 42 0 42
1 1218 0 36 1 36 0 36
1 338 0 37 1 37 0 37
1 591 0 37 1 37 0 37
1 115 0 52 1 52 0 52
1 46 0 44 1 44 0 44
1 56 0 43 1 43 0 40
1 156 0 37 1 39 0 39
0 35 1 35 0 35 1 121
0 34 1 34 0 34 1 47
0 43 1 43 0 43 1 43
0 50 1 50 0 50 1 107
1 51 0 46 1 46 0 41
0 40 1 40 0 40 1 46
0 39 1 41 0 41 1 75
1 118 0 48 1 48 0 48
1 324 0 46 1 46 0 46
0 38 1 33 0 33 1 54
1 874 0 36 1 36 0 36
0 44 1 44 0 44 1 1103
1 36 0 36 1 36 0 36
0 39 1 39 0 39 1 45
1 52 0 52 1 52 0 38
0 31 1 31 0 31 1 31
1 46 0 46 1 46 0 40
1 42 0 42 1 42 0 42
0 37 1 37 0 37 1 37
1 36 0 36 1 36 0 36
1 55 0 55 1 55 0 39
0 37 1 37 0 37 1 37
1 687 0 39 1 39 0 39
0 38 1 38 0 38 1 42
1 446 0 46 1 46 0 44
1 34 0 33 1 33 0 33
1 117 0 40 1 40 0 40
0 38 1 38 0 38 1 664
0 50 1 66 0 66 1 66
1 78 0 47 1 47 0 47
1 60 0 47 1 47 0 47
1 70 0 70 1 70 0 55
1 46 0 46 1 46 0 46
1 276 0 41 1 41 0 31
1 82 0 32 1 1538 0 32
1 79 0 51 1 51 0 51
0 44 1 44 0 44 1 348
1 37 0 37 1 37 0 37
0 59 1 59 0 61 1 981
1 77 0 44 1 44 0 44
1 229 0 31 1 31 0 31
1 96 0 34 1 34 0 34
1 47 0 33 1 36 0 36
1 45 0 45 1 45 0 45
1 44 0 44 1 44 0 44
0 55 1 64 0 64 1 64
0 58 1 63 0 63 1 381
0 46 1 46 0 46 1 754
1 44 0 44 1 44 0 44
0 39 1 39 0 39 1 47
0 38 1 38 0 38 1 38
0 38 1 47 0 47 1 64
0 41 1 41 0 41 1 41
1 47 0 47 1 47 0 45
1 188 0 50 1 50 0 50
0 62 1 75 0 75 1 4362
0 42 1 42 0 42 1 43
0 40 1 40 0 40 1 350
1 1085 0 60 1 60 0 60
1 41 0 41 1 41 0 41
0 36 1 47 0 47 1 94
0 35 1 38 0 38 1 38
0 49 1 49 0 49 1 440
1 55 0 49 1 49 0 49
0 43 1 43 0 43 1 221
0 41 1 52 0 52 1 246
1 39 0 39 1 33 0 33
1 64 0 47 1 47 0 47
0 40 1 42 0 42 1 94
0 33 1 33 0 31 1 76
1 1121 0 53 1 53 0 49
0 46 1 46 0 46 1 551
0 48 1 48 0 48 1 48
1 111 0 40 1 40 0 40
1 84 0 41 1 41 0 41
1 39 0 39 1 39 0 39
1 524 0 45 1 45 0 45
0 39 1 39 0 39 1 39
1 46 0 36 1 36 0 36
0 34 1 34 0 34 1 41
0 41 1 43 0 43 1 50
1 142 0 55 1 54 0 54
1 1658 0 37 1 37 0 37
0 42 1 52 0 52 1 372
0 39 1 39 0 39 1 102
0 45 1 58 0 58 1 432
0 51 1 51 0 51 1 388
1 48 0 41 1 41 0 41
1 85 0 39 1 39 0 39
1 37 0 37 1 37 0 37
0 45 1 45 0 45 1 161
0 36 1 36 0 36 1 36
1 161 0 43 1 54 0 54
1 34 0 34 1 34 0 34
0 63 1 63 0 63 1 284
1 339 0 42 1 42 0 42
0 39 1 39 0 39 1 171
1 91 0 35 1 35 0 35
1 59 0 40 1 40 0 40
0 61 1 61 0 61 1 270
1 61 0 49 1 86 0 49
1 481 0 46 1 46 0 44
1 41 0 41 1 41 0 41
1 51 0 41 1 50 0 50
1 41 0 41 1 41 0 41
1 42 0 42 1 42 0 42
0 54 1 54 0 54 1 54
1 39 0 39 1 39 0 39
0 54 1 54 0 54 1 123
1 140 0 41 1 41 0 41
0 44 1 44 0 44 1 46
1 377 0 47 1 47 0 42
1 208 0 45 1 45 0 45
1 44 0 44 1 44 0 44
1 51 0 36 1 36 0 36
1 62 0 56 1 56 0 56
1 176 0 44 1 44 0 38
0 38 1 38 0 38 1 86
1 378 0 50 1 50 0 50
1 42 0 42 1 42 0 42
0 39 1 39 0 39 1 123
1 42 0 42 1 42 0 42
0 34 1 34 0 38 1 81
0 39 1 39 0 39 1 264
1 76 0 41 1 41 0 41
0 51 1 51 0 51 1 1045
1 136 0 51 1 51 0 46
0 41 1 52 0 52 1 198
0 38 1 38 0 38 1 147
0 42 1 42 0 42 1 106
1 37 0 37 1 38 0 38
1 36 0 36 1 36 0 36
0 41 1 41 0 41 1 697
0 34 1 37 0 37 1 63
0 31 1 33 0 33 1 227
1 40 0 40 1 40 0 40
0 45 1 50 0 50 1 1743
0 54 1 54 0 54 1 68
0 47 1 47 0 47 1 914
1 36 0 36 1 36 0 36
0 40 1 40 0 39 1 366
1 119 0 50 1 50 0 48
1 1167 0 82 1 82 0 77
0 37 1 37 0 37 1 959
0 39 1 39 0 41 1 120
0 50 1 50 0 50 1 542
1 53 0 53 1 53 0 51
1 39 0 39 1 39 0 39
0 36 1 36 0 36 1 113
0 36 1 36 0 36 1 36
0 60 1 60 0 53 1 105
1 201 0 48 1 48 0 48
0 42 1 42 0 42 1 186
0 42 1 42 0 42 1 123
1 48 0 48 1 48 0 48
1 1171 0 47 1 66 0 66
1 96 0 45 1 45 0 45
1 73 0 39 1 39 0 39
0 34 1 34 0 34 1 34
0 46 1 46 0 46 1 46
0 50 1 50 0 50 1 114
0 33 1 33 0 33 1 217
1 40 0 40 1 40 0 40
0 42 1 43 0 43 1 294
1 156 0 46 1 46 0 46
1 38 0 38 1 38 0 38
1 139 0 37 1 37 0 37
1 40 0 40 1 40 0 40
0 34 1 34 0 34 1 34
0 38 1 38 0 35 1 35
1 2510 0 66 1 66 0 66
1 143 0 49 1 49 0 49
0 38 1 38 0 38 1 105
0 46 1 55 0 55 1 3946
1 95 0 40 1 40 0 40
0 54 1 54 0 54 1 1288
0 45 1 45 0 45 1 70
0 37 1 37 0 37 1 37
1 257 0 44 1 39 0 39
1 78 0 35 1 35 0 35
0 43 1 43 0 43 1 43
1 115 0 36 1 36 0 36
0 40 1 40 0 40 1 60
1 346 0 46 1 46 0 46
1 36 0 36 1 36 0 36
1 40 0 40 1 40 0 40
0 38 1 38 0 38 1 938
0 49 1 49 0 49 1 85
1 50 0 50 1 50 0 50
1 74 0 41 1 41 0 41
0 48 1 48 0 48 1 87
1 228 0 50 1 50 0 50
1 52 0 50 1 50 0 50
1 38 0 38 1 38 0 38
1 401 0 41 1 41 0 41
0 37 1 39 0 39 1 40
1 88 0 39 1 39 0 39
0 36 1 36 0 36 1 49
1 356 0 49 1 56 0 56
1 543 0 37 1 37 0 37
1 37 0 37 1 37 0 37
0 34 1 34 0 34 1 49
0 37 1 37 0 42 1 42
1 547 0 33 1 33 0 33
1 294 0 43 1 43 0 43
0 40 1 40 0 40 1 40
1 316 0 50 1 50 0 50
0 41 1 41 0 41 1 2199
1 101 0 36 1 42 0 42
1 33 0 33 1 33 0 33
1 120 0 44 1 44 0 44
1 168 0 55 1 55 0 42
1 502 0 37 1 37 0 37
0 54 1 54 0 54 1 10286
0 39 1 39 0 39 1 106
0 43 1 43 0 43 1 84
0 45 1 45 0 45 1 45
1 81 0 38 1 38 0 38
0 47 1 47 0 47 1 155
0 36 1 36 0 36 1 38
1 58 0 43 1 43 0 43
1 176 0 38 1 38 0 38
0 40 1 40 0 41 1 80
0 48 1 307 0 48 1 1226
1 40 0 40 1 40 0 40
0 44 1 44 0 44 1 44
0 39 1 39 0 39 1 39
1 40 0 40 1 40 0 39
1 38 0 38 1 38 0 38
0 33 1 33 0 33 1 33
1 39 0 39 1 38 0 38
0 32 1 32 0 32 1 32
1 50 0 37 1 37 0 37
0 35 1 35 0 35 1 66
0 42 1 42 0 42 1 228
1 66 0 40 1 38 0 38
0 47 1 47 0 47 1 432
0 40 1 40 0 40 1 41
0 50 1 50 0 50 1 153
1 37 0 37 1 37 0 37
0 39 1 39 0 39 1 73
0 42 1 42 0 42 1 236
0 37 1 39 0 39 1 39
1 125 0 43 1 43 0 43
1 36 0 36 1 36 0 36
1 34 0 34 1 31 0 31
0 38 1 38 0 38 1 1560
1 34 0 31 1 31 0 31
0 34 1 34 0 35 1 35
0 77 1 78 0 78 1 450
1 35 0 35 1 35 0 35
0 37 1 37 0 37 1 234
1 212 0 51 1 51 0 51
1 40 0 35 1 35 0 35
1 1531 0 52 1 52 0 52
0 39 1 39 0 39 1 121
0 41 1 41 0 41 1 77
0 37 1 37 0 37 1 217
1 63 0 29 1 29 0 29
1 46 0 46 1 36 0 36
1 133 0 47 1 47 0 41
1 2307 0 62 1 62 0 62
1 2760 0 51 1 51 0 51
1 595 0 43 1 43 0 43
0 41 1 43 0 43 1 207
0 34 1 53 0 53 1 64
1 690 0 38 1 38 0 38
0 37 1 39 0 39 1 172
0 35 1 35 0 35 1 35
1 44 0 38 1 38 0 38
1 38 0 38 1 38 0 38
0 44 1 44 0 44 1 70
0 43 1 43 0 43 1 177
1 232 0 43 1 43 0 43
0 46 1 46 0 46 1 46
1 49 0 49 1 49 0 49
0 39 1 39 0 39 1 39
1 194 0 39 1 41 0 41
1 229 0 35 1 35 0 35
1 291 0 35 1 36 0 36
0 41 1 41 0 41 1 205
1 2968 0 37 1 37 0 37
1 80 0 41 1 41 0 41
0 44 1 44 0 44 1 49
0 41 1 41 0 41 1 459
0 34 1 34 0 34 1 41
0 55 1 55 0 55 1 1079
1 160 0 39 1 39 0 39
0 36 1 36 0 36 1 67
0 46 1 46 0 46 1 110
1 189 0 53 1 53 0 50
0 45 1 45 0 45 1 1925
0 33 1 39 0 39 1 39
1 244 0 38 1 38 0 38
0 43 1 49 0 49 1 49
1 67 0 37 1 37 0 37
1 46 0 46 1 46 0 46
1 675 0 56 1 56 0 56
1 171 0 42 1 42 0 42
0 41 1 42 0 42 1 109
0 45 1 45 0 45 1 226
1 67 0 54 1 54 0 46
1 180 0 38 1 38 0 38
1 41 0 41 1 41 0 41
0 43 1 43 0 43 1 43
1 87 0 39 1 39 0 39
1 81 0 40 1 40 0 40
0 40 1 40 0 56 1 209
0 43 1 45 0 45 1 45
0 37 1 37 0 37 1 80
0 41 1 41 0 33 1 1679
0 58 1 58 0 54 1 475
1 275 0 34 1 34 0 34
0 33 1 33 0 33 1 120
1 130 0 34 1 34 0 34
1 47 0 47 1 38 0 38
0 38 1 38 0 38 1 219
1 306 0 37 1 37 0 37
0 40 1 40 0 40 1 252
0 39 1 39 0 39 1 59
0 36 1 36 0 34 1 60
0 43 1 43 0 43 1 52
1 40 0 40 1 40 0 40
1 182 0 43 1 43 0 43
0 36 1 36 0 36 1 146
0 35 1 35 0 35 1 35
0 67 1 73 0 73 1 904
0 36 1 36 0 36 1 36
0 41 1 41 0 41 1 41
0 42 1 42 0 42 1 219
0 44 1 44 0 44 1 2072
0 40 1 44 0 44 1 487
0 39 1 39 0 39 1 95
1 99 0 49 1 49 0 47
0 44 1 51 0 51 1 586
1 1040 0 38 1 38 0 38
0 38 1 38 0 38 1 47
0 47 1 47 0 47 1 415
1 145 0 37 1 37 0 37
1 41 0 41 1 41 0 41
1 46 0 36 1 36 0 36
1 100 0 42 1 42 0 42
1 56 0 36 1 36 0 36
0 37 1 37 0 37 1 127
0 42 1 42 0 42 1 42
0 40 1 40 0 45 1 696
0 44 1 44 0 44 1 72
1 44 0 44 1 45 0 45
0 44 1 44 0 44 1 97
1 900 0 45 1 43 0 43
0 51 1 51 0 51 1 128
0 37 1 37 0 37 1 177
0 45 1 57 0 57 1 413
0 45 1 45 0 45 1 939
1 1255 0 50 1 50 0 43
1 650 0 40 1 40 0 38
1 119 0 35 1 35 0 33
1 157 0 39 1 39 0 39
1 86 0 47 1 47 0 47
0 49 1 49 0 49 1 2001
1 41 0 41 1 41 0 41
1 1061 0 36 1 36 0 36
0 37 1 37 0 37 1 230
1 35 0 35 1 35 0 35
1 44 0 38 1 38 0 37
1 165 0 42 1 42 0 42
0 36 1 36 0 36 1 36
1 108 0 46 1 46 0 46
1 647 0 45 1 45 0 38
0 39 1 39 0 39 1 39
1 781 0 47 1 47 0 47
1 35 0 35 1 35 0 35
0 35 1 39 0 39 1 129
0 38 1 38 0 38 1 43
0 38 1 38 0 38 1 239
0 36 1 36 0 36 1 406
1 38 0 38 1 38 0 36
1 288 0 45 1 44 0 44
0 38 1 38 0 38 1 449
1 42 0 42 1 41 0 41
0 37 1 39 0 39 1 81
1 102 0 41 1 41 0 41
0 40 1 40 0 40 1 213
0 40 1 40 0 40 1 130
0 38 1 38 0 38 1 166
1 120 0 51 1 51 0 51
1 193 0 51 1 39 0 39
0 45 1 45 0 45 1 54
1 364 0 49 1 49 0 49
1 37 0 37 1 37 0 37
0 37 1 37 0 37 1 121
1 36 0 36 1 36 0 36
0 54 1 54 0 54 1 2291
0 33 1 33 0 33 1 100
