Parameters: seed=638278241, s1=0.001000, s2=0.001000, s3=0.001000, s4=0.001000, e12=-0.200000, e13=0.000000, e14=0.000000, e23=0.000000, e24=0.000000, e34=-0.200000, r12=0.390000, r23=0.390000, r34=0.390000, h12=1, h13=1, h14=1, h23=1, h24=1, h34=1 , n_gen=10000000, n_ind=10000 initial freq: 0.000000 0.000000 0.000000 0.000000 0.000000 0.500000 0.000000 0.000000 0.000000 0.000000 0.500000 0.000000 0.000000 0.000000 0.000000 0.000000
1 8763 0 201 1 6471 0 382
0 345 0 902 1 5056 0 95
0 204 1 4286 0 312 0 654
1 5765 0 269 1 7330 0 114
0 248 0 8055 1 4092 0 129
0 594 0 292 0 120 1 4698
0 138 1 8727 1 11915 0 113
1 5451 0 392 0 776 0 463
0 191 1 6162 0 319 1 5855
0 166 1 5604 1 6865 0 161
0 138 0 482 1 6073 0 150
0 1526 0 182 1 4459 0 142
0 119 1 2638 0 1528 0 308
1 5515 0 375 0 439 0 624
1 7542 0 188 1 7682 0 114
0 132 1 6397 1 5653 0 118
0 75 1 2424 0 383 0 467
0 227 1 5125 0 1834 0 317
0 217 1 5414 0 335 0 821
1 10017 0 210 0 291 1 9227
0 3460 0 342 0 131 1 8405
0 116 1 5052 1 8117 0 258
0 5076 0 97 1 3853 0 243
0 244 1 9102 0 212 1 9648
0 378 0 383 0 507 0 2909
0 134 0 6521 0 3664 0 159
0 123 1 7682 1 3475 0 167
0 97 1 4798 0 1100 0 191
0 354 0 1092 0 218 1 10096
0 284 1 12708 0 178 1 11125
0 222 0 2682 1 7043 0 126
0 201 1 5489 0 157 0 534
0 183 1 12025 0 233 0 3025
1 8477 0 366 1 5342 0 154
0 151 0 4316 1 4583 0 260
0 186 1 9756 0 108 1 4628
0 88 1 7369 0 317 0 1454
0 151 1 7236 1 7704 0 155
0 517 0 400 1 4099 0 128
0 208 1 6527 0 2749 0 273
1 4563 0 97 1 6637 0 102
0 293 1 6551 1 9596 0 345
1 3819 0 145 0 206 0 928
1 3300 0 182 1 10272 0 144
0 259 0 1921 0 1350 0 132
1 3255 0 126 1 8711 0 92
0 138 0 1170 0 487 0 252
0 204 0 3471 1 6557 0 266
0 229 1 3014 1 12261 0 172
0 441 0 391 1 5790 0 120
1 7311 0 197 0 262 0 451
0 116 1 2694 0 323 1 4515
0 128 1 3366 1 5808 0 155
0 152 0 2907 1 4123 0 126
1 5207 0 127 1 5136 0 83
0 106 1 6569 0 169 1 7192
0 111 1 7175 0 839 0 287
0 173 1 3394 1 8028 0 162
0 83 1 4184 0 269 0 1233
0 307 1 4873 1 4336 0 170
0 161 0 2104 1 6172 0 128
0 82 1 6756 0 133 1 6541
0 333 0 398 1 5413 0 236
1 5487 0 266 1 6164 0 190
0 290 0 852 1 9020 0 361
1 5043 0 163 0 523 0 241
0 316 0 333 0 1868 0 196
0 1057 0 324 0 1129 0 106
0 603 1 8658 1 4719 0 125
0 151 1 7645 0 1217 0 383
0 121 1 3842 1 4355 0 151
0 144 1 8304 0 1017 0 717
0 845 0 720 0 406 0 1126
1 6214 0 164 1 9820 0 231
0 177 1 9484 0 3502 0 85
0 136 1 8017 0 165 0 1402
0 122 1 3214 0 206 0 924
0 355 1 7842 1 8941 0 320
1 4471 0 166 1 7955 0 211
0 184 1 5029 1 9489 0 226
0 147 1 7044 1 7273 0 134
1 12563 0 219 1 6105 0 206
0 135 1 7137 0 192 0 1244
0 540 0 201 0 1569 0 162
0 188 1 9212 0 2670 0 191
0 231 0 580 1 6274 0 209
0 593 0 148 1 7937 0 109
0 132 0 669 1 4689 0 140
0 237 1 8636 1 4995 0 106
0 1103 0 230 1 4259 0 96
0 148 1 6744 1 7274 0 291
0 206 1 5808 0 243 0 616
0 105 1 5422 0 1482 0 577
0 4483 0 145 1 8581 0 108
0 136 0 1003 0 161 1 6381
0 149 1 3690 0 215 1 6226
0 222 1 6724 1 7281 0 140
1 7039 0 178 0 732 0 176
1 4309 0 123 0 566 0 548
0 261 1 5406 1 7096 0 234
0 431 0 559 1 4541 0 194
0 291 0 723 1 6392 0 128
0 94 1 5600 1 5013 0 127
0 798 0 332 1 9433 0 318
0 321 1 9325 1 4788 0 332
0 179 1 5340 0 307 1 6434
0 1756 0 233 1 4751 0 143
0 160 1 5419 1 4989 0 131
0 107 1 5041 0 444 1 6334
0 225 0 4851 0 745 0 99
0 142 1 4989 0 2089 0 160
1 6170 0 144 0 246 1 7167
0 127 1 9482 1 9331 0 272
0 384 0 477 0 223 1 7069
0 261 1 7628 0 492 0 842
0 96 1 6501 0 1614 0 702
0 241 1 3608 0 168 0 873
0 142 1 5384 0 258 1 4407
0 665 0 716 1 4456 0 103
1 5363 0 204 0 1864 0 170
0 310 0 527 0 835 0 237
0 304 1 5332 1 5025 0 79
1 6722 0 130 1 4522 0 217
1 11162 0 200 1 3040 0 121
0 334 0 376 0 206 0 1039
0 94 1 5460 0 1167 0 230
0 148 1 5469 1 8049 0 241
1 7850 0 189 0 297 0 743
0 274 1 7980 1 4982 0 140
0 685 0 507 1 4019 0 84
0 770 0 180 1 4417 0 118
0 226 1 8331 0 311 0 275
0 315 0 1065 1 6129 0 188
0 116 1 3620 0 912 0 150
0 84 1 4262 1 7247 0 332
0 100 1 5219 1 8259 0 168
0 739 0 268 0 184 0 322
1 5597 0 153 0 232 0 198
0 288 1 6481 1 7462 0 132
0 102 0 2044 0 202 1 10395
0 368 0 896 0 269 1 5565
0 182 1 5666 0 260 1 9093
0 303 1 6482 1 8825 0 190
0 537 0 676 1 9562 0 122
0 130 1 8114 0 479 0 503
0 345 1 5651 0 801 0 214
0 82 1 5617 0 129 0 1267
0 190 0 1387 0 1599 0 221
1 12789 0 224 1 9165 0 111
0 147 1 5488 0 270 1 12476
0 370 0 364 1 3737 0 142
0 315 0 451 1 4355 0 106
0 245 0 482 0 150 1 5222
0 801 0 465 0 282 0 3731
0 1507 0 180 1 4094 0 162
0 718 0 337 1 3729 0 74
0 106 1 2638 1 9233 0 201
0 156 1 7098 1 4099 0 154
0 462 0 1144 1 7763 0 128
0 117 1 3969 0 253 0 1239
0 111 1 5703 0 161 1 4015
0 315 0 244 0 2200 0 279
1 4683 0 138 1 4124 0 207
0 1833 0 303 1 3246 0 103
0 501 0 618 0 356 1 5744
1 9154 0 133 1 7004 0 197
1 5295 0 608 1 7964 0 214
0 137 1 4132 0 153 1 5068
0 240 1 6298 1 3158 0 172
0 235 0 4539 0 260 0 521
0 97 1 4947 1 6387 0 127
0 117 1 4524 1 4980 0 169
0 297 0 605 1 5921 0 87
0 254 0 513 1 6508 0 268
0 329 0 632 0 322 0 1846
0 164 1 5363 1 6904 0 132
0 104 1 7638 0 162 1 4437
0 127 1 5660 1 6163 0 134
0 324 1 3450 1 5440 0 136
0 173 1 7453 1 4949 0 239
0 165 1 3256 0 1906 0 248
0 401 0 686 0 592 0 429
0 878 0 208 1 7462 0 141
0 119 1 3454 0 546 0 328
0 248 0 1399 1 7529 0 272
0 182 0 654 1 4976 0 195
0 192 0 1389 1 5536 0 153
0 659 0 341 1 6074 0 220
0 146 1 3786 1 9041 0 206
0 216 1 5908 1 7488 0 247
0 218 1 3087 1 6998 0 167
1 3296 0 351 0 191 0 627
1 5299 0 264 1 6102 0 135
0 1037 0 855 0 823 0 520
1 12345 0 502 1 9683 0 129
0 127 1 6954 0 353 0 575
0 164 1 3657 1 4575 0 146
0 328 1 4496 1 8597 0 106
0 185 0 2727 1 4680 0 214
0 155 1 4536 0 1156 0 207
0 217 1 6314 0 165 1 5074
0 157 1 4568 1 7570 0 136
0 118 1 4285 0 250 1 8016
0 152 1 4148 0 328 0 239
0 263 1 7649 0 289 0 210
0 128 1 5070 1 4686 0 297
0 102 1 4776 0 383 0 297
0 1122 0 359 0 966 0 148
0 215 1 6433 1 10371 0 293
0 154 1 6206 0 287 0 445
0 146 1 5432 1 7141 0 197
0 110 0 1306 0 140 1 5542
1 7675 0 176 1 6054 0 104
0 194 0 611 0 233 0 398
0 1123 0 1293 0 854 0 203
0 224 0 961 0 162 1 3594
1 7630 0 182 1 4111 0 160
1 5318 0 202 0 448 0 197
0 126 1 4863 0 190 1 5648
1 5829 0 176 0 685 0 355
0 222 1 9076 1 5076 0 124
0 128 1 10949 0 379 0 1430
1 4779 0 109 1 10937 0 180
0 125 1 3269 1 9392 0 159
0 143 0 753 1 4904 0 121
0 460 0 2143 0 292 0 714
0 145 0 1635 0 240 1 4742
0 798 0 514 1 7497 0 319
0 189 1 8054 1 5933 0 136
0 334 0 1223 0 3886 0 155
0 191 0 1789 0 251 0 352
0 166 0 761 1 5895 0 118
0 198 1 15601 1 3861 0 143
0 143 1 5223 0 1734 0 267
0 154 1 5502 0 119 1 6541
0 645 0 318 0 316 0 426
0 400 0 502 1 5620 0 336
0 225 0 1465 1 4304 0 128
0 222 0 1242 0 240 0 1101
0 218 0 905 1 5396 0 131
0 159 1 7517 0 320 1 5555
0 420 1 5379 1 4248 0 115
0 166 0 1485 0 1220 0 153
1 4209 0 195 0 196 0 516
0 210 1 8960 0 6713 0 186
0 130 1 4210 1 4159 0 130
0 2549 0 250 1 7682 0 131
0 428 1 7753 0 171 0 1642
0 2223 0 322 1 6202 0 113
1 7655 0 266 0 1768 0 387
0 657 0 755 1 5601 0 199
0 481 0 437 1 6740 0 189
0 185 1 5447 0 263 1 7611
0 157 1 6761 0 1555 0 219
1 7613 0 168 0 384 0 1967
0 173 1 6277 0 1868 0 303
1 6349 0 160 1 8402 0 256
0 429 0 716 0 233 0 755
0 103 1 6776 1 4359 0 250
1 5659 0 169 0 676 0 273
0 240 0 583 0 3182 0 337
0 170 0 455 0 261 0 1019
0 200 1 8235 0 404 1 7274
0 120 1 10328 1 5313 0 204
0 408 1 8051 1 4922 0 146
0 1596 0 213 1 12155 0 95
0 269 0 722 0 193 1 7548
1 8320 0 140 1 6709 0 105
0 451 0 439 0 159 1 3934
0 518 0 475 1 8511 0 129
0 226 0 485 1 6543 0 123
0 501 1 5208 0 111 1 5180
1 5412 0 163 0 156 1 6549
0 223 1 5515 0 333 0 504
0 553 0 212 1 3383 0 82
0 187 0 797 1 4556 0 223
0 186 0 542 0 361 0 504
0 189 1 7159 1 4345 0 87
0 694 0 249 0 1051 0 230
0 243 0 2056 0 176 1 10235
0 1614 0 632 1 6129 0 155
0 604 0 324 1 3689 0 197
0 248 1 6627 1 5586 0 85
0 1553 0 307 0 205 0 451
0 258 0 835 1 9300 0 216
1 6308 0 127 1 4745 0 89
0 144 1 4940 0 278 0 1497
0 194 1 4380 0 654 0 240
0 242 1 5630 0 168 1 7120
0 99 1 5243 0 118 0 1396
1 4849 0 274 1 6375 0 156
0 163 1 4852 0 383 0 208
0 112 1 5948 0 238 1 8056
0 108 1 7771 1 7594 0 243
0 224 1 10194 1 7141 0 156
0 348 0 4061 1 6623 0 236
0 2854 0 297 0 869 0 341
0 131 1 4984 1 8749 0 159
0 213 0 1601 1 3107 0 157
0 225 0 435 0 377 1 8845
0 150 1 3779 0 153 1 10075
0 803 0 1261 0 265 1 3894
0 663 0 214 1 3858 0 118
0 199 1 5477 0 498 0 1405
0 325 0 230 0 3049 0 151
0 1642 0 256 0 323 0 488
0 351 0 965 1 5140 0 217
0 234 1 6179 0 581 0 210
1 5390 0 171 1 6171 0 186
0 353 1 7165 0 226 1 6447
0 442 1 6113 0 1073 0 367
0 1960 0 121 1 4577 0 159
0 260 0 795 0 423 1 8308
1 3829 0 195 1 8165 0 299
0 137 1 7337 0 713 0 319
0 302 0 458 0 334 1 6756
0 135 1 5212 1 7897 0 156
0 131 1 3732 0 222 0 1317
0 372 1 6142 1 8470 0 248
0 426 0 171 1 4597 0 174
0 291 0 1969 0 195 1 4382
0 413 0 495 0 366 0 757
0 780 0 637 1 5011 0 144
0 313 0 2321 0 273 0 719
1 8864 0 135 0 2206 0 249
0 195 1 3664 1 7984 0 244
0 399 1 7148 1 8771 0 163
0 135 1 5145 1 8179 0 165
0 1027 0 358 1 8836 0 188
0 185 1 9693 1 4475 0 171
0 330 0 1536 1 7248 0 91
1 4605 0 164 1 10349 0 163
0 110 1 3307 0 189 0 840
0 150 1 5997 0 1780 0 298
0 442 0 757 1 5516 0 108
1 8286 0 337 1 4821 0 191
0 169 1 4618 0 620 0 316
0 635 0 225 0 1334 0 130
0 117 1 5269 1 10288 0 104
0 117 1 6902 1 4669 0 162
0 1593 0 269 0 194 1 6792
0 186 0 940 1 4934 0 111
0 822 0 550 1 5107 0 258
0 95 1 3071 0 209 0 529
0 147 1 9958 0 385 0 983
0 594 0 371 1 4312 0 167
1 5366 0 439 1 2895 0 203
0 120 0 1871 0 342 0 555
0 215 1 7226 1 6334 0 184
0 198 1 5517 1 5199 0 114
0 123 1 6304 1 5009 0 251
0 324 0 301 1 7385 0 119
0 1086 0 316 1 8064 0 125
0 124 1 3110 0 418 0 526
1 7414 0 123 0 2143 0 129
0 271 0 450 1 4555 0 116
0 197 0 1063 0 150 1 9768
0 909 0 253 1 6871 0 296
0 177 1 3705 0 446 0 298
0 875 1 7773 0 617 0 205
0 1344 0 141 1 7519 0 101
0 185 0 2822 0 245 1 6324
0 228 1 3793 1 6257 0 126
0 176 1 3896 0 846 0 404
0 136 1 3223 1 6331 0 188
0 324 0 450 0 1173 0 305
0 1572 0 211 1 4421 0 112
0 362 0 461 1 4897 0 149
0 208 1 6716 1 5627 0 140
0 136 1 4404 0 652 0 296
0 156 1 6431 0 242 1 6081
0 285 1 6479 1 6480 0 360
0 281 0 997 1 6641 0 236
0 145 1 5833 1 6198 0 190
1 6095 0 146 0 234 0 627
0 189 0 473 1 6829 0 170
0 144 1 5143 1 7054 0 134
0 208 1 6166 1 7585 0 163
0 128 1 5598 0 232 1 8706
0 124 1 4646 1 7435 0 223
0 145 0 474 1 8302 0 200
0 375 0 637 1 4345 0 113
0 144 1 7024 1 3984 0 145
1 5353 0 135 1 3502 0 165
0 780 0 237 1 5975 0 173
1 5752 0 198 1 4551 0 157
0 306 1 6092 0 229 0 1473
0 118 1 4562 0 283 0 634
1 4592 0 221 0 342 0 557
1 7439 0 116 1 7047 0 121
0 206 1 8028 0 263 0 1285
0 463 0 261 1 5685 0 138
0 157 1 4766 0 203 1 4458
0 258 0 1029 1 6348 0 98
0 269 0 337 1 6339 0 131
0 312 0 904 1 9437 0 123
0 190 1 6103 1 8581 0 162
0 439 0 365 1 6147 0 235
0 440 0 317 0 278 0 403
0 139 1 6022 0 138 1 6922
0 161 1 4117 0 336 1 4613
1 6601 0 174 1 10731 0 127
0 1355 0 220 1 4499 0 109
0 148 1 3366 0 677 0 185
0 100 1 4413 1 9042 0 317
1 6965 0 147 1 8103 0 293
1 3853 0 243 1 12935 0 161
0 465 0 476 1 6320 0 302
0 143 1 9082 0 587 0 386
0 143 0 3185 1 5289 0 114
0 6116 0 268 0 1593 0 193
0 2082 0 435 1 6848 0 125
0 165 0 1308 1 6288 0 161
0 124 1 9116 1 7096 0 118
0 766 0 160 0 1570 0 370
0 297 0 864 0 237 0 542
1 5235 0 194 1 4731 0 538
0 285 0 523 0 480 0 374
0 84 1 4830 0 212 1 7529
0 180 0 1611 0 1805 0 172
0 111 1 3758 0 657 1 7014
0 2146 0 484 1 3882 0 88
1 5775 0 228 1 4668 0 89
0 95 1 3451 1 5218 0 130
0 373 0 455 1 6046 0 182
0 2041 0 274 0 388 0 340
0 741 0 640 0 353 0 353
1 5719 0 288 0 211 1 10419
1 5298 0 312 1 4463 0 130
0 810 0 274 0 2380 0 76
0 236 1 5839 1 5662 0 165
0 164 1 7129 0 2005 0 116
0 101 1 7916 0 494 0 514
0 201 0 906 0 171 1 4749
1 10021 0 257 0 768 0 2342
0 409 0 353 1 4044 0 93
0 333 0 391 0 2773 0 113
0 211 1 4716 1 6317 0 125
1 5599 0 153 1 4865 0 182
1 7571 0 372 0 223 0 356
0 167 1 3643 0 208 0 1305
0 89 1 4954 0 125 1 3718
0 142 0 1010 1 5731 0 149
0 215 1 11352 1 7220 0 295
0 2310 0 157 1 5701 0 166
0 189 1 4050 1 4373 0 121
1 8359 0 478 1 6225 0 128
0 195 1 6606 0 342 1 5312
0 112 1 5323 1 8030 0 105
0 98 1 3575 0 151 1 10694
1 5655 0 365 0 561 0 237
0 131 1 7256 1 7293 0 151
0 90 1 4977 1 4830 0 138
0 360 0 1074 1 7563 0 235
0 131 1 5185 1 4325 0 311
1 4658 0 140 1 5915 0 133
0 188 1 7757 1 5291 0 98
0 248 1 4696 0 292 0 451
0 109 1 5790 1 7195 0 326
0 928 0 246 1 4176 0 148
0 187 1 6433 0 320 0 551
0 144 1 5163 0 324 0 678
0 972 0 240 1 8944 0 148
0 459 0 369 1 5555 0 165
0 425 1 4382 0 774 0 293
0 295 1 8416 0 865 0 189
0 610 0 1602 1 4140 0 207
0 111 1 10859 0 145 1 4463
0 431 0 542 1 10042 0 137
0 205 0 608 1 9944 0 557
0 151 0 1721 1 6565 0 161
0 302 0 814 0 328 0 694
0 990 0 507 0 468 0 231
0 268 0 1504 0 485 0 373
0 160 1 6245 1 6496 0 139
0 223 1 7322 0 391 1 9935
0 139 0 4175 1 6083 0 134
0 211 1 6268 0 194 1 7332
0 107 1 5169 0 362 1 5047
0 207 1 7376 0 218 1 4755
0 102 1 4299 1 8577 0 186
0 147 1 3693 0 1569 0 271
0 215 1 3448 0 625 1 8424
0 129 1 8146 0 183 1 6406
0 377 0 427 0 281 1 7269
0 284 1 5754 0 292 0 1409
0 403 0 1255 0 315 0 724
0 169 1 7279 1 9180 0 328
0 114 0 1456 0 100 1 4816
0 140 1 5380 1 4389 0 122
0 251 1 3701 1 5760 0 253
0 154 1 6912 1 5136 0 155
0 197 1 7029 1 5681 0 136
0 536 0 1437 0 156 1 6611
0 236 1 7524 1 5823 0 163
0 162 0 4862 1 4775 0 203
0 187 1 7993 0 326 0 997
0 182 0 798 1 6114 0 143
0 140 1 3387 1 4789 0 216
1 4923 0 197 1 9862 0 136
1 12444 0 155 0 155 0 1810
1 3355 0 256 0 1789 0 135
0 161 1 6595 0 125 1 6047
0 169 0 2073 1 7244 0 145
0 125 1 6197 1 5900 0 214
0 278 0 2156 1 9039 0 229
0 189 1 4721 1 5714 0 122
0 1748 0 413 1 4696 0 121
0 192 0 1720 0 1117 0 282
0 1987 0 309 1 4067 0 178
0 141 1 7088 0 109 1 7992
0 196 0 287 1 7030 0 88
0 285 0 320 0 175 0 278
0 138 1 6714 0 1522 0 274
0 156 1 6492 0 380 0 378
0 129 1 7079 1 6091 0 177
0 2011 0 297 1 10002 0 217
0 139 1 5043 0 553 1 7478
0 380 0 2102 0 1541 0 294
1 4736 0 458 0 517 0 1484
0 287 0 554 1 5377 0 181
0 225 1 6714 1 5880 0 166
0 226 1 4770 0 770 0 167
0 353 0 348 1 6892 0 388
0 240 0 455 1 3466 0 146
0 291 1 6181 1 3123 0 178
0 315 0 1202 1 3165 0 123
0 195 0 1694 0 889 0 208
0 522 1 6530 1 7500 0 424
0 239 1 4940 1 5860 0 182
1 7196 0 203 1 5960 0 184
0 123 1 5443 1 6371 0 229
0 149 1 5834 1 13205 0 126
0 206 1 10899 0 205 1 6677
0 192 1 6175 1 4302 0 109
0 129 1 7802 0 171 1 6852
0 99 1 3344 0 127 1 3586
0 207 1 6415 1 4290 0 91
0 1860 0 326 0 358 0 879
1 5543 0 399 1 5026 0 123
0 379 0 969 1 5164 0 289
0 218 1 6636 1 8079 0 145
0 216 1 5751 0 209 0 2013
0 139 1 5122 1 4311 0 164
1 7161 0 325 0 954 0 215
0 217 1 6069 1 4220 0 144
1 5293 0 329 0 236 0 936
0 198 1 7965 1 10259 0 194
0 168 1 5327 1 3563 0 131
1 10499 0 236 1 7542 0 142
0 138 1 8675 1 4159 0 212
0 239 1 5162 1 5399 0 167
0 174 1 5082 0 901 0 376
0 127 1 6547 1 6203 0 204
0 197 1 5162 0 255 1 7608
0 348 0 241 0 786 0 140
0 287 0 464 1 7785 0 146
0 138 1 2776 1 8975 0 180
0 2979 0 126 1 5450 0 176
1 4666 0 162 1 6044 0 99
0 166 1 8191 1 3727 0 238
0 700 0 491 1 5566 0 115
0 190 0 1848 1 3747 0 162
0 1275 0 523 1 9370 0 178
1 8147 0 160 1 5567 0 181
0 94 1 3854 0 196 1 3611
0 545 0 335 1 6071 0 134
1 8069 0 388 0 596 0 172
0 414 0 1294 0 606 0 302
0 144 1 10177 0 617 0 448
0 387 1 5397 1 7246 0 201
0 140 1 8567 0 437 0 625
0 590 0 275 1 4096 0 121
0 186 0 2132 1 3680 0 105
1 9206 0 178 0 186 1 4629
0 185 1 6398 0 211 0 480
1 4481 0 145 1 6269 0 95
0 494 0 520 1 6543 0 144
0 106 1 6187 0 626 0 312
0 753 0 349 1 6822 0 188
0 598 0 291 1 4456 0 124
0 162 1 5324 1 6908 0 109
0 496 0 460 1 6274 0 149
0 75 1 5601 1 3811 0 200
0 197 1 7143 0 838 0 168
0 195 0 1679 0 810 0 320
1 6244 0 119 1 5203 0 179
0 115 1 5051 0 487 0 2671
0 299 1 10665 1 5835 0 415
0 326 0 739 1 5849 0 99
0 186 0 890 1 9058 0 132
0 174 0 1216 0 383 1 5950
0 113 1 5036 0 218 0 299
0 333 1 8712 1 7187 0 135
0 98 1 6190 0 244 0 594
0 496 0 575 0 247 0 623
0 172 1 4969 1 13376 0 124
0 123 1 7614 1 3762 0 159
0 353 0 1792 0 323 1 5552
0 323 0 387 1 4945 0 103
0 179 1 5848 0 1066 0 1061
0 197 1 8523 0 274 0 984
0 258 1 5255 1 4307 0 229
0 191 1 6285 0 174 1 7043
0 239 1 8482 0 170 1 9261
0 278 1 5362 1 6827 0 530
0 178 1 6142 0 442 0 302
0 276 0 880 0 2902 0 197
0 133 1 3689 0 217 0 523
0 289 1 5676 1 11123 0 148
0 160 1 4494 1 7260 0 157
0 371 0 1833 1 7658 0 164
0 208 0 694 0 2439 0 150
1 7737 0 200 1 12216 0 129
1 4681 0 191 1 4051 0 89
1 10879 0 241 1 6782 0 140
0 95 1 4184 0 172 1 6301
0 320 1 8236 0 243 1 6514
0 156 1 9541 0 592 0 398
0 3949 0 314 0 958 0 282
0 202 1 7831 1 10475 0 180
0 166 0 548 0 373 0 901
0 1269 0 751 1 6606 0 236
0 128 1 5356 1 13610 0 321
0 455 0 451 0 628 0 176
0 150 1 6815 1 5867 0 133
1 8562 0 222 1 5659 0 220
0 85 1 4948 1 6595 0 289
0 127 1 5018 0 2138 0 331
0 779 0 358 0 1114 0 263
0 249 0 471 0 595 0 178
0 135 1 4842 1 10302 0 306
0 342 1 10496 1 4455 0 168
0 234 0 1926 0 108 1 6271
0 422 0 552 0 4274 0 209
1 6176 0 337 0 3572 0 142
1 4795 0 267 1 5076 0 150
0 182 1 8341 1 4057 0 125
0 222 1 11101 1 7392 0 181
0 469 0 225 1 5145 0 239
0 544 1 8272 0 823 0 298
0 215 1 4618 0 247 1 6829
0 190 1 5766 1 3811 0 135
1 10837 0 181 0 329 1 5343
0 247 1 6641 1 5165 0 94
0 96 1 3990 0 137 1 3668
0 492 0 306 1 5269 0 129
0 1006 0 279 1 5596 0 92
0 282 1 8630 1 6000 0 124
0 275 1 5561 0 336 0 588
1 5903 0 271 0 2018 0 149
0 691 0 437 1 6719 0 117
0 209 1 5657 0 176 1 6145
0 179 1 7166 0 848 0 158
0 187 0 874 0 1225 0 156
0 751 1 8258 1 5640 0 345
0 370 1 7925 1 4564 0 156
1 5968 0 287 1 3889 0 204
0 315 0 1617 1 14560 0 150
0 552 0 264 0 268 0 1055
0 227 1 4498 1 3047 0 121
0 190 1 5461 1 5927 0 301
0 109 1 5869 0 164 1 4372
1 8559 0 204 1 4117 0 150
1 3090 0 123 1 4335 0 152
0 140 1 6212 0 303 1 4723
0 283 0 706 1 7041 0 213
0 165 1 7539 1 4486 0 141
0 129 1 5335 0 260 1 4255
0 691 0 596 1 6398 0 156
0 149 1 9300 0 122 1 4948
0 182 1 4053 0 296 1 7203
0 422 0 2276 0 258 0 1403
0 112 1 4836 1 4128 0 220
0 298 1 6560 1 7955 0 83
0 1959 0 290 1 7763 0 191
0 1562 0 321 1 5537 0 127
0 315 0 305 0 427 0 337
0 1225 0 408 0 172 1 5661
0 192 1 4924 1 4335 0 101
0 474 0 511 1 3437 0 170
0 353 1 10071 0 310 0 784
1 4866 0 393 1 4874 0 121
1 3881 0 174 1 6495 0 109
0 206 1 2946 0 217 0 653
0 97 0 6420 0 346 0 748
0 217 1 7443 1 5799 0 93
1 4632 0 90 1 7072 0 194
0 156 1 3677 1 10637 0 285
1 5281 0 303 0 482 0 943
0 188 1 4149 1 7871 0 796
0 260 0 718 1 6029 0 177
0 303 1 6236 1 7176 0 400
0 134 1 4416 0 795 0 218
0 208 0 397 0 142 1 7214
0 253 0 217 0 3448 0 129
0 114 1 3911 0 925 0 421
0 362 0 308 0 177 1 5006
0 104 1 5522 1 6758 0 174
0 151 0 954 0 183 1 4298
0 122 1 5608 0 165 0 386
0 169 1 5359 0 275 1 7432
0 78 1 5706 0 940 0 180
0 128 1 4551 0 770 0 312
0 259 1 9782 1 7005 0 102
0 162 1 9039 1 7966 0 251
1 8454 0 158 1 4210 0 101
0 1032 0 212 0 856 0 258
0 518 0 407 1 13071 0 128
0 215 0 350 0 1662 0 166
0 185 1 8736 0 248 1 5596
0 158 1 5543 0 333 0 262
0 183 1 4380 1 7171 0 239
0 104 1 7188 0 737 0 182
0 158 0 2637 0 422 0 1272
0 275 0 957 1 6006 0 121
0 414 0 235 1 7154 0 117
0 168 1 5606 0 144 1 8883
0 246 1 5406 1 9083 0 223
0 258 0 890 1 5388 0 86
0 2336 0 516 1 4776 0 182
0 206 0 693 0 1709 0 413
0 329 0 451 1 11758 0 231
0 190 1 3498 1 6974 0 161
0 221 0 463 1 7985 0 158
0 334 0 388 1 5633 0 260
0 126 1 7758 0 493 0 279
0 779 1 10348 0 250 1 8224
1 11784 0 165 0 239 1 4976
1 5903 0 238 1 3596 0 159
1 6623 0 192 1 6620 0 122
0 208 1 5761 1 7422 0 126
0 547 0 211 1 8941 0 136
0 1391 0 142 1 5702 0 154
0 277 0 1933 1 3890 0 243
0 187 1 5436 1 3737 0 127
0 164 1 3806 1 6618 0 115
0 122 1 3718 0 451 0 1279
0 171 1 5994 0 171 1 3785
1 4079 0 122 1 8116 0 120
0 318 1 7166 1 6875 0 361
0 402 0 590 0 498 0 221
1 7216 0 226 0 1923 0 232
0 213 1 8286 1 6803 0 187
0 369 0 438 1 7491 0 137
0 142 1 4822 1 8492 0 359
1 5334 0 98 1 7118 0 94
0 119 1 5285 1 7420 0 161
0 110 1 5369 1 6671 0 169
0 146 1 6675 0 795 0 206
0 126 1 6121 0 135 1 6131
0 277 1 4714 1 7474 0 135
1 4633 0 161 1 7277 0 215
0 247 1 6690 1 5085 0 151
0 151 0 1921 0 174 1 4877
0 167 0 601 0 475 0 237
1 4784 0 175 1 5061 0 218
0 145 1 4268 0 369 0 1424
1 5773 0 295 0 354 1 4642
1 5076 0 149 1 4284 0 151
1 8993 0 172 0 651 0 231
0 131 1 5559 1 9232 0 280
0 84 1 7822 0 268 1 9958
0 1192 0 312 0 363 0 511
0 229 1 6881 1 9450 0 179
0 424 0 1240 1 7804 0 468
0 201 1 4330 1 6942 0 166
0 188 1 5727 0 262 0 2708
0 391 0 296 0 1431 0 256
0 284 0 727 0 2713 0 170
0 298 0 413 1 3205 0 254
0 272 0 840 0 238 0 1167
0 814 0 344 1 7689 0 139
0 136 1 3866 0 160 1 12343
0 255 0 572 0 456 1 8164
0 747 0 336 1 4784 0 269
0 136 1 5456 0 135 1 7488
0 166 1 6963 0 997 0 206
0 171 1 7056 0 1218 0 154
1 8825 0 426 0 1286 0 159
0 2079 0 181 1 9657 0 130
1 4934 0 239 1 8056 0 156
0 262 0 482 1 6773 0 366
1 4274 0 196 1 6639 0 139
0 1304 0 408 1 8984 0 97
0 265 0 966 0 125 1 4988
0 1087 0 270 0 217 0 1129
1 7910 0 212 1 3152 0 71
0 233 0 817 0 358 0 712
0 144 1 7812 0 164 1 4972
0 184 1 5083 1 5325 0 164
0 1116 0 266 0 1574 0 374
0 153 1 6116 0 200 0 865
0 865 0 364 0 2726 0 190
1 6930 0 180 1 6728 0 118
0 135 1 4062 1 8703 0 147
0 106 1 4796 1 6058 0 151
0 383 1 4253 1 4483 0 80
0 181 1 6671 1 5505 0 180
0 280 0 3660 0 230 1 11971
0 145 1 7413 0 515 0 464
0 125 1 6890 1 7216 0 179
0 281 1 5358 1 5232 0 136
0 216 0 2216 1 4623 0 137
0 134 1 5440 0 227 0 641
0 1018 0 243 1 4828 0 216
0 149 1 8115 1 8629 0 130
0 126 1 4282 1 5840 0 231
0 198 1 4538 1 3925 0 94
0 209 1 5244 1 8449 0 105
0 305 0 403 1 7147 0 208
0 617 0 282 1 4419 0 237
0 237 1 5208 1 5472 0 153
0 337 1 8020 0 245 0 672
0 166 1 4793 1 7117 0 164
0 3027 0 173 1 5793 0 153
0 122 1 6066 1 6140 0 286
0 147 1 4506 0 733 0 209
0 204 1 9263 0 139 1 11857
0 534 0 724 1 4157 0 105
0 417 0 598 1 5172 0 337
0 161 1 6130 1 4498 0 164
0 237 0 1619 0 847 0 547
0 129 1 6154 0 2319 0 220
0 133 1 6222 0 307 0 1605
0 245 1 3984 0 147 0 561
0 91 1 5574 0 247 1 6954
0 1084 0 178 1 5535 0 138
0 256 1 5841 0 193 1 6168
0 313 0 1342 1 5554 0 142
0 245 0 779 1 4820 0 224
0 191 0 1412 0 205 1 8401
1 4284 0 257 1 6371 0 95
0 261 0 1243 1 2996 0 102
0 139 1 6535 1 6330 0 202
0 226 1 5827 0 226 1 8191
0 78 1 4431 0 5345 0 243
0 148 0 704 1 4257 0 103
1 4861 0 146 1 5796 0 160
0 90 1 4838 0 101 1 3636
1 9708 0 371 0 282 1 4321
0 183 0 370 0 597 0 737
0 156 1 5174 0 566 0 661
0 116 1 6384 0 1089 0 931
0 219 1 8180 1 2562 0 86
0 125 1 9333 0 385 0 531
0 241 0 400 0 238 0 2039
0 148 1 4252 0 198 1 5415
0 1349 0 408 1 6094 0 227
0 263 1 7733 1 3918 0 243
0 117 1 3704 1 5567 0 229
0 182 1 6272 1 6797 0 100
0 132 1 3567 0 137 1 6183
0 376 1 6877 1 4040 0 206
0 663 0 904 0 156 1 6188
0 156 1 7304 0 1077 0 449
0 104 1 7733 0 154 1 6469
1 6483 0 128 1 4482 0 123
0 101 1 4349 0 93 1 5893
0 167 1 7153 1 5145 0 119
0 358 0 224 1 9930 0 165
1 9666 0 193 1 4760 0 131
0 323 0 564 0 297 0 3573
0 777 0 231 1 7998 0 155
0 146 1 6397 1 7393 0 217
1 5707 0 219 1 5703 0 179
0 231 1 5890 1 4903 0 491
0 68 1 7016 0 72 1 3473
0 166 0 1285 1 7878 0 165
0 257 0 1758 1 7577 0 136
0 170 1 5446 0 305 1 8834
0 151 0 1144 1 6463 0 191
0 206 1 9519 1 4047 0 84
0 150 1 10057 0 305 0 615
0 252 1 7650 0 1919 0 207
1 5665 0 180 0 987 0 102
0 631 0 618 0 325 0 428
0 178 1 4825 0 305 1 7496
1 8684 0 161 1 4635 0 172
0 739 0 676 1 3725 0 81
0 150 1 7449 1 5754 0 99
0 190 0 491 1 3712 0 155
0 207 1 5978 0 795 0 215
0 176 1 7541 0 1441 0 303
0 197 0 1364 1 6427 0 103
1 5148 0 327 0 983 0 347
0 610 0 1304 1 8289 0 181
0 154 1 5898 1 6674 0 113
0 156 1 6276 1 6274 0 229
0 123 1 5090 0 614 0 884
0 154 1 5528 1 6886 0 160
0 160 1 3427 1 8583 0 127
0 416 1 6563 0 234 0 810
0 659 0 696 0 414 0 902
0 171 1 6701 1 3790 0 173
0 361 1 4557 1 4356 0 655
0 96 1 5951 0 734 0 341
0 162 1 5435 1 6037 0 221
0 144 1 4868 1 5924 0 244
0 134 1 7110 1 10688 0 321
0 250 1 5092 0 175 1 8813
0 260 1 7969 1 6391 0 217
0 986 0 249 1 13098 0 215
0 168 0 952 1 4918 0 181
0 430 1 3882 0 1174 0 466
0 99 1 5389 0 207 1 4773
0 294 0 831 1 3982 0 263
0 168 1 6927 1 5476 0 93
0 104 1 7177 0 196 1 8711
0 124 1 6020 1 5178 0 83
1 8148 0 243 1 5863 0 144
0 169 1 6671 0 181 1 5552
0 223 1 4904 0 638 0 542
0 114 1 4298 1 6909 0 405
0 258 0 1489 0 474 1 7575
0 1076 0 239 1 6691 0 103
0 140 1 3998 0 1083 0 223
0 215 1 5572 0 1080 0 1996
0 197 0 2143 1 9343 0 200
0 221 1 6077 1 4109 0 147
1 4040 0 155 0 323 0 879
0 265 0 883 1 6018 0 532
0 231 1 6814 0 225 1 6180
0 244 1 6936 0 891 0 571
0 216 0 337 0 223 0 3083
0 261 1 3503 1 5080 0 169
0 294 1 4485 1 4673 0 178
0 113 0 369 1 6056 0 104
0 127 1 6709 0 526 1 7513
0 108 1 3265 1 5601 0 140
1 7575 0 225 1 5610 0 240
0 171 1 10100 0 669 0 308
1 8418 0 225 0 784 0 96
0 169 1 4138 1 3950 0 258
0 128 1 9114 1 3974 0 135
0 563 0 567 1 7027 0 264
0 264 1 4823 0 2150 0 196
0 144 1 9433 0 1401 0 335
0 205 1 8824 0 1344 0 136
0 252 1 7525 1 5043 0 149
0 114 1 7139 1 8381 0 130
0 112 1 4135 1 10183 0 274
0 174 1 4592 0 241 1 7251
0 132 1 6389 1 3627 0 76
0 164 1 7119 0 153 1 5030
0 182 1 3949 1 5228 0 234
0 442 0 259 1 6048 0 124
0 295 1 6880 0 271 1 7205
0 135 1 9623 1 3462 0 130
0 110 1 4227 0 242 0 750
0 318 1 4847 0 521 0 249
0 1075 0 207 1 4880 0 171
0 113 0 1107 1 6146 0 389
0 255 0 997 0 125 1 3481
0 130 1 5725 1 3919 0 124
0 1272 0 331 0 1591 0 246
0 150 1 9232 1 6568 0 141
1 7049 0 106 1 6113 0 158
1 4218 0 232 1 3240 0 111
0 251 0 1084 0 3038 0 267
0 365 0 1404 1 5767 0 133
1 4197 0 324 0 241 1 6794
0 418 0 604 1 8506 0 501
0 114 1 3625 0 215 1 5823
0 375 0 374 0 487 0 316
1 5138 0 170 1 5202 0 210
0 1269 0 247 1 12427 0 244
0 264 1 6547 1 6287 0 183
0 239 1 4249 1 6110 0 176
1 4800 0 321 0 490 0 437
0 119 0 3712 1 4030 0 149
0 292 0 522 1 5333 0 170
0 124 1 4002 0 278 1 8481
0 613 0 349 1 6807 0 169
0 138 1 4708 1 6944 0 92
0 101 1 4464 1 6985 0 371
1 10163 0 160 0 239 1 5197
1 6049 0 217 1 6505 0 130
1 7108 0 215 1 3060 0 111
0 146 1 4498 1 4624 0 176
0 168 1 4243 1 6019 0 200
0 97 1 4886 1 6741 0 154
0 1380 0 235 0 238 0 1232
0 416 0 1572 1 5170 0 166
0 211 0 1762 1 4225 0 133
0 236 1 4426 1 7864 0 112
0 119 1 8087 1 9309 0 249
0 666 0 319 1 7771 0 144
0 437 0 337 1 5629 0 331
0 241 1 6271 1 4288 0 100
0 122 1 8759 0 2172 0 165
0 791 0 147 0 733 0 815
0 206 1 9204 0 183 1 5689
1 5347 0 398 1 3160 0 239
0 206 0 1365 1 6119 0 125
0 493 0 203 1 6212 0 136
1 6476 0 262 1 5644 0 148
0 139 1 7399 0 175 1 7852
0 226 1 4231 1 9520 0 129
0 759 0 454 1 6161 0 226
