Parameters: seed=650093562, s1=0.001000, s2=0.001000, s3=0.001000, s4=0.001000, e12=-0.200000, e13=0.000000, e14=0.000000, e23=0.000000, e24=0.000000, e34=-0.200000, r12=0.007000, r23=0.007000, r34=0.007000, h12=1, h13=1, h14=1, h23=1, h24=1, h34=1 , n_gen=10000000, n_ind=10000 initial freq: 0.000000 0.000000 0.000000 0.000000 0.000000 0.500000 0.000000 0.000000 0.000000 0.000000 0.500000 0.000000 0.000000 0.000000 0.000000 0.000000
0 45 1 262 0 68 1 1427
0 41 1 454 0 46 1 5281
0 62 1 141 0 57 1 689
1 1493 0 61 1 869 0 50
0 62 1 496 0 113 1 2637
1 840 0 47 1 48 0 45
0 44 1 679 0 57 1 997
0 40 1 814 0 51 1 2234
0 37 1 661 0 57 1 917
0 59 1 1607 0 72 1 11612
0 53 1 76 0 75 1 1139
0 41 1 152 0 54 1 1157
1 1559 0 50 1 85 0 40
0 61 1 739 0 100 1 2009
0 44 1 510 0 65 1 3140
0 43 1 1230 0 51 1 1617
0 47 1 210 0 53 1 1466
1 1134 0 64 1 308 0 51
0 81 1 482 0 95 1 3095
1 1907 0 51 1 302 0 50
1 4990 0 49 1 47 0 39
0 55 1 399 0 60 1 1047
0 61 1 509 0 146 1 3783
1 1920 0 53 1 2951 0 48
0 45 1 187 0 56 1 4315
1 3355 0 87 1 1652 0 55
1 1635 0 72 1 1310 0 56
0 60 1 1654 0 78 1 1912
1 1527 0 50 1 813 0 42
1 2348 0 73 1 1932 0 62
1 4464 0 56 1 430 0 46
0 88 1 2268 1 4415 0 182
1 2685 0 51 1 635 0 51
0 35 1 234 0 44 1 1039
0 41 1 510 0 49 1 1677
0 57 1 416 0 67 1 807
1 1407 0 69 1 589 0 52
1 3232 0 73 1 536 0 55
1 3013 0 53 1 110 0 39
1 4042 0 81 1 2848 0 57
0 47 1 263 0 44 1 797
1 2733 0 45 1 48 0 48
0 82 1 1485 1 9309 0 322
0 55 1 626 0 51 1 2495
1 1708 0 57 1 501 0 47
0 61 1 619 0 61 1 3242
1 3835 0 41 1 427 0 47
0 44 1 144 0 54 1 662
0 46 1 77 0 46 1 1425
0 39 1 255 0 51 1 2162
1 1903 0 65 1 198 0 50
1 1475 0 46 1 126 0 42
1 6019 0 99 1 2520 0 58
1 1431 0 66 1 109 0 37
1 1770 0 52 1 1229 0 47
1 1736 0 68 1 357 0 49
1 4850 0 70 1 380 0 51
0 53 1 262 0 64 1 1781
0 57 1 921 0 61 1 2807
1 2201 0 48 1 406 0 45
1 2561 0 56 1 960 0 46
0 44 1 370 0 54 1 1400
1 1866 0 55 1 339 0 41
1 1562 0 45 1 91 0 48
1 813 0 52 1 476 0 45
1 1160 0 55 1 882 0 43
1 4559 0 61 1 208 0 48
0 53 1 300 0 63 1 4376
1 586 0 48 1 64 0 41
1 660 0 45 1 139 0 51
0 44 1 241 0 93 1 1124
0 48 1 152 0 42 1 778
1 2452 0 73 1 2376 0 55
0 39 1 1917 0 53 1 1481
1 602 0 63 1 617 0 40
0 66 1 781 0 73 1 1217
1 4177 0 60 1 224 0 54
0 65 1 2131 0 197 1 6124
0 51 1 483 0 68 1 983
1 2494 0 70 1 936 0 52
0 92 1 4175 1 1757 0 106
0 51 1 718 0 71 1 1998
1 2546 0 68 1 265 0 46
1 1078 0 49 1 205 0 43
0 47 1 761 0 65 1 4574
0 54 1 1240 0 86 1 2383
0 54 1 183 0 65 1 742
1 1732 0 62 1 211 0 51
1 1100 0 52 1 342 0 40
1 1244 0 55 1 79 0 47
0 45 1 437 0 59 1 2834
1 1656 0 70 1 322 0 50
1 3766 0 63 1 159 0 42
0 52 1 990 0 77 1 1840
0 51 1 320 0 46 1 2487
1 487 0 52 1 121 0 35
0 49 1 3186 0 62 1 1353
0 54 1 172 0 77 1 2758
1 1771 0 53 1 406 0 45
1 1847 0 53 1 293 0 40
0 43 1 129 0 56 1 5669
0 45 1 340 0 66 1 3231
0 57 1 659 0 57 1 1352
0 42 1 1008 0 71 1 970
1 582 0 56 1 997 0 46
1 2110 0 63 1 312 0 45
0 35 1 1489 0 50 1 901
0 42 1 216 0 48 1 2554
0 171 1 3951 1 2519 0 96
1 4484 0 55 1 123 0 47
0 51 1 304 0 43 1 1979
0 54 1 801 0 54 1 1396
0 47 1 2009 0 64 1 2998
0 52 1 334 0 62 1 1055
0 47 1 415 0 62 1 816
0 63 1 532 0 85 1 2774
0 44 1 489 0 48 1 792
1 4887 0 59 1 215 0 48
0 53 1 931 0 71 1 8021
1 2607 0 66 1 1153 0 52
0 54 1 216 0 49 1 1884
1 4189 0 111 1 1574 0 63
1 1391 0 74 1 436 0 45
1 3557 0 169 1 1323 0 73
0 52 1 356 0 70 1 3364
1 1028 0 51 1 515 0 42
0 51 1 202 0 59 1 2316
0 42 1 574 0 56 1 4536
0 57 1 1275 0 73 1 2340
1 1063 0 51 1 105 0 43
0 58 1 114 0 82 1 1448
1 2327 0 105 1 228 0 56
1 3743 0 51 1 115 0 43
0 45 1 91 0 54 1 3126
1 701 0 43 1 118 0 40
0 56 1 258 0 52 1 699
1 4012 0 78 1 1322 0 52
0 49 1 379 0 46 1 1415
1 3293 0 70 1 765 0 50
0 51 1 1220 0 70 1 748
1 447 0 46 1 390 0 47
0 40 1 53 0 61 1 1622
1 2026 0 55 1 873 0 46
1 1804 0 51 1 135 0 41
1 1694 0 59 1 359 0 48
1 3302 0 41 1 57 0 36
0 64 1 231 0 69 1 2248
1 3099 0 90 1 219 0 60
0 47 1 231 0 56 1 843
1 1228 0 53 1 250 0 50
0 60 1 2694 0 91 1 3117
0 248 1 6180 1 3041 0 75
1 1690 0 63 1 108 0 51
0 190 1 3752 1 1264 0 79
1 7656 0 309 1 1247 0 73
1 2636 0 63 1 1337 0 48
0 48 1 194 0 60 1 3921
0 41 1 123 0 59 1 1826
0 41 1 213 0 37 1 3004
0 66 1 2370 0 129 1 2688
1 2310 0 66 1 439 0 48
0 49 1 376 0 73 1 2362
1 3012 0 77 1 1543 0 52
0 42 1 549 0 66 1 1559
0 48 1 203 0 69 1 2086
0 41 1 200 0 50 1 2677
0 47 1 692 0 67 1 3410
0 48 1 422 0 68 1 3212
0 43 1 141 0 50 1 1087
1 1172 0 67 1 81 0 41
0 48 1 326 0 80 1 1350
1 1090 0 45 1 277 0 37
0 59 1 520 0 66 1 2902
1 1544 0 61 1 416 0 58
0 55 1 609 0 59 1 2761
0 46 1 1211 0 54 1 906
0 108 1 5272 1 8070 0 120
0 48 1 407 0 50 1 232
1 1046 0 46 1 95 0 53
0 42 1 271 0 60 1 2879
0 54 1 396 0 80 1 2140
0 63 1 368 0 71 1 2218
0 37 1 95 0 52 1 3769
1 2746 0 45 1 152 0 39
1 1128 0 46 1 116 0 38
0 41 1 94 0 44 1 1211
1 4284 0 71 1 1830 0 51
0 43 1 447 0 53 1 889
1 2299 0 65 1 240 0 50
0 56 1 3052 0 78 1 2714
0 43 1 105 0 58 1 714
1 5576 0 86 1 94 0 59
1 4015 0 69 1 359 0 42
1 6261 0 164 1 1580 0 73
0 32 1 78 0 47 1 3256
1 2539 0 65 1 155 0 52
1 1457 0 42 1 54 0 32
1 1005 0 61 1 423 0 50
0 58 1 2689 0 94 1 3782
1 1417 0 56 1 1188 0 46
1 4167 0 163 1 679 0 69
0 60 1 4006 0 70 1 2079
1 622 0 51 1 1767 0 40
1 2152 0 48 1 650 0 42
1 468 0 47 1 110 0 52
1 907 0 48 1 959 0 48
1 1727 0 51 1 155 0 42
1 1071 0 69 1 368 0 48
0 45 1 240 0 54 1 1741
0 61 1 621 0 76 1 1602
1 4283 0 122 1 959 0 70
0 45 1 127 0 64 1 513
1 1900 0 69 1 315 0 57
0 97 1 2800 1 3857 0 208
0 36 1 125 0 46 1 1314
0 37 1 695 0 50 1 924
1 1272 0 42 1 329 0 39
0 42 1 92 0 51 1 1217
1 2668 0 48 1 398 0 45
0 52 1 229 0 84 1 4533
1 7082 0 54 1 485 0 48
1 2193 0 71 1 2732 0 51
1 2059 0 62 1 1303 0 61
1 1864 0 70 1 1009 0 49
0 62 1 2341 0 138 1 4559
1 998 0 49 1 236 0 38
0 50 1 179 0 70 1 2939
0 54 1 322 0 53 1 1827
1 2706 0 47 1 327 0 45
0 95 1 5611 1 2873 0 99
1 969 0 45 1 129 0 35
1 952 0 45 1 95 0 43
1 2614 0 74 1 349 0 52
0 50 1 2044 0 66 1 2113
1 1284 0 63 1 141 0 43
0 46 1 159 0 54 1 2272
1 1076 0 41 1 154 0 38
0 53 1 314 0 85 1 2157
1 1733 0 78 1 1031 0 51
1 3053 0 59 1 356 0 45
1 4140 0 93 1 177 0 55
0 54 1 1034 0 73 1 1411
1 2518 0 62 1 283 0 65
0 47 1 381 0 57 1 1084
1 1285 0 46 1 152 0 41
0 47 1 719 0 54 1 2451
1 2401 0 48 1 119 0 52
1 2683 0 59 1 83 0 42
0 51 1 1121 0 53 1 2488
0 37 1 272 0 45 1 790
0 62 1 1796 0 101 1 3876
1 1204 0 52 1 85 0 45
1 3401 0 82 1 1311 0 53
0 46 1 480 0 51 1 632
1 10999 0 56 1 203 0 60
1 1395 0 54 1 65 0 45
0 38 1 271 0 47 1 782
0 49 1 3855 0 49 1 2425
1 2097 0 35 1 43 0 41
0 38 1 910 0 44 1 2310
1 613 0 56 1 162 0 49
0 53 1 1399 0 65 1 1553
1 2250 0 44 1 48 0 38
1 2138 0 59 1 114 0 48
1 2632 0 87 1 732 0 61
1 5159 0 52 1 2122 0 47
0 39 1 386 0 43 1 598
1 1159 0 43 1 123 0 42
0 53 1 217 0 61 1 2778
1 1259 0 51 1 179 0 38
1 3069 0 68 1 190 0 46
0 136 1 5236 1 2126 0 90
0 44 1 794 0 59 1 3258
0 62 1 283 0 120 1 6973
1 2021 0 71 1 1916 0 56
0 52 1 173 0 62 1 2767
0 39 1 661 0 59 1 5053
1 1773 0 58 1 322 0 56
0 52 1 504 0 56 1 2833
0 55 1 209 0 69 1 2938
0 50 1 806 0 59 1 335
0 45 1 221 0 83 1 3539
0 62 1 328 0 93 1 2032
0 41 1 433 0 50 1 1221
1 1405 0 48 1 226 0 34
1 3602 0 72 1 171 0 53
0 49 1 327 0 67 1 920
1 3720 0 65 1 301 0 57
0 46 1 726 0 73 1 1578
1 2912 0 76 1 439 0 60
1 4223 0 69 1 675 0 48
1 1645 0 65 1 78 0 49
1 453 0 54 1 477 0 44
0 45 1 127 0 56 1 1928
0 34 1 135 0 56 1 1127
1 2587 0 89 1 1791 0 75
0 68 1 625 0 119 1 2489
0 49 1 1578 0 82 1 2493
0 54 1 170 0 53 1 4663
0 67 1 295 0 84 1 3301
1 2387 0 50 1 120 0 38
1 1992 0 56 1 234 0 50
0 54 1 363 0 65 1 2382
0 40 1 68 0 45 1 2928
1 1513 0 70 1 475 0 40
0 58 1 859 0 52 1 1849
0 79 1 2344 1 2061 0 144
1 1060 0 48 1 384 0 38
1 4310 0 57 1 118 0 50
0 52 1 164 0 62 1 2410
0 44 1 127 0 46 1 1009
1 1518 0 57 1 157 0 52
1 1479 0 63 1 598 0 51
0 50 1 211 0 52 1 3259
1 2103 0 55 1 205 0 43
1 1073 0 43 1 109 0 35
0 68 1 1094 0 113 1 3582
1 3956 0 95 1 1296 0 70
1 2895 0 54 1 128 0 51
0 42 1 2948 0 59 1 2717
1 900 0 61 1 3291 0 41
0 46 1 1509 0 65 1 1009
1 4271 0 85 1 1007 0 54
0 49 1 432 0 47 1 902
1 2316 0 109 1 1362 0 63
1 4270 0 57 1 269 0 43
0 38 1 265 0 39 1 895
0 42 1 1097 0 61 1 1200
1 726 0 60 1 376 0 41
1 4961 0 64 1 172 0 52
0 66 1 300 0 63 1 2585
0 37 1 123 0 48 1 677
1 2284 0 57 1 652 0 52
1 1710 0 40 1 768 0 47
1 1665 0 61 1 309 0 49
1 1335 0 69 1 1153 0 52
1 2355 0 99 1 2985 0 47
0 45 1 133 0 50 1 4048
0 59 1 493 0 130 1 3321
1 483 0 44 1 146 0 44
0 63 1 488 0 101 1 7126
0 59 1 258 0 64 1 2559
1 1421 0 60 1 1682 0 43
0 224 1 5724 1 1743 0 73
1 2739 0 93 1 841 0 66
0 50 1 345 0 56 1 2779
0 52 1 341 0 67 1 2877
0 41 1 378 0 52 1 1013
1 2350 0 38 1 846 0 39
1 712 0 74 1 261 0 63
1 2592 0 64 1 288 0 50
1 595 0 43 1 76 0 47
1 711 0 65 1 849 0 46
0 46 1 1113 0 65 1 1686
0 53 1 191 0 46 1 1213
0 43 1 555 0 45 1 1737
0 57 1 513 0 44 1 2231
1 1627 0 64 1 450 0 50
1 2496 0 56 1 111 0 45
0 39 1 386 0 52 1 1868
0 46 1 107 0 44 1 822
0 49 1 251 0 55 1 2036
0 38 1 106 0 49 1 919
0 47 1 664 0 60 1 1022
0 48 1 82 0 70 1 2977
1 2547 0 51 1 157 0 46
1 1336 0 37 1 499 0 40
0 42 1 180 0 52 1 1585
0 37 1 64 0 46 1 4200
0 52 1 1976 0 69 1 1374
0 45 1 198 0 45 1 1142
1 382 0 57 1 306 0 47
1 2045 0 45 1 2948 0 46
0 48 1 306 0 47 1 1327
1 843 0 56 1 105 0 50
0 38 1 316 0 36 1 779
0 43 1 359 0 47 1 7878
1 1949 0 73 1 843 0 63
0 60 1 339 0 61 1 1843
1 1290 0 56 1 130 0 41
1 3440 0 55 1 1090 0 48
0 49 1 277 0 46 1 277
1 857 0 45 1 156 0 41
1 4977 0 101 1 1934 0 58
1 1680 0 67 1 1218 0 51
0 49 1 263 0 80 1 2617
1 1582 0 61 1 408 0 43
1 1179 0 54 1 356 0 48
1 711 0 48 1 359 0 40
1 1528 0 61 1 86 0 48
0 56 1 1944 0 91 1 2905
0 45 1 778 0 70 1 1592
1 1161 0 46 1 367 0 42
1 3708 0 107 1 2787 0 57
0 66 1 499 0 83 1 2046
1 2299 0 54 1 96 0 41
1 2169 0 51 1 724 0 49
0 38 1 472 0 50 1 4358
0 49 1 2118 0 60 1 2698
0 60 1 425 0 63 1 2085
1 1918 0 72 1 171 0 50
1 1853 0 54 1 559 0 45
0 43 1 327 0 51 1 1439
1 1514 0 56 1 338 0 44
1 731 0 51 1 277 0 47
0 94 1 3565 1 2698 0 181
1 2132 0 60 1 186 0 42
1 1397 0 53 1 250 0 43
0 39 1 234 0 59 1 1158
1 2900 0 93 1 223 0 55
1 1369 0 59 1 134 0 50
1 4660 0 93 1 641 0 59
1 1599 0 58 1 738 0 48
0 56 1 492 0 51 1 1799
1 303 0 56 1 127 0 42
0 45 1 1404 0 58 1 666
0 55 1 103 0 69 1 1266
0 71 1 3145 0 312 0 4134
0 46 1 747 0 53 1 2064
0 67 1 1328 0 128 1 4548
0 55 1 1975 0 81 1 2622
0 58 1 376 0 77 1 3717
1 1021 0 42 1 85 0 39
0 51 1 168 0 81 1 3498
0 53 1 953 0 60 1 1255
0 55 1 498 0 87 1 2607
0 46 1 621 0 51 1 1180
0 48 1 1877 0 75 1 2203
0 44 1 266 0 51 1 2004
1 2961 0 108 1 522 0 58
1 1128 0 63 1 310 0 34
0 42 1 745 0 62 1 2746
0 42 1 120 0 49 1 1284
1 2041 0 65 1 447 0 50
1 1507 0 50 1 631 0 41
1 2931 0 50 1 400 0 43
1 1096 0 62 1 2114 0 51
1 4468 0 84 1 1590 0 57
0 45 1 714 0 60 1 2056
0 41 1 152 0 43 1 1836
1 2459 0 63 1 1251 0 54
1 1775 0 41 1 211 0 34
1 2073 0 52 1 168 0 56
0 58 1 1074 0 65 1 2939
0 58 1 508 0 55 1 994
0 38 1 163 0 56 1 1189
0 40 1 74 0 50 1 3655
0 64 1 763 0 106 1 2186
0 56 1 878 0 75 1 3561
1 4087 0 67 1 1457 0 58
0 47 1 435 0 60 1 444
1 777 0 45 1 203 0 35
0 87 1 4213 1 3161 0 132
0 61 1 2419 0 85 1 3104
1 2717 0 69 1 1008 0 64
0 40 1 1338 0 58 1 1438
0 71 1 3158 0 80 1 2676
1 3747 0 86 1 613 0 61
1 1396 0 46 1 481 0 50
1 5650 0 114 1 1669 0 65
1 2284 0 63 1 109 0 57
0 49 1 177 0 75 1 1434
0 42 1 140 0 53 1 2805
1 929 0 52 1 147 0 33
0 58 1 883 0 64 1 3707
0 54 1 407 0 46 1 510
1 1818 0 50 1 47 0 47
1 1957 0 50 1 268 0 37
0 39 1 581 0 56 1 1636
1 2526 0 88 1 952 0 55
0 54 1 499 0 60 1 1817
0 55 1 667 0 60 1 784
0 44 1 1187 0 47 1 1256
1 2123 0 68 1 149 0 51
1 4202 0 56 1 639 0 49
0 67 1 98 0 49 1 3681
0 42 1 367 0 47 1 2057
0 63 1 448 0 70 1 405
0 45 1 1336 0 60 1 5173
0 48 1 415 0 76 1 1117
0 38 1 1899 0 52 1 1665
0 46 1 607 0 52 1 907
0 42 1 181 0 52 1 1370
0 40 1 99 0 63 1 3287
1 707 0 54 1 437 0 42
1 1475 0 74 1 734 0 40
1 2023 0 64 1 1012 0 55
0 45 1 456 0 59 1 2729
1 2748 0 61 1 395 0 48
0 46 1 232 0 60 1 1017
1 2670 0 57 1 532 0 57
0 43 1 178 0 51 1 5558
0 65 1 276 0 92 1 6841
1 1852 0 61 1 4113 0 54
1 3969 0 148 1 1940 0 62
0 46 1 161 0 54 1 1897
1 4099 0 140 1 1812 0 64
1 1550 0 78 1 743 0 59
1 3427 0 52 1 550 0 45
1 1406 0 55 1 391 0 56
0 56 1 1871 0 84 1 2631
0 69 1 152 0 81 1 1374
1 2737 0 58 1 514 0 47
0 52 1 437 0 70 1 1229
1 730 0 44 1 328 0 41
1 2145 0 48 1 532 0 40
0 51 1 209 0 81 1 2471
0 56 1 99 0 55 1 7048
0 46 1 1427 0 48 1 2626
0 51 1 955 0 51 1 1643
1 2836 0 52 1 226 0 39
1 1073 0 43 1 55 0 37
0 46 1 1017 0 55 1 2446
0 70 1 1593 0 83 1 4439
1 1979 0 55 1 356 0 52
1 3611 0 98 1 1369 0 56
0 50 1 677 0 80 1 5470
0 41 1 185 0 48 1 4672
0 47 1 136 0 62 1 2169
0 43 1 329 0 64 1 3247
0 42 1 515 0 53 1 2006
1 1962 0 65 1 830 0 59
0 50 1 302 0 75 1 2669
1 1352 0 68 1 808 0 46
1 2949 0 54 1 1461 0 52
0 49 1 455 0 49 1 1053
1 1452 0 49 1 177 0 59
1 1713 0 76 1 195 0 51
0 65 1 387 0 72 1 2520
1 1163 0 55 1 713 0 37
0 43 1 95 0 46 1 3964
1 5259 0 47 1 411 0 41
1 1696 0 53 1 500 0 37
1 1962 0 47 1 2295 0 44
1 1570 0 38 1 56 0 43
1 2134 0 51 1 266 0 50
1 3271 0 64 1 220 0 45
0 43 1 90 0 60 1 1950
1 1861 0 43 1 984 0 41
1 839 0 49 1 92 0 42
0 42 1 362 0 55 1 1940
0 72 1 1050 0 280 0 4021
0 70 1 794 0 456 1 6243
0 38 1 402 0 48 1 2123
1 2450 0 66 1 282 0 57
0 47 1 215 0 54 1 1856
0 41 1 1355 0 48 1 2152
1 1436 0 52 1 598 0 45
1 4042 0 93 1 1715 0 67
1 1790 0 54 1 154 0 45
0 184 1 5768 1 1477 0 75
1 2071 0 92 1 2430 0 62
0 55 1 470 0 78 1 5020
1 1448 0 49 1 216 0 37
1 2846 0 87 1 135 0 51
1 4672 0 195 1 1082 0 73
0 42 1 1164 0 47 1 1613
0 45 1 1853 0 54 1 2269
1 1562 0 86 1 404 0 54
1 2466 0 45 1 198 0 40
0 53 1 1559 0 68 1 1352
0 42 1 270 0 56 1 2351
1 5672 0 69 1 140 0 39
0 44 1 282 0 54 1 2520
0 97 1 2723 1 3623 0 123
0 46 1 401 0 66 1 1702
0 38 1 194 0 48 1 3732
0 36 1 89 0 38 1 1112
0 42 1 257 0 43 1 1295
1 1457 0 58 1 732 0 43
1 1885 0 58 1 693 0 51
0 50 1 338 0 87 1 3448
0 65 1 356 0 79 1 2763
1 1137 0 58 1 527 0 47
0 35 1 423 0 48 1 699
0 56 1 493 0 78 1 3253
1 955 0 62 1 292 0 60
1 4077 0 60 1 718 0 54
0 43 1 538 0 65 1 1478
0 59 1 324 0 55 1 3249
0 37 1 240 0 53 1 1380
0 56 1 457 0 75 1 4903
1 2256 0 54 1 168 0 49
1 974 0 58 1 834 0 45
1 1020 0 58 1 822 0 46
1 2384 0 61 1 412 0 43
1 596 0 64 1 1786 0 47
0 48 1 1109 0 69 1 2691
0 42 1 315 0 44 1 1691
0 61 1 602 0 76 1 2053
1 1757 0 84 1 104 0 43
0 51 1 919 0 55 1 1051
0 52 1 2339 0 58 1 3519
0 51 1 743 0 59 1 3866
0 139 1 3641 1 4342 0 98
0 45 1 441 0 45 1 1405
0 49 1 256 0 55 1 2807
1 3826 0 71 1 1226 0 47
1 1850 0 51 1 698 0 42
1 7918 0 67 1 437 0 55
1 1821 0 77 1 307 0 54
1 2383 0 70 1 941 0 57
0 42 1 319 0 45 1 4410
1 1941 0 52 1 127 0 43
0 48 1 2754 0 65 1 3189
0 60 1 1357 0 90 1 1655
1 1883 0 47 1 169 0 38
0 34 1 196 0 46 1 822
0 40 1 158 0 46 1 1818
0 44 1 1697 0 54 1 1447
1 791 0 62 1 257 0 41
0 49 1 615 0 75 1 2026
1 533 0 41 1 96 0 41
0 40 1 90 0 51 1 1479
0 52 1 243 0 53 1 936
0 44 1 248 0 54 1 1767
1 4694 0 79 1 438 0 57
1 3171 0 44 1 99 0 38
1 1399 0 49 1 457 0 52
0 44 1 369 0 55 1 2508
0 49 1 348 0 58 1 566
0 43 1 713 0 55 1 1552
1 2977 0 50 1 398 0 40
0 33 1 67 0 41 1 2241
1 2305 0 46 1 103 0 44
0 42 1 1378 0 62 1 1289
0 92 1 2385 1 4325 0 168
0 43 1 616 0 59 1 1643
0 44 1 117 0 67 1 4808
1 345 0 52 1 980 0 46
1 4875 0 76 1 281 0 48
0 49 1 1580 0 48 1 1414
0 60 1 271 0 111 1 2298
0 48 1 66 0 44 1 2328
1 4893 0 70 1 1438 0 52
0 44 1 3274 0 44 1 1851
0 133 1 2913 1 1898 0 96
1 2252 0 67 1 842 0 52
0 43 1 151 0 69 1 2294
1 585 0 37 1 112 0 37
1 7952 0 64 1 1016 0 52
0 43 1 600 0 65 1 2120
0 54 1 566 0 72 1 1525
1 3209 0 68 1 980 0 53
1 6055 0 86 1 315 0 49
1 1286 0 67 1 966 0 61
0 43 1 1143 0 46 1 1768
0 48 1 338 0 45 1 368
0 50 1 208 0 57 1 3379
0 50 1 477 0 58 1 2038
1 2304 0 74 1 189 0 53
0 55 1 515 0 72 1 3199
1 1960 0 55 1 411 0 40
1 2613 0 56 1 336 0 44
0 48 1 723 0 62 1 7003
1 2882 0 61 1 1885 0 48
0 60 1 2568 0 72 1 1645
1 1398 0 55 1 548 0 41
0 40 1 394 0 54 1 2908
1 910 0 47 1 2279 0 42
1 3051 0 75 1 882 0 63
1 1578 0 56 1 413 0 42
0 41 1 210 0 47 1 592
1 4588 0 68 1 564 0 66
1 865 0 51 1 38 0 36
1 6160 0 46 1 224 0 40
0 48 1 221 0 65 1 743
0 47 1 430 0 53 1 2517
1 1226 0 50 1 441 0 43
1 2660 0 68 1 92 0 51
1 195 0 38 1 249 0 35
1 618 0 65 1 71 0 41
1 903 0 46 1 317 0 57
1 1053 0 47 1 61 0 43
1 3230 0 85 1 684 0 68
0 37 1 273 0 43 1 1461
1 1038 0 58 1 852 0 42
0 123 1 3524 1 2582 0 99
0 209 1 9869 1 4550 0 108
1 866 0 49 1 346 0 40
1 1355 0 48 1 283 0 46
0 45 1 99 0 46 1 2306
0 190 1 3654 1 3908 0 95
0 42 1 179 0 67 1 1697
1 927 0 59 1 967 0 70
0 48 1 210 0 82 1 1989
1 1620 0 52 1 237 0 49
1 3011 0 65 1 872 0 45
0 50 1 827 0 66 1 1627
1 6087 0 65 1 350 0 46
0 229 1 6868 1 3482 0 79
1 3821 0 47 1 326 0 41
1 2277 0 44 1 111 0 38
0 41 1 856 0 64 1 1239
0 38 1 311 0 54 1 2010
1 7005 0 71 1 620 0 49
1 2129 0 67 1 1704 0 46
1 2111 0 60 1 144 0 50
1 4137 0 56 1 185 0 40
0 47 1 3730 0 51 1 705
1 2162 0 62 1 364 0 47
1 1960 0 72 1 777 0 55
1 6125 0 77 1 1806 0 55
1 715 0 55 1 128 0 48
0 61 1 895 0 89 1 4937
0 50 1 129 0 69 1 2142
0 52 1 1429 0 67 1 4136
0 42 1 208 0 43 1 3037
0 52 1 886 0 68 1 2679
0 44 1 2004 0 47 1 894
0 48 1 1367 0 62 1 2018
1 722 0 47 1 82 0 38
0 51 1 150 0 56 1 2364
1 933 0 50 1 162 0 53
1 1448 0 52 1 680 0 46
1 1891 0 53 1 112 0 42
0 60 1 814 0 65 1 2315
1 1027 0 45 1 531 0 44
0 44 1 1864 0 58 1 1470
0 43 1 224 0 56 1 1297
0 42 1 96 0 49 1 994
0 43 1 192 0 51 1 919
0 57 1 191 0 92 1 1564
0 48 1 814 0 57 1 2327
0 61 1 364 0 67 1 5275
1 1963 0 56 1 92 0 48
0 63 1 595 0 76 1 2944
0 42 1 900 0 49 1 1347
1 1220 0 51 1 144 0 37
1 4918 0 72 1 1061 0 53
1 2383 0 52 1 167 0 48
0 49 1 275 0 59 1 3282
1 2417 0 59 1 141 0 41
0 42 1 89 0 49 1 4432
1 4003 0 53 1 880 0 49
0 144 1 7852 1 1469 0 89
1 3094 0 56 1 196 0 46
1 1636 0 65 1 391 0 47
0 37 1 692 0 40 1 570
1 7622 0 62 1 467 0 55
0 59 1 569 0 71 1 2666
1 6960 0 122 1 893 0 57
0 39 1 282 0 55 1 2058
1 1580 0 80 1 547 0 52
0 39 1 116 0 62 1 1141
0 37 1 306 0 50 1 1242
1 1649 0 64 1 570 0 55
1 2137 0 52 1 835 0 44
0 47 1 409 0 67 1 747
0 51 1 342 0 52 1 1031
0 39 1 1140 0 63 1 654
1 4247 0 80 1 882 0 56
1 3069 0 85 1 1505 0 52
0 41 1 212 0 56 1 1833
0 40 1 940 0 48 1 466
0 40 1 1929 0 65 1 1660
0 54 1 302 0 63 1 4496
0 48 1 1243 0 61 1 2911
1 3032 0 45 1 87 0 46
0 58 1 944 0 96 1 3294
1 2918 0 100 1 2144 0 62
1 1703 0 46 1 99 0 39
1 6713 0 96 1 531 0 61
1 4682 0 64 1 526 0 49
1 2046 0 70 1 2772 0 53
1 1144 0 53 1 164 0 50
1 3294 0 52 1 261 0 45
0 51 1 461 0 54 1 3430
0 228 1 4309 1 4806 0 87
0 50 1 632 0 56 1 881
0 109 1 8222 1 4139 0 104
0 50 1 416 0 72 1 3967
1 3260 0 93 1 219 0 56
0 70 1 1184 0 96 1 2876
0 50 1 802 0 64 1 2811
1 1536 0 58 1 209 0 44
0 52 1 1459 0 50 1 1828
0 56 1 1123 0 58 1 989
1 1890 0 78 1 169 0 50
0 44 1 2199 0 48 1 1973
1 5617 0 50 1 1182 0 54
1 3195 0 65 1 654 0 48
0 38 1 136 0 62 1 1706
1 903 0 50 1 245 0 39
1 3561 0 90 1 1560 0 56
0 60 1 853 0 73 1 1531
1 739 0 51 1 235 0 51
1 1807 0 63 1 172 0 40
1 2406 0 52 1 4739 0 46
0 41 1 95 0 53 1 805
0 55 1 873 0 85 1 2254
0 42 1 380 0 46 1 1583
1 1167 0 48 1 342 0 51
1 942 0 53 1 403 0 45
0 60 1 1654 0 67 1 3751
1 1235 0 95 1 292 0 50
1 1826 0 64 1 621 0 49
0 45 1 2365 0 50 1 984
0 51 1 724 0 62 1 1111
0 56 1 168 0 61 1 2174
1 1586 0 59 1 221 0 51
1 1888 0 72 1 244 0 56
0 56 1 1306 0 52 1 3086
1 1145 0 47 1 850 0 41
0 55 1 366 0 79 1 4048
1 766 0 50 1 161 0 44
1 1634 0 47 1 73 0 55
1 1641 0 55 1 855 0 46
0 40 1 413 0 48 1 3037
1 2240 0 40 1 126 0 45
1 3579 0 51 1 1090 0 46
0 113 1 3614 1 2834 0 130
0 37 1 107 0 52 1 1485
0 44 1 1076 0 60 1 3321
0 97 1 6489 1 5426 0 119
0 44 1 84 0 55 1 2176
1 3295 0 54 1 233 0 55
1 818 0 45 1 243 0 35
1 3302 0 57 1 110 0 43
1 4324 0 68 1 985 0 54
0 35 1 194 0 44 1 1295
1 4819 0 61 1 237 0 46
1 4670 0 61 1 1848 0 57
1 3015 0 64 1 516 0 44
1 4711 0 64 1 479 0 54
0 52 1 541 0 62 1 971
0 37 1 437 0 47 1 751
0 52 1 1579 0 69 1 6042
0 50 1 402 0 61 1 2575
1 832 0 44 1 68 0 34
0 39 1 1656 0 58 1 2513
0 50 1 217 0 49 1 1884
0 45 1 59 0 50 1 729
0 36 1 134 0 41 1 1557
0 58 1 421 0 61 1 3159
1 1121 0 55 1 206 0 42
0 42 1 941 0 63 1 2050
0 42 1 108 0 57 1 2477
0 47 1 444 0 49 1 939
0 37 1 91 0 44 1 537
0 43 1 171 0 48 1 2837
0 47 1 136 0 54 1 1514
0 79 1 918 0 80 1 3547
0 40 1 1655 0 44 1 890
0 47 1 89 0 44 1 2321
0 49 1 89 0 65 1 1333
0 48 1 276 0 54 1 2239
1 3975 0 93 1 291 0 53
0 88 1 3024 1 13832 0 429
0 56 1 533 0 49 1 1255
1 6140 0 87 1 841 0 58
1 5002 0 61 1 294 0 53
0 36 1 847 0 54 1 1047
1 2091 0 64 1 561 0 47
1 1873 0 70 1 1202 0 51
0 39 1 593 0 44 1 1865
1 1071 0 62 1 344 0 52
0 54 1 718 0 70 1 5280
0 47 1 255 0 49 1 547
0 43 1 559 0 50 1 2541
0 35 1 996 0 49 1 931
1 1124 0 45 1 146 0 41
1 717 0 72 1 100 0 48
0 61 1 198 0 54 1 2143
1 539 0 45 1 48 0 41
0 63 1 276 0 91 1 2744
1 1210 0 53 1 997 0 45
0 70 1 474 0 59 1 2511
0 43 1 578 0 66 1 827
0 49 1 404 0 55 1 2416
0 58 1 392 0 70 1 1810
1 4609 0 43 1 276 0 46
0 56 1 133 0 66 1 2814
0 45 1 199 0 50 1 1657
0 49 1 780 0 56 1 4719
0 38 1 419 0 67 1 814
1 1610 0 55 1 950 0 50
0 60 1 1263 0 118 1 4596
1 2920 0 65 1 119 0 50
0 44 1 126 0 53 1 1185
1 3247 0 71 1 904 0 66
1 728 0 43 1 258 0 34
1 373 0 44 1 157 0 41
0 41 1 167 0 49 1 1542
0 54 1 3555 0 49 1 1268
1 1399 0 59 1 197 0 45
0 41 1 220 0 56 1 1887
1 3323 0 68 1 729 0 52
0 40 1 413 0 51 1 1656
0 53 1 1440 0 62 1 1888
1 1894 0 56 1 82 0 40
0 55 1 828 0 78 1 2081
1 2482 0 50 1 1971 0 50
0 306 1 8410 1 2745 0 82
1 1034 0 72 1 161 0 44
1 2938 0 93 1 630 0 51
0 41 1 323 0 48 1 887
1 3952 0 122 1 2827 0 80
0 56 1 730 0 56 1 1108
0 48 1 553 0 51 1 1382
0 40 1 153 0 49 1 3484
1 3067 0 47 1 158 0 48
1 3784 0 85 1 231 0 62
0 47 1 380 0 45 1 1266
0 43 1 700 0 58 1 3647
0 48 1 96 0 56 1 3178
0 46 1 2326 0 53 1 1387
1 2155 0 57 1 197 0 40
0 47 1 862 0 54 1 6822
1 1344 0 53 1 209 0 51
1 1695 0 61 1 562 0 47
1 1395 0 49 1 330 0 42
1 3656 0 74 1 2456 0 52
1 1108 0 46 1 406 0 39
0 76 1 1432 1 4984 0 224
1 1829 0 38 1 397 0 38
1 1259 0 52 1 147 0 46
1 1974 0 63 1 713 0 54
0 38 1 136 0 44 1 1620
1 1422 0 48 1 255 0 48
1 1344 0 55 1 574 0 41
0 41 1 778 0 61 1 2587
1 3355 0 56 1 1258 0 52
0 33 1 188 0 43 1 3791
0 43 1 269 0 46 1 2072
0 64 1 2337 0 84 1 4339
1 692 0 51 1 112 0 43
1 5846 0 122 1 2425 0 64
0 42 1 248 0 50 1 3060
0 52 1 340 0 74 1 1762
0 38 1 571 0 52 1 2623
1 1979 0 46 1 66 0 38
1 1730 0 52 1 806 0 47
0 46 1 157 0 58 1 2159
0 54 1 447 0 77 1 1616
0 51 1 1174 0 100 1 2551
1 2454 0 58 1 1787 0 49
1 5667 0 60 1 1291 0 56
1 3888 0 87 1 1287 0 59
0 50 1 787 0 56 1 2014
1 4271 0 62 1 1128 0 47
1 1338 0 51 1 187 0 36
1 2061 0 69 1 584 0 53
0 48 1 240 0 55 1 1425
1 1599 0 60 1 579 0 55
1 1358 0 51 1 1006 0 41
1 1062 0 59 1 254 0 44
0 68 1 788 0 127 1 3777
0 51 1 494 0 76 1 1215
1 1120 0 59 1 1105 0 48
0 48 1 66 0 65 1 1980
0 53 1 1255 0 82 1 3611
0 36 1 222 0 42 1 991
0 42 1 247 0 44 1 1830
0 54 1 886 0 62 1 1628
0 56 1 353 0 76 1 3813
0 65 1 994 0 50 1 740
0 39 1 303 0 58 1 3268
1 1466 0 45 1 52 0 43
1 1160 0 44 1 188 0 39
1 1769 0 60 1 678 0 48
1 1935 0 56 1 113 0 50
0 42 1 525 0 54 1 1916
0 47 1 362 0 63 1 1987
0 44 1 491 0 46 1 1011
1 3496 0 54 1 1026 0 45
1 3756 0 64 1 96 0 45
0 157 1 5138 1 1631 0 80
0 49 1 467 0 68 1 1540
1 3919 0 85 1 908 0 59
1 2626 0 68 1 348 0 61
0 48 1 290 0 58 1 2484
1 693 0 48 1 785 0 48
1 5119 0 87 1 825 0 67
0 45 1 66 0 66 1 1633
1 3261 0 67 1 292 0 50
0 40 1 121 0 46 1 1610
0 45 1 46 0 46 1 3435
0 35 1 138 0 54 1 916
0 48 1 172 0 46 1 416
0 50 1 1447 0 53 1 2555
1 3911 0 58 1 131 0 54
1 2475 0 58 1 179 0 48
1 3824 0 67 1 1706 0 46
1 3331 0 48 1 175 0 48
0 57 1 353 0 66 1 830
1 2126 0 58 1 1096 0 44
0 38 1 82 0 51 1 943
1 1454 0 52 1 273 0 37
1 2542 0 66 1 1600 0 41
1 4224 0 64 1 315 0 49
1 548 0 55 1 229 0 52
1 1043 0 56 1 3419 0 51
0 68 1 426 0 85 1 1938
1 1179 0 50 1 667 0 41
0 43 1 83 0 50 1 522
1 5271 0 119 1 402 0 61
0 58 1 927 0 95 1 2951
1 2869 0 60 1 415 0 58
1 1130 0 57 1 553 0 61
