Parameters: seed=627118393, s1=0.001000, s2=0.001000, s3=0.001000, s4=0.001000, e12=-0.200000, e13=0.000000, e14=0.000000, e23=0.000000, e24=0.000000, e34=-0.200000, r12=0.200000, r23=0.200000, r34=0.200000, h12=1, h13=1, h14=1, h23=1, h24=1, h34=1 , n_gen=10000000, n_ind=10000 initial freq: 0.000000 0.000000 0.000000 0.000000 0.000000 0.500000 0.000000 0.000000 0.000000 0.000000 0.500000 0.000000 0.000000 0.000000 0.000000 0.000000
0 92 1 5234 1 5686 0 111
0 135 0 1042 1 14227 0 113
0 114 1 7932 0 375 0 388
0 129 1 5780 1 6495 0 75
0 88 1 5047 0 464 0 422
0 85 1 2713 1 4466 0 124
0 157 1 4643 1 5385 0 98
0 155 1 6196 1 4571 0 132
0 93 1 3657 1 2515 0 135
0 198 1 4434 0 1238 0 427
0 127 1 3861 1 4805 0 115
0 153 1 5035 1 4800 0 84
0 99 0 1981 1 7412 0 345
0 158 0 3177 1 4208 0 118
0 183 1 4025 1 4377 0 116
0 155 1 5095 0 2100 0 127
0 209 1 5212 1 5528 0 165
1 10417 0 492 1 7163 0 77
0 98 1 9901 1 4999 0 133
0 79 1 2785 1 4174 0 137
0 64 1 4235 0 84 1 3678
0 63 1 6276 0 218 1 7267
0 244 0 1682 1 4782 0 96
0 163 0 1295 1 2983 0 86
0 65 1 4036 1 5156 0 103
0 74 1 6315 1 7327 0 192
0 95 1 3244 0 1322 0 248
0 691 0 511 1 8917 0 72
0 102 1 3608 1 7129 0 159
0 70 1 5459 1 5906 0 118
0 108 1 3982 1 10105 0 135
0 252 0 1350 1 3001 0 110
0 145 0 2085 1 8195 0 107
0 166 1 5398 1 7520 0 103
0 208 0 580 1 5972 0 103
0 110 1 3083 1 2413 0 114
0 139 1 4042 1 3640 0 90
0 106 1 5802 1 4463 0 88
0 178 1 6192 1 6190 0 120
0 120 1 6065 1 6443 0 93
0 111 1 4055 1 3142 0 94
0 102 1 7271 1 5258 0 248
0 75 1 6156 1 7862 0 102
0 131 1 3582 1 6832 0 138
0 92 1 7569 1 2588 0 67
0 270 1 4103 1 3803 0 70
0 150 1 6900 1 8454 0 110
0 179 1 4145 1 9047 0 132
0 133 1 5030 1 6749 0 108
0 171 1 6321 1 5986 0 208
0 76 1 8765 1 4903 0 74
0 74 1 8480 1 6735 0 85
0 106 1 4108 1 3478 0 94
0 97 1 4893 1 3900 0 137
0 78 1 5043 0 735 0 155
0 191 0 1566 1 8890 0 112
0 107 1 5006 1 6258 0 87
0 163 1 8189 1 5477 0 117
0 78 1 8428 1 7261 0 117
0 64 1 6812 1 4450 0 137
0 76 1 4100 1 3437 0 116
0 106 1 5269 1 4847 0 121
0 254 1 4960 1 5839 0 72
0 78 1 3498 1 5111 0 122
0 138 1 6017 1 9074 0 75
0 86 1 6936 1 5022 0 110
0 90 1 2343 1 6550 0 107
0 65 1 5089 0 362 1 4841
0 132 1 4989 1 6972 0 152
0 160 0 2215 1 8597 0 67
0 149 1 5992 1 4233 0 119
0 93 1 5500 1 5309 0 143
0 102 1 4549 1 5959 0 84
1 6046 0 154 1 5043 0 131
0 164 0 3331 1 4443 0 110
0 126 1 6799 1 7764 0 103
0 140 1 5474 0 598 0 201
0 194 1 6010 1 3890 0 58
0 110 1 6224 1 5508 0 100
0 65 1 3024 1 4811 0 148
0 192 1 4854 1 2461 0 82
0 136 1 6411 1 6619 0 127
0 114 1 9867 1 6491 0 79
0 164 1 5258 0 166 1 4938
0 94 1 6052 0 786 0 155
0 149 1 1858 0 1746 0 109
0 92 1 7892 1 4925 0 112
0 76 1 4632 0 3263 0 275
0 70 1 3913 0 345 1 6253
0 121 1 5652 1 4198 0 230
0 85 1 3193 1 2492 0 72
0 611 0 458 1 3674 0 90
1 4726 0 150 1 4824 0 70
0 94 0 1308 1 4087 0 77
0 206 1 4094 1 7486 0 100
0 153 1 7213 1 4478 0 112
0 151 1 6635 1 5891 0 235
0 5551 0 289 1 8813 0 87
0 70 1 5956 1 9180 0 186
0 126 1 5649 1 6110 0 86
0 75 1 5116 1 6792 0 115
0 190 0 496 1 1956 0 98
0 91 1 5064 1 5004 0 116
0 96 1 7945 1 4896 0 210
0 132 1 4841 1 5992 0 157
0 92 1 7010 1 7482 0 140
0 97 1 3555 1 7780 0 136
0 81 1 4287 1 7736 0 151
0 114 1 4596 1 4233 0 99
0 119 1 6725 1 7007 0 137
0 79 1 7652 0 1396 0 142
0 87 1 9357 1 2924 0 119
0 110 1 5005 1 7970 0 114
0 127 1 8516 1 6140 0 95
0 75 1 2737 1 5159 0 134
0 82 1 5518 1 7516 0 135
0 149 1 5876 1 3575 0 78
0 110 1 4209 1 6697 0 188
0 143 1 5388 1 4371 0 142
0 107 1 8174 1 2830 0 78
0 168 1 3593 1 4865 0 119
0 216 0 1149 1 5372 0 86
0 111 1 5610 1 6019 0 92
0 143 1 6184 1 3001 0 88
0 464 0 286 1 5827 0 126
0 88 1 4750 0 426 0 473
0 77 1 6688 1 3004 0 89
0 6847 0 345 1 5074 0 58
0 141 1 4509 0 197 1 6065
0 144 1 3631 1 4559 0 112
0 224 1 4696 1 6370 0 114
0 79 1 7086 1 4290 0 113
0 97 1 4552 1 5308 0 118
0 86 1 5757 1 3140 0 82
0 150 1 4152 1 4548 0 126
0 93 0 655 1 5438 0 94
0 98 1 6265 0 1491 0 361
0 110 1 5103 1 5501 0 186
0 140 1 2380 1 3274 0 94
0 545 0 858 1 3227 0 73
0 108 1 3230 1 9419 0 299
0 116 1 4989 1 4693 0 166
0 128 1 5556 0 404 0 234
0 204 1 6402 1 6213 0 173
0 97 1 8547 1 5218 0 86
0 86 1 2709 1 4000 0 79
0 222 1 5762 1 4613 0 92
0 102 1 4730 1 4717 0 147
0 79 0 7346 0 1011 0 247
0 139 1 6585 1 4843 0 180
0 67 1 6296 1 5387 0 314
0 95 1 3630 1 4022 0 93
0 70 1 8692 1 4287 0 106
0 155 1 3428 1 7364 0 164
0 115 1 4197 1 4010 0 112
0 103 1 8215 1 4135 0 133
0 81 1 2765 1 5541 0 87
0 137 1 7988 1 6698 0 106
0 120 1 4458 1 4157 0 81
0 1025 0 1518 1 5943 0 117
0 119 1 7211 1 5505 0 196
0 176 0 532 1 6891 0 86
0 114 1 5298 1 6984 0 95
0 123 1 4923 1 3341 0 109
0 120 1 7242 1 5250 0 79
0 156 1 4361 1 8352 0 169
0 149 1 3752 1 3324 0 113
0 113 1 4843 1 10619 0 163
0 77 1 1942 1 6672 0 301
0 172 1 3007 1 7430 0 64
0 80 1 3927 1 6362 0 277
0 95 1 4313 1 5713 0 83
0 152 1 5016 1 3522 0 85
0 96 1 7066 1 3553 0 110
0 243 1 6129 1 7178 0 106
0 143 1 7446 1 5101 0 96
0 111 1 4128 1 4869 0 196
0 115 1 4354 1 3131 0 92
0 198 1 3605 1 8694 0 122
0 87 1 3603 0 1513 0 225
1 6776 0 431 1 6470 0 98
0 99 1 3697 1 8346 0 106
0 120 1 3314 1 6693 0 154
0 205 1 5939 1 3107 0 73
0 307 0 341 1 3784 0 68
0 117 1 5717 1 4867 0 97
1 4982 0 403 1 5827 0 72
0 75 1 6181 1 9599 0 167
0 235 1 10526 1 3595 0 93
0 263 1 7637 1 3432 0 105
0 188 1 7442 1 5066 0 134
0 75 1 3427 1 7074 0 141
0 74 1 5058 0 680 0 283
0 245 1 5897 1 4810 0 129
0 61 1 5851 0 677 0 212
1 8219 0 347 1 5973 0 151
0 84 1 3298 1 3731 0 172
1 6651 0 205 1 5492 0 71
0 80 1 4220 1 9156 0 202
0 161 1 6152 1 9516 0 129
0 196 1 4137 1 6111 0 138
0 124 1 7807 1 2919 0 122
0 140 1 3930 1 4589 0 76
0 267 1 6440 1 4070 0 76
0 450 0 224 1 5685 0 75
0 175 1 5088 1 4335 0 126
0 478 0 219 1 8034 0 82
0 149 1 9618 0 1340 0 116
0 60 1 5436 1 4193 0 167
0 52 1 4261 0 120 1 5935
0 98 1 6010 1 5676 0 106
0 103 1 4258 0 139 1 4928
0 127 1 5157 1 8330 0 150
0 171 1 7215 1 8230 0 169
0 97 1 3923 1 6337 0 117
0 77 1 4688 0 446 0 327
0 68 1 4290 0 164 1 4232
0 107 1 3940 1 4800 0 102
0 83 1 3939 1 4345 0 255
0 148 1 7858 1 5617 0 125
0 87 1 3575 1 7241 0 118
0 261 0 457 1 3718 0 78
0 74 1 4116 1 5207 0 128
0 175 1 6482 1 7283 0 191
0 208 1 6815 1 5982 0 94
0 139 1 6825 1 3666 0 66
0 117 1 3958 1 2737 0 85
0 451 0 496 1 6870 0 153
0 143 1 6712 1 7996 0 74
0 638 0 538 1 3917 0 101
0 54 1 3320 1 5676 0 180
0 130 0 1716 1 4002 0 186
0 165 0 648 1 3466 0 54
0 104 1 4012 1 5018 0 126
0 79 1 4540 1 7438 0 131
0 94 1 2978 1 8047 0 107
0 106 1 3294 1 3277 0 94
0 92 1 4291 1 4045 0 128
0 177 1 6217 1 9942 0 106
0 69 1 4604 1 6617 0 224
0 227 1 5500 0 1493 0 91
0 155 1 6652 1 2389 0 109
0 171 0 1361 1 5419 0 115
0 158 1 7041 1 3248 0 79
0 175 1 5720 1 2654 0 80
0 98 1 6555 1 7665 0 126
0 85 1 4390 1 3940 0 156
0 104 1 4024 1 6064 0 89
0 186 1 3462 1 3641 0 95
0 82 1 5190 1 9672 0 126
0 181 1 4711 1 4799 0 189
0 287 1 13054 1 3133 0 115
0 66 1 10219 1 4737 0 153
0 124 1 5165 1 5581 0 84
0 68 1 3931 1 6365 0 288
0 89 1 2731 1 3789 0 105
0 87 1 2960 1 5403 0 190
0 77 1 4606 1 5576 0 147
0 78 1 3548 1 7316 0 116
0 161 1 3449 1 5631 0 89
0 82 1 3323 1 6904 0 147
0 229 1 6512 1 4438 0 143
1 9871 0 343 1 3605 0 60
0 114 1 4573 0 1114 0 166
0 111 0 483 1 5897 0 110
0 257 1 11272 1 6557 0 69
0 105 1 4215 0 736 0 883
0 122 1 3710 1 5207 0 179
0 128 1 2786 1 3856 0 118
1 5209 0 363 1 3186 0 91
0 63 1 3879 0 238 0 701
0 75 1 6940 1 6563 0 157
0 160 1 4429 1 11746 0 232
0 104 1 5471 1 4037 0 68
0 162 0 996 1 7042 0 85
0 181 1 5077 1 8581 0 108
0 94 1 5117 1 3263 0 112
0 126 0 1177 1 4294 0 113
0 297 0 537 1 4912 0 117
0 110 1 4215 1 6445 0 288
0 80 1 6383 1 5101 0 147
0 130 1 14279 1 2995 0 99
0 109 1 4416 1 7426 0 228
0 129 1 4486 1 9771 0 57
0 92 1 7007 1 3517 0 190
0 120 1 5230 1 3252 0 86
0 87 1 3716 0 616 0 411
0 90 1 5491 1 5259 0 128
0 80 1 8829 1 13662 0 176
0 132 1 10212 1 3013 0 78
0 82 1 3461 1 8052 0 138
0 556 0 896 1 3578 0 71
0 177 1 4220 1 3186 0 82
0 147 1 5097 0 509 0 435
0 151 1 3521 1 5958 0 105
0 338 1 4944 1 4630 0 77
0 93 1 3986 1 5311 0 101
0 97 1 4533 1 4907 0 186
0 165 1 5538 0 520 0 599
0 70 1 4851 1 6228 0 139
0 93 1 2913 1 6126 0 136
0 89 1 5140 1 3656 0 203
0 190 1 6895 1 3338 0 86
0 124 1 6782 1 7639 0 108
0 98 1 4254 1 4577 0 84
0 135 1 8316 0 424 0 789
0 126 0 1064 1 3803 0 83
0 74 1 4052 1 6149 0 219
0 90 1 6819 1 4267 0 99
0 138 1 3755 1 4615 0 154
0 147 0 1671 1 6479 0 74
0 213 1 3723 1 2849 0 97
0 340 0 1545 1 3797 0 166
0 299 1 6971 1 7917 0 100
0 124 1 4489 1 5579 0 140
0 115 1 7168 1 7151 0 127
0 101 1 4120 1 5189 0 164
0 117 1 6057 1 3807 0 146
0 62 1 8212 1 5128 0 101
0 75 1 3140 1 3337 0 116
0 98 1 4446 0 1026 0 125
0 186 1 5436 1 4502 0 96
0 94 1 6305 1 6012 0 144
0 144 1 3964 1 4038 0 97
0 82 1 3769 1 5289 0 111
0 176 1 5993 1 4074 0 106
0 135 1 4295 1 6266 0 104
0 117 1 7611 0 2513 0 123
0 106 1 3640 1 6378 0 76
0 110 1 3457 1 7012 0 125
0 111 1 4993 1 5951 0 118
0 79 1 3740 1 4517 0 132
0 241 1 9623 1 4597 0 87
0 186 1 7376 1 10568 0 131
0 123 1 4678 1 6336 0 108
0 103 1 2912 1 5864 0 244
0 115 1 3362 1 8308 0 77
0 184 1 3204 1 7899 0 80
0 87 1 2842 1 7237 0 182
0 81 1 7924 1 4703 0 74
0 100 1 3175 0 1543 0 126
0 273 1 9170 1 5325 0 78
0 155 1 4857 1 5289 0 82
0 84 1 3776 1 8230 0 137
0 216 1 7659 1 3248 0 105
0 134 1 3035 1 7438 0 121
0 76 1 4843 1 5085 0 139
0 82 1 8149 1 8886 0 126
0 163 1 3836 1 4453 0 125
0 128 1 4970 1 7163 0 80
0 148 1 3779 1 4369 0 78
0 116 1 4949 0 334 0 831
0 83 1 4801 1 4138 0 132
0 93 1 6323 1 3696 0 109
0 115 1 5130 1 3168 0 96
0 121 1 3068 0 222 0 894
0 124 1 4987 1 5407 0 154
0 101 1 3206 1 3520 0 80
0 152 1 7203 1 9871 0 123
0 385 1 5994 1 6445 0 89
0 109 1 7922 1 4035 0 148
0 153 1 6872 0 630 0 1493
0 90 1 6252 1 3706 0 105
0 164 1 7027 0 1592 0 158
0 97 1 6241 1 5798 0 150
0 149 1 5759 1 8240 0 122
0 94 1 5582 1 10188 0 509
0 98 1 5441 1 7933 0 136
0 200 1 6025 1 3404 0 106
0 218 0 2294 1 6948 0 73
0 77 1 6633 1 7308 0 254
0 101 1 3882 1 6449 0 120
0 77 1 3084 1 6462 0 283
0 89 1 7644 1 7508 0 150
0 171 1 5891 1 8908 0 73
0 234 0 1199 1 3608 0 95
0 115 1 4242 1 6945 0 164
0 98 1 4726 0 1018 0 206
0 74 1 4151 1 9262 0 112
0 203 0 2369 1 3688 0 79
0 89 1 6244 1 7345 0 87
0 75 1 3594 0 265 0 375
0 111 1 9147 1 5745 0 142
0 121 1 4221 1 3679 0 106
0 91 1 6428 1 5138 0 242
1 9642 0 218 1 2670 0 85
0 133 1 3745 1 3759 0 66
0 154 1 6286 1 7802 0 80
0 176 1 5333 1 4933 0 130
0 104 1 3933 0 1723 0 152
0 179 1 5635 1 6387 0 75
0 87 1 6815 1 5971 0 103
0 1457 0 281 1 5496 0 137
0 116 1 5801 1 3370 0 141
0 235 1 6558 1 10238 0 192
0 93 1 4634 1 8090 0 135
0 137 1 7606 1 8755 0 208
1 6730 0 149 1 8300 0 85
0 185 1 3276 1 7025 0 167
0 132 1 5188 1 5016 0 115
0 114 1 8821 0 1169 0 338
0 127 1 3501 1 12482 0 71
0 115 1 4450 1 5577 0 111
0 144 1 4568 1 6334 0 146
0 263 1 3486 1 3660 0 61
0 96 1 5339 1 6640 0 105
0 106 1 4444 1 7508 0 185
0 115 1 6798 1 7159 0 125
0 87 1 5867 1 7902 0 191
0 317 0 5530 1 4954 0 108
0 96 1 4069 1 4066 0 101
0 186 1 3707 1 4636 0 196
0 121 1 8284 1 5627 0 134
0 81 1 5239 1 5895 0 352
0 81 1 3828 1 6929 0 106
0 73 1 2344 1 7369 0 75
0 109 1 4338 1 8380 0 120
0 129 1 5864 1 6111 0 63
0 79 1 8517 1 6516 0 350
0 104 1 2320 0 300 0 899
0 280 1 3734 1 4592 0 121
0 114 1 3372 1 11239 0 117
0 90 1 4255 1 6810 0 121
0 178 1 4487 1 4632 0 136
0 91 1 3884 1 4908 0 100
0 160 1 4883 1 2404 0 116
0 96 1 6713 1 6689 0 210
0 97 1 4378 1 5396 0 186
0 81 1 3512 1 3876 0 114
0 368 1 12022 1 6180 0 111
0 107 1 4462 1 7774 0 106
0 95 1 6697 1 4729 0 94
0 179 1 6307 1 5882 0 92
0 267 1 5909 0 1144 0 221
0 169 1 6479 1 9373 0 206
0 104 1 6356 1 8660 0 119
0 103 1 3342 1 8223 0 107
0 92 1 3636 1 7805 0 104
0 197 0 4797 1 3194 0 201
0 64 1 7955 1 5103 0 68
0 126 1 4369 1 5294 0 166
0 184 0 1498 1 4902 0 87
0 255 0 1048 1 5610 0 112
0 78 1 4095 1 4562 0 95
0 142 1 4736 1 6467 0 114
0 209 1 5716 1 3328 0 72
0 752 0 309 1 3023 0 63
0 163 1 8453 1 7137 0 104
0 87 1 6027 1 6034 0 118
0 84 1 4072 1 5263 0 272
0 110 1 4031 1 7871 0 138
0 155 1 5969 1 5187 0 130
0 112 1 6358 1 4300 0 210
0 85 1 3021 1 7512 0 163
0 120 1 8085 1 7673 0 89
0 263 1 5422 1 3409 0 105
0 124 1 4664 1 8711 0 112
0 66 1 2734 1 9967 0 153
0 166 0 734 1 3803 0 81
0 68 1 8825 1 5223 0 110
0 151 1 7107 1 5110 0 216
0 104 1 5878 1 3564 0 70
0 87 1 2864 1 4438 0 287
0 68 1 2982 0 471 1 5563
0 84 1 4856 1 3912 0 89
0 127 1 8173 1 6058 0 127
0 129 1 7263 1 6819 0 112
0 178 1 5294 1 5167 0 99
0 111 1 3259 1 8944 0 95
0 146 0 1069 1 3938 0 109
0 66 1 3634 1 4435 0 89
0 141 1 5213 1 7170 0 130
0 137 1 6489 1 7718 0 119
0 112 1 7267 1 6261 0 172
0 167 0 2009 1 9663 0 79
0 82 1 3499 0 1364 0 281
0 137 1 6083 1 7926 0 170
0 118 0 2557 1 5987 0 248
0 94 1 7450 1 4854 0 327
0 112 1 5351 1 3152 0 79
0 72 1 4813 1 6180 0 96
0 154 1 6793 1 6100 0 78
0 75 1 4649 1 4235 0 102
0 114 1 6780 1 7680 0 135
0 124 1 3677 1 9947 0 155
0 565 1 7374 1 6911 0 91
0 152 1 7037 1 5031 0 123
0 86 1 5270 1 6531 0 82
0 100 1 4218 1 4483 0 92
0 174 1 5795 1 6959 0 120
0 235 1 4564 1 7194 0 73
0 334 0 600 1 4807 0 72
0 142 1 10934 1 4713 0 122
1 8131 0 160 1 6087 0 90
0 186 1 4656 1 4558 0 147
0 129 1 8191 1 6338 0 74
0 115 1 4409 1 6889 0 123
0 80 1 2769 1 3623 0 166
0 101 1 7865 1 7742 0 195
0 54 1 2759 0 3514 0 144
0 244 1 5571 1 4261 0 101
0 175 1 4531 1 4409 0 87
0 71 1 3395 0 320 0 1788
0 88 1 7772 1 7490 0 111
0 138 0 989 1 4425 0 105
0 106 1 3712 0 3908 0 90
0 112 1 3858 1 6779 0 136
0 77 1 7303 1 4401 0 119
0 99 0 1246 1 5011 0 151
0 195 0 811 1 4779 0 124
0 584 0 276 1 4971 0 86
0 82 1 4202 0 1459 0 275
0 97 1 4039 1 8560 0 120
0 141 1 7176 0 1474 0 364
0 123 1 6164 1 3041 0 90
0 170 1 5431 1 4256 0 118
0 107 1 4326 0 2124 0 240
0 128 1 2845 1 3530 0 68
0 117 1 6389 1 3582 0 117
0 257 1 6269 1 5128 0 78
0 73 1 2750 1 4432 0 89
0 118 1 6333 1 4788 0 117
0 118 1 4268 0 1201 0 280
0 87 1 5052 0 428 0 358
0 104 1 4468 1 3968 0 127
0 65 1 4202 1 6148 0 140
0 147 1 4181 1 5438 0 113
0 185 1 15445 1 3407 0 88
0 624 0 254 1 3932 0 70
0 112 1 6204 1 13183 0 81
0 111 1 4516 1 3041 0 113
0 195 1 7199 1 7037 0 129
0 83 1 3891 1 4098 0 157
0 139 0 3727 0 794 0 210
0 76 1 5032 1 4831 0 110
0 110 1 4886 1 2531 0 60
0 110 1 2413 1 5156 0 180
0 84 1 5629 1 5967 0 214
0 94 1 5526 1 3462 0 94
0 106 1 6939 1 5371 0 173
0 135 0 1778 1 3911 0 150
1 6556 0 228 1 5095 0 100
0 135 1 3526 1 5711 0 107
0 271 1 7027 1 6744 0 97
0 250 1 5747 1 3474 0 98
0 137 1 7694 1 2841 0 144
0 81 1 4586 1 4808 0 182
0 91 1 6715 1 3430 0 74
0 141 1 3766 1 6987 0 121
0 181 1 4287 1 4112 0 91
0 89 1 3511 1 3816 0 108
0 156 1 3826 1 8334 0 78
0 135 1 5051 1 5788 0 141
0 106 1 5882 0 4644 0 117
0 156 0 2625 1 6820 0 111
0 79 1 6878 1 8706 0 175
0 138 1 3720 1 3799 0 104
0 342 1 4411 1 5012 0 83
0 109 1 6017 1 3457 0 100
0 188 1 3906 1 4483 0 164
0 383 0 528 1 4316 0 80
0 100 1 6584 0 884 0 191
0 93 1 2999 1 3743 0 122
0 206 1 8174 1 5737 0 133
0 106 1 7390 1 6186 0 152
0 121 1 5632 1 4361 0 89
0 98 1 2820 1 6012 0 115
0 115 1 9073 1 4270 0 92
0 104 1 4332 1 4055 0 135
0 111 1 3471 1 6488 0 156
0 189 0 1176 1 3327 0 95
0 68 1 2777 1 6033 0 141
0 90 0 2699 1 4682 0 120
0 107 1 4693 1 9126 0 69
0 65 0 3066 1 5853 0 158
0 105 1 7209 1 6878 0 126
0 154 1 5156 1 8080 0 104
0 83 1 4298 1 4090 0 113
0 283 0 826 1 3280 0 68
0 140 1 8318 1 3839 0 131
0 205 1 11204 1 7823 0 97
0 199 1 8128 1 4253 0 82
0 88 1 6224 1 5981 0 156
0 92 1 5688 1 5519 0 313
0 135 1 4563 1 4732 0 104
0 179 0 1911 0 647 0 137
0 273 1 6335 1 3835 0 88
0 254 1 5897 1 4019 0 77
0 55 1 2752 1 4548 0 127
0 109 1 5284 0 1343 0 121
0 101 1 3251 1 5372 0 82
0 58 1 6235 1 5290 0 244
0 77 1 5228 1 8042 0 221
0 165 0 1035 1 4548 0 117
0 118 1 6201 0 3934 0 84
0 147 1 4697 1 4615 0 109
0 107 1 4316 1 11263 0 94
0 90 1 4101 1 4247 0 101
0 85 1 4191 0 714 0 258
0 165 0 1098 1 6041 0 153
0 136 1 3849 1 6368 0 282
0 165 0 799 1 7675 0 88
0 113 1 7782 1 6007 0 140
0 84 1 2936 1 3468 0 104
0 94 1 5226 1 5551 0 135
0 96 1 6778 1 5929 0 73
0 100 1 3138 1 5857 0 164
0 145 1 5354 1 4121 0 94
0 111 1 5443 1 3704 0 75
0 71 1 4044 1 8266 0 446
0 121 1 3371 1 4660 0 107
0 91 1 7260 1 5478 0 106
0 96 1 4963 1 4335 0 113
0 147 1 4241 1 6823 0 273
0 201 1 9029 1 6543 0 83
0 212 1 8089 1 5543 0 85
0 130 1 4724 1 6935 0 159
0 155 0 569 1 5092 0 93
0 154 1 6276 1 3531 0 100
0 78 1 5466 1 6861 0 134
0 130 1 8281 1 5163 0 129
0 95 1 3787 1 6645 0 122
0 211 1 4552 1 4758 0 121
0 126 1 4399 1 4893 0 164
0 120 1 4705 1 4321 0 66
0 211 1 6645 1 3612 0 81
0 117 1 4689 1 4796 0 121
0 182 1 3868 1 8818 0 145
0 69 1 3907 1 5822 0 122
0 106 1 5649 1 5190 0 103
0 190 0 2693 1 9390 0 99
0 118 1 2692 1 7222 0 120
0 97 1 5606 1 4200 0 121
0 99 1 5621 1 7193 0 127
0 76 1 4621 1 4434 0 125
0 143 1 3149 1 2545 0 106
0 139 1 4240 0 341 0 367
0 64 1 4073 1 3855 0 182
0 178 0 1030 1 2996 0 136
0 154 1 6624 1 10699 0 136
0 90 1 4441 1 5321 0 168
0 85 1 3035 1 3549 0 141
0 111 1 5475 1 5339 0 89
0 66 1 4233 1 3856 0 91
0 128 1 6354 1 4525 0 139
0 617 0 1083 1 4512 0 103
0 162 0 1007 1 3721 0 69
0 230 1 6850 1 5415 0 121
0 157 1 5719 1 6280 0 120
0 129 1 4370 1 4329 0 91
0 54 1 4009 0 162 1 5547
0 161 1 4688 1 4001 0 73
0 134 1 5944 1 6291 0 79
0 247 0 754 1 4237 0 92
0 79 1 4226 1 4808 0 191
0 148 1 4495 1 5952 0 58
0 75 1 4715 0 291 1 4986
0 115 1 7344 1 3769 0 109
0 86 1 4145 1 5683 0 152
0 271 1 3761 1 5144 0 94
0 138 1 7532 1 9278 0 121
0 113 1 6338 1 7376 0 217
0 1062 0 360 1 9115 0 104
0 105 1 4448 1 4538 0 102
0 157 1 4738 1 2462 0 87
0 70 1 4270 1 5398 0 90
0 98 1 5409 1 3554 0 169
0 367 1 5705 1 6227 0 71
0 74 1 5617 0 188 1 6203
0 84 1 3563 1 4878 0 131
0 124 1 10019 1 3639 0 75
0 119 1 5501 1 7288 0 74
0 65 1 4433 0 189 1 4409
0 142 1 6261 1 9121 0 62
0 132 1 5339 1 3519 0 102
0 76 1 2961 1 7962 0 169
0 67 1 1962 1 7391 0 351
0 132 1 7282 1 9831 0 76
0 70 1 5898 1 8365 0 261
0 342 1 5683 1 3155 0 109
0 112 1 7059 1 7159 0 96
0 183 1 3265 1 4673 0 106
0 93 1 6551 1 4857 0 196
0 68 1 4755 1 4163 0 155
0 191 1 5248 1 6390 0 204
0 92 1 2534 0 252 1 5087
0 142 1 3657 0 4039 0 148
0 113 1 4842 0 165 1 6075
0 83 1 5432 1 5517 0 121
0 93 1 6863 1 3888 0 120
0 188 0 720 1 3882 0 77
0 157 1 9538 1 4033 0 120
0 136 1 7112 1 6355 0 345
0 116 1 2872 1 6858 0 98
0 70 1 4202 1 5510 0 88
0 81 1 6729 1 4693 0 150
0 109 1 3772 1 4168 0 113
0 80 1 10111 0 662 0 444
0 87 1 6078 1 4766 0 136
0 135 1 4063 1 5343 0 74
0 110 1 4644 1 6546 0 161
0 97 1 4485 1 6467 0 374
0 114 1 7309 1 4860 0 240
0 2012 0 510 1 4900 0 95
0 88 1 4325 1 4470 0 165
0 130 1 4543 1 2604 0 116
0 92 1 4059 1 10029 0 101
0 105 1 4128 1 3989 0 108
0 165 1 4351 1 3237 0 144
0 173 1 4656 0 2473 0 89
0 92 1 4821 1 4401 0 107
0 106 1 5862 1 4511 0 97
0 86 1 4922 1 6209 0 363
0 115 1 4564 1 3084 0 70
0 97 1 10077 1 6929 0 84
0 123 0 1140 0 1060 0 124
0 113 1 4580 1 6303 0 107
0 355 0 335 1 5397 0 93
0 84 1 6732 1 7653 0 114
0 326 1 5041 1 7137 0 81
0 144 1 6282 1 7873 0 170
1 6027 0 266 1 3930 0 69
0 82 1 11756 1 6997 0 148
0 69 1 6753 1 9096 0 264
0 246 1 4550 1 5416 0 100
0 99 1 8036 1 2600 0 124
0 176 0 691 1 5037 0 117
0 80 1 3232 1 2725 0 102
0 78 1 6171 1 4246 0 104
0 73 1 3514 1 9290 0 172
0 165 1 6044 1 4139 0 79
0 151 1 4435 1 3331 0 145
0 87 1 2729 1 5117 0 177
0 209 1 6091 1 3402 0 118
0 135 1 4262 1 8751 0 79
0 106 1 3868 1 8177 0 138
0 96 1 8941 1 7587 0 143
0 106 1 6080 0 598 0 456
0 71 1 3082 1 3583 0 112
0 131 1 4378 1 7457 0 102
0 80 1 5105 1 5867 0 204
0 72 1 4792 1 4323 0 91
0 109 1 8703 1 4836 0 133
0 80 1 5177 0 221 0 858
0 254 0 829 1 7655 0 141
1 8916 0 538 1 4965 0 128
0 81 1 3879 1 2788 0 134
0 125 1 6494 1 6699 0 165
0 164 1 7614 1 4788 0 86
0 224 1 5061 1 5787 0 95
0 79 1 4426 1 2983 0 106
0 170 1 5134 1 3871 0 71
0 109 1 3078 1 5199 0 119
0 128 1 4836 1 6259 0 85
0 675 0 263 1 7443 0 73
0 131 0 1125 1 2346 0 72
0 68 1 4868 1 6176 0 101
0 275 1 6080 1 4171 0 133
0 92 1 6090 1 3872 0 109
0 74 1 4539 1 4619 0 145
0 164 1 5387 1 9074 0 162
0 94 1 10247 1 8404 0 130
0 105 1 5257 1 4861 0 75
0 145 1 5001 1 8742 0 263
0 141 1 5709 1 2778 0 90
0 108 1 8441 1 7490 0 178
0 143 1 10225 1 5739 0 134
0 108 1 3878 1 4192 0 257
0 112 1 4458 1 7377 0 121
0 134 1 7816 1 3857 0 121
0 122 1 6560 1 5886 0 85
1 11140 0 231 1 6302 0 72
0 191 1 5929 1 2466 0 95
0 283 0 721 1 7062 0 82
0 97 1 3504 1 4404 0 236
0 106 1 8393 1 5845 0 154
0 105 1 4403 1 8257 0 112
0 77 1 3013 1 5048 0 143
1 2369 0 148 1 4062 0 83
0 114 1 5564 1 3739 0 143
0 159 1 5258 1 4222 0 139
1 8358 0 250 1 6279 0 112
0 203 1 6035 1 4784 0 91
0 98 1 3485 1 3146 0 211
0 90 1 6054 1 5012 0 108
0 127 1 3103 1 4628 0 111
0 99 1 3465 0 313 1 7790
0 93 1 4142 1 2861 0 104
0 143 1 4914 1 6078 0 100
0 135 1 2552 1 9119 0 114
0 289 1 5837 1 3986 0 76
0 172 1 5051 1 5877 0 73
0 126 1 6369 1 7122 0 141
0 89 1 3254 1 3304 0 112
0 58 1 4854 1 6594 0 711
0 138 1 5987 1 4923 0 86
0 111 1 4929 1 3991 0 106
0 83 1 4043 0 1437 0 512
0 107 1 5034 1 6780 0 77
0 82 1 7262 1 8565 0 147
0 113 1 10014 1 5505 0 214
0 78 1 3415 1 3963 0 101
0 95 1 5386 1 3564 0 103
0 105 1 7009 1 9538 0 84
0 107 1 3757 1 10673 0 127
0 72 1 7493 1 4540 0 214
0 207 0 2266 1 3349 0 125
0 136 1 5109 1 8722 0 329
0 65 1 7340 1 6556 0 168
0 254 1 3774 1 4894 0 81
0 131 1 6216 1 4650 0 133
0 74 1 3094 1 3714 0 70
0 219 1 9005 1 5094 0 139
0 212 1 5014 1 3876 0 90
0 75 1 5083 1 5886 0 107
0 324 1 4851 1 8238 0 107
0 155 1 5910 1 5723 0 110
0 109 1 4214 1 4646 0 104
0 108 1 4405 0 1934 0 425
0 129 1 3291 1 7744 0 87
0 160 0 3535 1 2841 0 123
0 82 1 4736 1 6708 0 102
0 85 1 6668 1 4668 0 96
0 86 1 3210 1 7665 0 169
0 88 1 3523 1 6895 0 188
0 142 1 5088 1 2970 0 65
0 259 1 5757 1 3810 0 131
0 110 1 6922 0 1860 0 131
0 88 1 6692 1 4716 0 154
0 89 1 7287 1 4164 0 162
0 799 0 302 1 5475 0 63
0 245 1 10630 1 10107 0 85
0 118 1 2867 1 7076 0 149
0 119 1 6796 1 2903 0 87
0 143 1 6564 1 4702 0 148
0 104 1 4695 1 8368 0 263
0 116 1 3233 1 7922 0 109
0 121 1 5119 1 7508 0 114
0 64 1 3800 0 446 1 6382
0 82 1 4891 1 6252 0 283
0 64 1 5090 0 128 1 3895
0 89 1 5279 1 11382 0 203
0 186 1 4308 1 6143 0 187
0 75 1 4738 1 5105 0 128
0 107 1 2711 1 5827 0 234
1 5876 0 103 1 3580 0 68
0 95 1 3061 1 3925 0 147
0 101 1 5807 1 3664 0 130
0 106 1 4938 1 5345 0 134
0 198 1 6153 1 2506 0 84
0 211 0 759 1 6124 0 85
0 83 1 2810 1 3814 0 112
0 127 1 3549 1 4506 0 101
0 316 1 6948 1 4113 0 82
0 117 1 3521 1 6415 0 196
0 140 1 7778 1 3779 0 95
0 173 0 4263 1 5789 0 111
0 196 1 6245 1 4313 0 117
0 108 1 5804 1 6110 0 87
0 62 1 4526 0 258 1 9915
0 298 0 1213 1 2739 0 85
0 176 1 7322 1 4219 0 135
0 100 1 6899 1 4269 0 168
0 153 1 3156 1 5518 0 105
0 630 0 986 1 2867 0 77
0 145 0 1865 1 6567 0 111
0 165 1 5728 1 7095 0 92
0 103 1 3574 1 4571 0 101
0 65 1 8191 0 712 0 402
0 121 1 4506 0 3209 0 122
0 98 1 3265 1 5333 0 104
0 81 1 4909 1 5648 0 291
1 11899 0 619 1 5695 0 93
0 58 1 2659 1 3662 0 96
0 116 1 7817 1 4218 0 91
0 125 1 7177 1 1998 0 68
0 107 1 4236 0 418 0 1013
0 80 1 5417 1 2287 0 82
0 104 1 8509 1 5309 0 83
0 71 1 7428 1 4933 0 158
0 117 1 4040 1 12388 0 263
0 104 1 3920 1 4808 0 108
0 77 1 2402 1 9597 0 269
0 251 0 1475 1 3208 0 125
0 106 1 5984 1 4047 0 68
0 82 1 7321 1 7013 0 197
0 93 1 9726 1 4710 0 162
0 83 1 2914 1 4847 0 142
0 123 1 4465 0 367 0 342
0 253 1 5219 0 1960 0 299
0 165 0 1375 1 4712 0 93
0 76 1 4931 1 6788 0 116
0 116 1 9256 1 4812 0 84
0 98 1 4737 1 6119 0 373
0 135 1 3623 1 5952 0 281
0 78 1 2049 1 3920 0 137
0 63 1 4413 1 6746 0 194
0 108 1 5028 1 4275 0 102
0 427 0 915 1 6648 0 105
0 132 1 4591 1 4747 0 60
0 214 1 5990 1 3429 0 105
0 80 1 4227 0 295 0 2947
0 100 1 3316 1 1887 0 109
0 100 1 5617 1 4973 0 131
0 81 1 4938 1 4874 0 255
0 97 1 2940 1 6550 0 162
0 89 1 4256 1 3614 0 117
0 92 1 8645 1 2976 0 126
0 250 1 5487 1 5209 0 113
0 120 1 9959 1 2542 0 93
0 154 0 767 1 5046 0 110
0 146 1 3578 1 5816 0 140
0 107 1 4120 1 12804 0 190
0 110 1 6675 1 3256 0 92
0 103 1 4727 0 195 1 5185
0 170 1 4673 1 3554 0 61
0 318 0 374 1 4958 0 70
0 91 1 5962 1 8932 0 497
0 156 1 6227 1 5426 0 91
0 510 0 1220 1 7577 0 120
0 109 1 4449 1 6091 0 158
0 288 1 7145 0 1655 0 67
0 87 1 4645 1 7828 0 160
0 58 1 6994 1 5257 0 102
0 117 1 2722 1 3698 0 135
0 103 1 4265 0 1165 0 182
0 138 1 8175 1 6630 0 114
0 135 1 15135 1 4446 0 99
0 85 0 3066 1 3347 0 170
0 217 0 2878 1 3444 0 164
0 111 1 4995 0 1123 0 116
0 86 1 5163 1 5182 0 119
0 102 1 3580 1 4966 0 158
0 111 1 4992 1 3912 0 105
0 80 1 4830 0 224 1 5317
0 147 1 4020 1 8704 0 79
0 184 1 7836 1 4830 0 81
0 103 1 6245 1 5461 0 94
0 111 1 7349 1 3597 0 113
0 209 1 4488 1 4519 0 88
0 68 1 2916 1 7923 0 375
0 117 1 5948 1 5319 0 96
0 124 1 6882 1 5149 0 157
0 1174 0 486 1 6355 0 131
0 108 1 7219 1 7013 0 105
0 77 1 6395 1 6369 0 79
0 75 1 3871 1 6332 0 130
0 96 1 9592 1 5565 0 203
0 144 1 6118 1 4004 0 95
0 80 1 3064 1 6167 0 467
0 144 1 5938 1 7858 0 119
0 107 1 4906 1 3536 0 67
0 144 1 6116 1 2398 0 90
0 84 1 6403 1 3693 0 96
0 190 0 2511 1 2838 0 83
0 101 1 4144 1 6861 0 73
0 85 1 2956 1 6735 0 185
0 121 1 8455 1 3841 0 123
0 101 1 5884 1 7873 0 89
0 162 1 5534 1 9143 0 103
0 124 1 7778 1 5178 0 108
0 407 1 5241 1 3505 0 95
0 140 1 4976 1 2917 0 98
0 166 1 7159 1 7895 0 101
0 126 1 7914 1 5617 0 159
0 63 1 4365 1 4652 0 102
0 96 1 9837 1 11444 0 94
0 165 0 602 1 2545 0 73
0 77 1 3410 1 3999 0 171
0 98 1 6001 1 4163 0 106
0 71 1 3734 0 315 0 683
0 135 1 5451 1 3620 0 98
0 90 1 3529 1 5083 0 131
0 138 1 3389 1 4294 0 95
0 199 1 6135 1 5072 0 119
0 213 1 6536 1 3282 0 84
0 261 0 1569 1 5455 0 81
0 102 1 4455 1 3046 0 80
0 147 1 7456 1 8266 0 92
0 110 1 3656 1 5100 0 256
0 86 1 5321 1 2792 0 101
0 163 1 4893 1 4858 0 134
0 151 1 5181 1 6980 0 86
0 167 1 6503 1 7451 0 137
0 96 1 7356 1 3311 0 78
0 94 1 3388 1 8516 0 144
0 110 1 3038 1 4725 0 233
0 176 1 7739 1 8049 0 103
0 76 1 5909 1 3608 0 108
0 83 1 2121 1 3027 0 118
0 132 1 5933 1 6367 0 79
0 96 1 3424 0 2427 0 365
0 104 1 5217 1 5361 0 187
0 694 0 161 1 2361 0 71
0 76 1 2913 0 1947 0 229
0 94 1 7127 1 4959 0 100
0 125 1 4832 1 5073 0 361
0 125 1 4733 1 1917 0 71
0 184 1 5669 1 5046 0 162
0 61 1 5975 0 173 1 5546
