Parameters: seed=647185951, s1=0.001000, s2=0.001000, s3=0.001000, s4=0.001000, e12=-0.200000, e13=0.000000, e14=0.000000, e23=0.000000, e24=0.000000, e34=-0.200000, r12=0.060000, r23=0.060000, r34=0.060000, h12=1, h13=1, h14=1, h23=1, h24=1, h34=1 , n_gen=10000000, n_ind=10000 initial freq: 0.000000 0.000000 0.000000 0.000000 0.000000 0.500000 0.000000 0.000000 0.000000 0.000000 0.500000 0.000000 0.000000 0.000000 0.000000 0.000000
0 93 1 3558 1 5316 0 109
0 150 1 5480 1 3195 0 56
0 171 1 5082 1 5737 0 73
0 72 1 3637 1 1913 0 93
0 133 1 3495 1 4081 0 65
0 1291 0 241 1 2771 0 62
1 6157 0 166 1 2545 0 56
1 3019 0 102 1 2981 0 40
0 1142 0 344 1 2710 0 65
1 7523 0 148 1 3235 0 58
1 7131 0 119 1 2951 0 60
0 116 1 6514 1 7367 0 111
0 65 1 5002 0 176 1 7369
0 133 1 7187 1 2946 0 74
0 82 1 5579 1 2158 0 68
0 154 1 5473 1 4147 0 85
0 71 1 2573 1 6617 0 169
0 76 1 2804 1 2345 0 84
0 138 1 5493 1 4296 0 74
0 565 0 802 1 3721 0 94
0 81 1 3449 1 3703 0 88
0 97 1 4856 1 3400 0 74
0 265 1 4133 1 3534 0 64
0 170 1 3729 1 6679 0 78
1 5130 0 287 1 2759 0 59
0 86 1 5232 1 5013 0 127
0 101 1 2782 1 4801 0 74
0 111 1 5875 1 3464 0 68
0 77 1 5064 1 4004 0 178
0 216 1 5242 1 2044 0 71
0 69 1 3436 1 6648 0 109
0 64 1 3449 0 253 1 4413
0 64 1 2252 1 3130 0 146
0 78 1 3916 1 3695 0 101
1 4585 0 103 1 2356 0 43
0 265 1 6944 1 3952 0 70
0 78 1 3978 1 2988 0 75
0 84 1 3862 1 2515 0 80
0 139 1 4608 1 5305 0 85
0 66 1 5270 1 7082 0 250
0 145 1 5732 1 2458 0 78
0 73 1 4657 1 5689 0 182
0 60 1 3772 0 1081 0 572
0 119 1 7587 1 4181 0 73
0 273 1 7326 1 2978 0 63
0 84 1 4616 1 2904 0 149
0 54 1 4904 0 1811 0 273
0 175 1 4993 1 4957 0 76
1 5522 0 154 1 1868 0 50
1 5612 0 126 1 2243 0 63
0 105 1 3094 1 3883 0 100
0 75 1 4185 1 5192 0 127
0 140 1 4848 1 2826 0 72
0 62 1 2856 1 4942 0 104
1 6987 0 181 1 2966 0 50
0 87 1 6308 1 4494 0 90
0 121 1 4286 1 2216 0 62
0 73 1 2447 1 4202 0 88
0 57 1 2227 1 3069 0 108
0 54 1 2192 0 152 1 5300
0 105 1 3260 1 2306 0 77
0 67 1 2172 0 316 0 1905
0 79 1 4401 1 6041 0 105
0 99 1 3304 1 4193 0 69
1 7223 0 76 1 1869 0 46
0 93 1 4450 1 5015 0 145
1 3470 0 205 1 2759 0 48
0 72 1 8350 1 4198 0 125
0 61 1 3646 1 10088 0 242
1 7408 0 183 1 5868 0 57
0 75 1 2298 1 6869 0 240
1 6797 0 409 1 3985 0 70
0 126 1 5705 1 5493 0 71
0 111 1 2497 1 3413 0 125
0 54 1 5496 1 2788 0 208
0 139 1 7332 1 3935 0 64
0 98 1 6018 1 2793 0 118
0 61 1 2248 0 456 0 2167
0 60 1 2232 0 814 0 354
0 360 1 4639 1 2079 0 77
0 60 1 4321 0 413 1 6864
0 90 1 3366 1 4350 0 80
0 88 1 7417 1 3593 0 119
0 59 1 3577 0 368 0 886
0 59 1 1437 0 139 1 8995
0 118 1 5330 1 2923 0 81
0 256 0 1240 1 2857 0 67
0 76 1 2410 1 8225 0 107
0 46 1 2191 0 102 1 2928
0 102 1 3487 1 4603 0 72
0 60 1 4505 1 6148 0 233
0 233 1 3067 1 2877 0 63
0 602 0 2265 1 4673 0 58
0 110 1 4561 1 2731 0 72
0 154 1 4953 1 6060 0 66
0 71 1 2177 1 4342 0 108
0 62 1 1443 1 5872 0 379
0 60 1 2813 0 195 1 4967
0 76 1 3944 1 5374 0 117
0 59 1 5067 0 185 1 8284
1 5979 0 116 1 4894 0 46
0 161 1 5855 1 4753 0 77
0 86 1 4878 1 8275 0 123
0 82 1 2621 1 3332 0 162
1 8043 0 175 1 4333 0 52
0 77 1 3850 1 3945 0 138
0 162 1 6739 1 5576 0 74
1 6571 0 212 1 1670 0 59
0 98 1 4481 1 3897 0 81
0 258 1 5686 1 2188 0 70
0 1067 0 1446 1 3744 0 66
0 74 1 4332 1 2913 0 90
0 45 1 1634 0 83 1 4955
0 342 1 6260 1 3268 0 66
0 4223 0 164 1 6841 0 52
0 91 1 6064 1 3243 0 94
0 85 1 6140 1 5644 0 118
1 4055 0 224 1 2003 0 75
0 113 1 3020 1 4094 0 83
0 108 1 5654 1 2309 0 75
0 89 1 7125 1 5418 0 84
0 179 1 4931 1 4599 0 86
0 127 1 5683 1 2735 0 59
0 81 1 3722 1 3910 0 87
0 61 1 4093 1 5277 0 130
0 70 1 4806 1 4417 0 227
0 194 1 6818 1 1870 0 89
1 4335 0 117 1 2569 0 61
0 1045 0 448 1 4261 0 52
0 140 1 5752 1 5325 0 65
0 249 1 4134 1 3784 0 67
0 83 1 5148 1 5029 0 98
0 67 1 2804 1 6805 0 243
0 93 1 4508 1 4023 0 94
1 11140 0 218 1 2170 0 64
0 174 1 6301 1 2250 0 58
0 63 1 2385 1 4065 0 185
0 61 1 2212 0 589 0 311
0 67 1 3248 1 4257 0 116
0 79 1 4378 1 3110 0 112
0 187 0 1220 1 2647 0 68
0 86 1 3229 1 4903 0 125
0 54 1 4285 0 149 1 5488
0 151 1 9297 1 6082 0 65
0 173 1 3977 1 10246 0 149
1 5478 0 98 1 2841 0 55
0 65 1 2130 0 378 1 4613
0 112 1 5772 1 4265 0 75
0 84 1 2196 1 6740 0 86
0 92 1 2611 1 2980 0 76
0 72 1 2886 0 1068 0 644
0 72 1 3930 1 4371 0 150
0 67 1 4344 0 400 1 4477
0 145 1 8213 1 4401 0 66
0 62 1 1703 0 232 1 5999
0 87 1 5915 1 9108 0 64
0 72 1 5131 1 4259 0 111
0 151 1 4299 1 2296 0 79
0 88 1 4644 1 9039 0 76
0 83 1 2459 1 8154 0 84
0 93 1 3184 1 3742 0 77
0 52 1 3244 0 180 0 897
0 770 1 6923 1 3596 0 60
0 123 1 8322 1 5550 0 86
0 473 0 608 1 2690 0 50
0 112 1 5323 1 5074 0 63
1 3184 0 159 1 2008 0 50
0 271 0 1359 1 3129 0 63
0 92 1 2936 1 3250 0 88
0 60 1 3834 1 5158 0 172
0 78 1 4386 1 6921 0 140
0 222 1 5983 1 2211 0 72
1 7854 0 114 1 1723 0 57
0 65 1 1757 0 188 1 5591
0 90 1 6673 1 6678 0 104
0 104 1 2830 1 3470 0 77
0 96 1 4674 1 4592 0 104
0 78 1 5179 1 5963 0 200
0 67 1 4599 0 289 1 5613
0 85 1 3616 1 4916 0 91
0 74 1 3561 1 6569 0 246
1 4343 0 136 1 2258 0 71
0 81 1 3618 1 7189 0 204
0 96 1 2478 1 4892 0 104
0 69 1 2543 1 4189 0 156
0 201 0 1431 1 3456 0 61
1 12146 0 204 1 2952 0 65
0 235 1 5123 1 5358 0 60
0 77 1 2673 1 4290 0 109
0 78 1 3558 1 3609 0 76
0 60 1 3870 1 1946 0 94
0 82 1 4265 1 4297 0 159
0 100 1 3761 1 3775 0 68
0 201 1 4444 1 1932 0 81
0 217 1 4389 1 2875 0 75
0 71 1 5162 1 3865 0 91
0 62 1 5321 1 2747 0 98
1 10793 0 344 1 2720 0 73
1 8192 0 100 1 3575 0 51
0 56 1 2164 0 141 1 7447
0 253 1 6067 1 5731 0 67
0 86 1 7953 1 2153 0 86
0 89 1 3916 1 3988 0 67
0 125 1 3310 1 5684 0 75
0 89 1 4784 1 2942 0 83
0 70 1 3103 1 2860 0 132
0 120 1 3077 1 2108 0 69
0 2787 0 227 1 2927 0 63
0 216 1 10031 1 3071 0 69
0 52 1 3554 0 128 1 4861
0 91 1 4350 1 6698 0 96
0 108 1 2964 1 4834 0 68
0 66 1 2321 1 6641 0 171
0 141 1 4837 1 3740 0 78
0 195 1 4462 1 4402 0 79
0 153 1 3777 1 4315 0 105
1 11012 0 115 1 2624 0 63
0 66 1 5871 1 5829 0 161
0 62 1 2305 1 3643 0 118
0 62 1 5855 0 390 0 586
0 108 1 5254 1 2983 0 99
0 857 0 706 1 1281 0 79
1 5991 0 200 1 3511 0 54
0 67 1 5063 1 5135 0 188
0 65 1 2819 1 5333 0 631
0 88 1 4421 0 160 1 4330
0 55 1 1124 0 117 1 5810
0 107 1 5574 1 2632 0 77
0 93 1 3130 1 3547 0 179
0 64 1 2542 0 141 1 5343
0 80 1 3768 1 7328 0 138
0 67 1 2262 1 4379 0 107
0 100 1 3778 1 2413 0 79
0 98 1 3515 1 3248 0 112
0 75 1 1590 0 243 1 5154
0 74 1 3158 0 146 1 5850
0 75 1 3175 1 3958 0 126
0 87 1 4508 1 5606 0 87
0 64 1 1960 0 193 1 4490
0 75 1 5974 1 4357 0 122
0 50 1 3906 0 108 1 3457
1 2717 0 118 1 4445 0 72
0 127 1 4882 1 4075 0 79
0 205 1 4239 1 3793 0 66
0 58 1 3334 0 142 1 6170
0 81 1 1842 1 3362 0 90
0 65 1 2538 1 5049 0 103
0 58 1 3120 1 6512 0 153
0 74 1 1882 1 2301 0 93
1 4678 0 96 1 2837 0 43
0 148 1 2250 1 3608 0 129
1 3678 0 122 1 1782 0 47
0 61 1 2109 0 257 1 5590
0 251 0 838 1 4329 0 57
1 4649 0 249 1 2592 0 68
0 242 1 6544 1 4841 0 77
0 99 1 2963 1 3213 0 134
0 82 1 4240 1 3070 0 98
0 90 1 3412 1 4206 0 98
0 97 1 5175 1 4767 0 120
0 63 1 7574 1 4771 0 400
0 146 1 2369 1 8028 0 81
0 84 1 2827 1 3018 0 90
0 53 1 1199 0 455 0 346
0 181 1 6991 1 3286 0 62
0 459 1 5074 1 2363 0 57
0 84 1 3705 1 10176 0 132
0 70 1 4340 1 3258 0 120
0 74 1 1731 0 126 1 5802
0 51 1 2108 0 212 1 4311
0 66 1 3551 1 7548 0 137
0 67 1 4741 1 4963 0 87
0 80 1 1849 1 9398 0 112
0 70 1 5127 1 2388 0 113
1 5936 0 169 1 5712 0 78
0 77 1 8155 1 2707 0 114
1 5023 0 170 1 2520 0 73
0 52 1 2503 0 147 1 4026
0 78 1 3686 0 789 0 812
0 164 1 7049 1 3895 0 64
0 113 1 4470 1 2485 0 86
0 139 1 5447 1 5797 0 70
0 117 1 3601 1 5656 0 110
0 55 1 1738 0 2311 0 261
0 59 1 1853 1 5185 0 128
0 68 1 5572 1 3699 0 214
0 143 1 4906 1 7462 0 67
0 87 1 2465 1 3916 0 161
0 66 1 5969 1 5282 0 188
0 99 1 2572 1 3239 0 59
0 96 1 3040 1 7296 0 100
0 98 1 4775 1 3023 0 122
0 73 1 2051 1 6273 0 135
1 5787 0 488 1 1374 0 65
0 59 1 3758 1 7102 0 189
0 128 1 7872 1 4473 0 57
0 107 1 4011 1 5542 0 71
0 70 1 4367 1 5312 0 165
0 69 1 4297 1 7557 0 178
0 97 1 4966 1 12092 0 72
0 199 1 6968 1 3941 0 58
0 60 1 2179 1 9353 0 114
0 56 1 4414 1 6407 0 377
0 65 1 5221 1 3228 0 133
0 69 1 3579 0 253 0 2198
1 5503 0 153 1 3365 0 48
0 187 1 7988 1 2732 0 68
0 156 1 9445 1 4510 0 86
1 5555 0 200 1 5812 0 61
0 71 1 3556 1 5826 0 238
0 79 1 6073 1 2328 0 115
0 87 1 3641 1 2057 0 101
0 87 1 3189 1 3491 0 111
0 77 1 4021 1 5602 0 76
1 4051 0 104 1 4312 0 60
0 88 1 3581 1 3218 0 83
1 5540 0 194 1 2765 0 59
0 60 1 2785 1 4966 0 103
0 137 1 5321 1 4457 0 59
0 165 1 5826 1 8741 0 83
0 62 1 2077 1 4564 0 140
0 73 1 5514 1 6831 0 194
1 4819 0 147 1 2697 0 61
0 64 1 2609 1 4848 0 117
0 69 1 1949 1 4995 0 175
0 4513 0 390 1 2268 0 77
0 167 1 5930 1 2357 0 66
0 165 1 8231 1 3762 0 71
0 556 0 308 1 3705 0 58
0 60 1 3643 1 7099 0 478
0 72 1 1897 1 5400 0 97
1 2798 0 113 1 7411 0 48
0 127 1 4331 1 3711 0 68
0 60 1 1854 0 135 1 7492
0 67 1 4331 1 5993 0 344
0 87 1 4947 1 4305 0 72
0 113 1 6749 1 4880 0 96
0 86 1 3287 1 6902 0 74
0 64 1 2726 0 102 1 3582
0 247 0 1886 1 4950 0 54
0 210 1 12758 1 2487 0 63
0 162 1 6432 1 1812 0 60
1 8148 0 194 1 1331 0 75
0 101 1 4089 1 2212 0 82
0 44 1 1109 0 1108 0 296
0 370 1 5891 1 4650 0 82
0 53 1 3358 0 102 1 3939
0 82 1 3985 1 5700 0 118
0 212 1 9409 1 2463 0 60
0 83 1 7792 1 5715 0 149
0 59 1 5434 1 10329 0 316
1 4847 0 246 1 2735 0 74
0 80 1 3487 1 3916 0 85
1 3040 0 81 1 2893 0 55
0 55 1 3353 0 123 1 3930
0 63 1 3555 1 4040 0 96
1 3711 0 88 1 1277 0 45
0 80 1 3605 1 4568 0 92
0 81 1 1929 1 8781 0 102
1 6668 0 162 1 4801 0 52
0 102 1 5496 1 5463 0 69
0 63 1 2515 1 3885 0 117
0 57 1 2151 1 4811 0 136
0 81 1 4147 1 6832 0 159
0 61 1 2822 0 248 1 6971
0 465 1 5482 1 3296 0 57
0 55 1 3310 0 119 0 1612
0 60 1 2710 0 250 1 4006
0 79 1 2493 1 4833 0 153
0 247 1 5384 1 2564 0 72
0 415 0 618 1 5289 0 60
0 56 1 4094 0 144 1 4308
0 78 1 2856 1 6538 0 133
0 54 1 2059 1 5827 0 139
1 6500 0 344 1 3569 0 61
0 81 1 2500 1 7431 0 182
0 163 1 6256 1 4034 0 60
0 69 1 5416 1 6479 0 400
1 3745 0 199 1 4826 0 58
0 128 1 3393 1 3199 0 65
0 162 1 7052 1 3397 0 76
0 69 1 4696 1 5718 0 142
0 76 1 5199 1 4073 0 103
0 70 1 3610 1 3072 0 136
0 73 1 1884 1 3963 0 246
0 101 1 3017 1 6408 0 70
0 65 1 3557 1 4799 0 108
0 161 1 3719 1 3333 0 62
0 136 1 4069 1 2171 0 77
0 119 1 5673 1 4934 0 113
0 131 1 3240 1 7474 0 80
0 70 1 5189 1 11183 0 108
0 57 1 3357 1 7752 0 241
0 71 1 4443 1 8190 0 147
0 87 1 4111 1 3874 0 83
0 120 1 3437 1 3953 0 74
0 128 1 4181 1 4240 0 69
0 52 1 2477 0 139 1 2969
1 3175 0 259 1 1592 0 82
0 120 1 4346 1 2371 0 83
0 388 0 1087 1 6199 0 67
0 61 1 1479 0 136 1 4000
0 70 1 3405 1 3317 0 153
0 80 1 2502 1 3685 0 121
0 112 1 9771 1 3586 0 87
0 65 1 2964 0 127 1 4492
0 99 1 5798 1 6452 0 75
0 54 1 4516 1 5896 0 162
0 53 1 4367 1 5826 0 571
0 107 1 5733 1 4771 0 83
0 90 1 3772 1 3107 0 85
0 69 1 4161 1 8993 0 90
0 86 1 4410 1 5525 0 116
0 76 1 6583 1 8463 0 112
0 105 1 4374 1 2042 0 71
0 66 1 1797 0 126 1 5285
0 48 1 2313 0 170 1 6937
0 64 1 2354 1 6019 0 258
0 120 1 6255 1 6327 0 71
0 101 1 5806 1 4438 0 88
0 51 1 2296 0 236 1 2671
0 68 1 1844 0 416 0 2061
0 77 1 5691 1 3761 0 67
0 149 1 3428 1 4072 0 69
1 4239 0 207 1 1815 0 62
0 216 1 6585 1 3091 0 69
0 102 1 2557 1 5367 0 115
0 108 1 2680 1 2427 0 69
0 92 1 4258 1 4439 0 84
0 93 1 2694 1 3123 0 82
0 135 1 5248 1 4970 0 84
0 77 1 4973 1 2203 0 131
0 95 1 3883 1 4153 0 63
1 4616 0 110 1 2669 0 64
0 73 1 2032 1 3420 0 172
0 104 1 5787 1 4112 0 80
0 86 1 3818 1 5738 0 143
0 185 1 5052 1 4758 0 47
0 48 1 1316 0 104 1 2857
0 59 1 2528 0 225 1 5210
0 89 1 5548 1 2404 0 74
0 121 1 7082 1 3379 0 80
0 69 1 2635 1 7012 0 243
0 69 1 3739 1 5856 0 89
0 87 1 5014 1 2023 0 74
0 110 1 4707 1 3773 0 79
0 104 1 3772 1 3466 0 64
0 90 1 2605 1 4104 0 73
0 329 1 7170 1 1579 0 66
0 90 1 5302 1 2991 0 84
0 100 1 4290 1 3961 0 82
0 113 1 4572 1 4480 0 95
0 75 1 3308 1 2526 0 77
0 68 1 2119 1 3727 0 125
1 6284 0 183 1 3210 0 62
0 131 1 5208 1 6577 0 60
0 101 1 6244 1 3340 0 68
0 84 1 4708 1 4984 0 101
0 48 1 2415 0 120 1 4777
1 5070 0 123 1 4311 0 63
1 7014 0 247 1 2681 0 56
0 65 1 3459 1 7525 0 135
0 134 1 4275 1 3429 0 82
0 59 1 5372 1 7062 0 230
0 121 1 6424 1 2096 0 69
0 89 1 5024 1 5638 0 110
1 2982 0 143 1 1611 0 70
0 129 1 8244 1 3952 0 54
0 107 1 4668 1 3657 0 67
0 1964 0 250 1 1727 0 58
1 4289 0 138 1 5572 0 57
0 69 1 2649 1 8455 0 125
0 66 1 5165 1 5270 0 100
0 77 1 2080 1 8929 0 223
0 205 1 4828 1 4588 0 85
0 54 1 3577 1 5114 0 110
0 92 1 1818 1 4490 0 162
0 75 1 6059 0 388 0 755
0 84 1 3795 1 3781 0 99
0 77 1 4430 1 3854 0 118
0 92 1 4022 1 2099 0 61
0 77 1 4680 1 5184 0 101
0 100 1 3383 1 4860 0 74
0 90 1 3982 1 1903 0 84
1 6232 0 299 1 2566 0 57
0 71 1 4197 1 4438 0 169
1 4565 0 174 1 3157 0 68
0 50 1 2309 0 82 1 4336
0 102 1 3388 1 7983 0 63
0 114 1 3622 1 3587 0 64
0 60 1 5368 0 149 1 7195
0 55 1 2181 1 5232 0 227
0 235 1 6679 1 5069 0 54
0 81 1 3521 1 3628 0 101
0 67 1 3861 1 6176 0 125
0 55 1 3822 0 93 1 10974
0 397 0 1411 1 2246 0 53
0 96 1 2355 1 3396 0 99
0 108 1 3351 1 4301 0 83
0 57 1 2233 1 11853 0 296
0 68 1 5104 1 2858 0 97
0 94 1 2573 1 3966 0 119
0 201 1 7534 1 2610 0 79
0 485 0 354 1 3098 0 63
0 121 1 3985 1 2269 0 96
1 5068 0 95 1 1628 0 49
0 73 1 2952 0 799 0 197
0 91 1 4597 1 14024 0 165
0 73 1 2593 1 3842 0 97
0 90 1 2992 1 3989 0 87
0 62 1 3208 0 231 1 4875
0 306 1 6254 1 3671 0 61
0 47 1 1873 0 96 1 6658
0 636 0 540 1 2380 0 62
0 111 1 3233 1 10281 0 61
0 151 1 6701 1 3704 0 76
0 107 1 5788 1 3942 0 68
0 103 1 7039 1 3145 0 70
0 119 1 5882 1 2471 0 87
0 50 1 2221 0 115 1 6434
0 89 1 4311 1 4381 0 83
0 61 1 2580 1 2789 0 217
0 82 1 7969 1 8266 0 308
0 75 1 4642 1 4011 0 153
1 5386 0 128 1 3937 0 75
0 55 1 1852 0 188 1 7141
0 70 1 4972 1 3600 0 106
0 73 1 1853 1 8077 0 123
1 9077 0 153 1 3461 0 64
0 210 1 6261 1 3993 0 56
1 7027 0 163 1 2125 0 52
0 51 1 3842 0 116 1 6651
0 68 1 1813 1 4447 0 104
0 96 1 1561 1 5886 0 174
0 94 1 4504 1 4097 0 148
0 126 1 3038 1 3697 0 62
0 213 1 3493 1 2477 0 59
0 75 1 1597 0 125 1 7213
0 58 1 3780 0 1182 0 272
0 54 1 3170 0 111 1 4020
0 130 1 3637 1 2613 0 74
0 68 1 3989 1 8926 0 111
0 79 1 2281 1 3382 0 78
0 64 1 2825 1 4043 0 114
1 3749 0 149 1 3026 0 60
0 82 1 4039 1 7373 0 86
0 108 1 5833 1 2880 0 80
0 74 1 6730 1 6818 0 82
0 229 1 7446 1 2180 0 80
0 163 1 2221 1 3392 0 58
0 69 1 2199 1 4510 0 170
0 117 1 3890 1 4622 0 68
0 84 1 4596 1 1803 0 116
0 176 1 4139 1 2566 0 82
0 153 1 4528 1 3841 0 118
0 74 1 9299 1 6414 0 171
0 63 1 2139 1 6051 0 149
0 60 1 2416 1 4165 0 469
0 81 1 3222 1 8105 0 128
0 85 1 4736 1 9673 0 111
0 165 1 2953 1 2516 0 70
0 82 1 5500 1 4999 0 100
0 102 1 4020 1 3891 0 90
0 94 1 4051 1 3998 0 165
0 66 1 2979 1 4706 0 135
0 98 1 3465 1 4705 0 93
0 90 1 3034 1 2495 0 82
0 91 1 3902 1 2733 0 106
0 78 1 3406 0 285 0 1727
0 166 1 4337 1 3627 0 60
0 44 1 3306 0 156 1 3351
0 88 1 4867 1 4070 0 89
0 74 1 5852 1 5011 0 97
0 70 1 4102 0 2081 0 316
0 73 1 4472 1 6825 0 97
1 6742 0 304 1 3648 0 50
0 56 1 4328 0 80 1 6090
0 215 1 8213 1 3261 0 66
0 98 1 3678 1 6836 0 86
0 1300 0 516 1 2097 0 60
0 65 1 3731 0 2237 0 329
0 128 1 3789 1 2289 0 68
0 50 1 4832 0 118 1 4592
0 73 1 5094 1 4145 0 126
0 56 1 3596 1 5439 0 302
0 82 1 4339 1 5671 0 165
0 149 1 9038 1 3565 0 68
0 341 1 6321 1 4157 0 63
0 69 1 1736 1 7139 0 118
0 184 1 2836 1 2175 0 58
0 92 1 2669 1 4964 0 86
0 54 1 2527 0 817 0 217
0 118 1 5233 1 2317 0 81
0 71 1 2826 1 4456 0 79
0 59 1 2567 0 137 1 4512
0 78 1 3980 1 6793 0 254
0 114 1 5868 1 5930 0 112
0 69 1 2296 1 3647 0 103
0 111 1 5068 1 1950 0 88
0 88 1 4066 1 3281 0 69
0 80 1 5144 1 3690 0 115
1 5649 0 87 1 1572 0 59
0 44 1 1749 0 70 1 3083
0 1932 0 162 1 4988 0 55
0 73 1 5968 1 2381 0 126
0 54 1 5149 0 242 0 3853
0 291 1 5971 1 3597 0 72
0 115 1 3703 1 7642 0 64
0 242 1 5840 1 3181 0 79
0 51 1 2167 0 111 1 4421
0 101 1 3374 1 4852 0 89
0 81 1 3589 1 5402 0 102
0 63 1 3642 1 7521 0 1086
1 3249 0 78 1 1436 0 46
0 54 1 2206 1 5577 0 154
0 69 1 2734 1 5779 0 122
0 100 1 7093 1 3883 0 81
0 92 1 4010 1 3711 0 89
1 8176 0 287 1 4888 0 60
0 72 1 4711 1 3588 0 143
0 99 1 5827 1 4005 0 73
0 71 1 5656 1 3999 0 131
0 128 1 5153 1 3682 0 56
0 87 1 3199 1 2308 0 95
0 231 1 4295 1 3332 0 57
0 55 1 3255 0 142 1 7359
0 58 1 4326 0 89 1 4617
1 5763 0 175 1 2568 0 72
0 109 1 5109 1 6572 0 79
0 61 1 5921 1 5430 0 90
0 55 1 16171 1 3054 0 122
0 70 1 3951 1 6311 0 144
0 92 1 2526 0 822 0 570
1 3682 0 183 1 2544 0 59
0 93 1 4449 1 2710 0 61
0 81 1 4803 1 7565 0 102
0 101 1 4020 1 3191 0 90
0 210 1 6237 1 5372 0 63
0 128 1 4762 1 5140 0 81
0 49 1 2385 0 139 1 7297
0 83 1 3973 1 4292 0 114
0 75 1 3481 1 4894 0 98
0 66 1 2335 1 4332 0 113
0 171 1 2701 1 2482 0 72
1 4938 0 290 1 4024 0 65
0 75 1 2560 1 5489 0 106
0 140 1 3020 1 4027 0 64
0 79 1 3600 1 3817 0 74
0 73 1 2565 1 5663 0 313
0 77 1 5282 0 252 0 604
0 79 1 5256 1 3878 0 79
0 205 1 6992 1 3601 0 69
0 110 1 3840 1 4189 0 76
1 3296 0 141 1 1155 0 49
1 4620 0 105 1 3817 0 51
0 77 1 4085 1 5998 0 95
0 60 1 3776 1 6743 0 149
0 58 1 2258 0 278 0 2381
0 94 1 3665 1 3992 0 75
1 4511 0 158 1 3066 0 50
0 143 1 6495 1 2329 0 77
0 188 1 3709 1 2767 0 118
0 93 1 2788 1 3192 0 65
0 84 1 3403 1 5491 0 106
0 70 1 3487 1 2626 0 125
1 7700 0 108 1 2858 0 62
0 116 1 5289 1 4298 0 111
0 86 1 2853 1 5150 0 94
0 97 1 6907 1 2782 0 80
0 111 1 6265 1 3578 0 85
0 80 1 1600 1 3983 0 99
0 149 1 3871 1 2964 0 93
0 142 1 5690 1 3137 0 90
0 139 1 7049 1 3104 0 64
1 6056 0 194 1 1605 0 59
0 88 1 3214 1 2000 0 76
0 317 1 5665 1 2248 0 65
0 72 1 3404 0 355 1 8801
0 54 1 4168 0 135 1 3037
0 79 1 9627 1 9405 0 90
1 3624 0 76 1 8311 0 50
0 107 1 3596 1 6025 0 64
1 6356 0 275 1 4060 0 59
0 99 1 8398 1 2520 0 68
0 74 1 4206 1 4718 0 115
0 63 1 1915 0 231 1 4775
0 80 1 3586 1 6552 0 86
0 209 1 6090 1 6084 0 76
0 85 1 3950 1 3593 0 100
0 56 1 2226 0 246 1 3333
0 67 1 2041 1 6354 0 94
0 98 1 2983 1 4323 0 103
0 68 1 3505 1 4034 0 117
0 78 1 1933 1 3719 0 109
0 86 1 5609 1 3812 0 83
0 71 1 3755 1 5095 0 191
0 122 1 4726 1 4634 0 74
0 107 1 8255 1 4926 0 82
0 77 1 2360 1 4383 0 126
0 81 1 6146 1 7404 0 193
0 74 1 3061 1 6367 0 188
0 86 1 6720 1 6360 0 155
0 97 1 4975 1 5270 0 70
0 73 1 4279 1 2328 0 83
0 50 1 2464 0 447 1 8389
0 83 1 1803 1 4132 0 129
0 95 1 3514 1 6059 0 75
0 672 0 380 1 1206 0 61
0 60 1 6560 1 8678 0 240
0 75 1 3363 1 2510 0 85
0 72 1 4077 0 1618 0 228
0 102 1 4607 1 4816 0 63
0 105 1 4975 1 4212 0 73
0 80 1 1368 0 162 1 3181
0 76 1 5400 1 3710 0 93
0 141 1 3341 1 6536 0 113
0 74 1 4268 1 7045 0 166
0 84 1 4432 1 4997 0 139
1 8378 0 161 1 3723 0 46
0 56 1 2692 0 208 1 4979
0 49 1 3672 0 395 0 1330
0 98 1 4617 1 2066 0 91
1 5493 0 164 1 3237 0 56
0 69 1 4718 0 180 1 6377
0 56 1 3261 0 115 1 3167
0 62 1 4659 1 6254 0 171
0 92 1 1952 1 3300 0 171
0 66 1 4503 1 8766 0 80
0 63 1 4305 1 4657 0 103
0 64 1 1485 0 437 1 5365
0 90 1 2222 1 3882 0 122
0 190 1 4212 1 3189 0 72
0 455 0 1287 1 5249 0 59
0 230 1 8068 1 3282 0 60
0 76 1 4377 1 5142 0 343
0 101 1 4586 1 3154 0 66
0 67 1 5054 1 3398 0 100
0 71 1 2960 1 5655 0 129
0 88 1 4584 1 3113 0 75
0 92 1 3446 1 3552 0 86
0 104 1 2217 1 3753 0 90
0 94 1 6297 1 6717 0 103
0 300 0 1116 1 3314 0 59
0 72 1 1597 1 6192 0 104
1 6382 0 164 1 3481 0 67
0 96 1 4373 1 3192 0 109
0 82 1 3370 1 6952 0 115
0 169 1 6113 1 4086 0 62
0 115 1 6013 1 3169 0 73
0 53 1 2530 0 209 1 5240
0 167 1 8674 1 3765 0 71
0 302 0 1576 1 8817 0 49
0 74 1 3550 1 2089 0 120
0 167 1 6833 1 5354 0 70
0 41 1 1990 0 110 1 3280
0 54 1 2142 1 5718 0 121
0 1328 0 561 1 4177 0 58
1 5236 0 113 1 1011 0 56
0 50 1 1614 0 142 1 8002
0 56 1 3536 0 232 1 7905
0 77 1 4923 0 3132 0 337
0 263 0 702 1 3669 0 61
0 160 1 4976 1 4625 0 56
0 48 1 1705 0 141 1 4206
0 68 1 2846 0 254 0 633
0 136 1 4820 1 3844 0 76
0 76 1 3694 1 4141 0 107
0 71 1 3677 1 3095 0 109
0 91 1 3360 1 5251 0 108
0 56 1 2889 1 6529 0 133
0 77 1 1575 0 108 1 2218
0 53 1 2486 0 124 1 3460
0 98 1 5501 1 8529 0 72
0 144 1 4886 1 3762 0 79
0 69 1 2677 1 5954 0 101
0 67 1 4022 0 4468 0 208
0 1300 0 438 1 2448 0 87
1 13082 0 197 1 2076 0 54
0 81 1 2728 1 4621 0 107
0 66 1 3176 0 144 1 7552
0 62 1 1784 0 302 0 826
0 64 1 2643 1 5249 0 186
0 118 1 2975 1 4596 0 146
0 148 1 4346 1 1920 0 59
0 65 1 3616 1 5722 0 164
0 69 1 2520 0 3689 0 306
0 94 1 4333 1 3211 0 78
0 78 1 3640 1 4191 0 106
0 62 1 3073 1 9042 0 188
1 5476 0 174 1 1753 0 60
0 540 1 9143 1 2533 0 61
0 66 1 5528 0 1094 0 858
0 268 1 5810 1 2703 0 61
0 63 1 6143 0 641 0 2916
0 257 1 7086 1 2078 0 72
0 100 1 4864 1 3639 0 66
0 70 1 4624 1 4957 0 94
0 81 1 6916 1 4399 0 73
0 89 1 3919 0 214 1 7895
0 121 1 4297 1 4056 0 60
0 57 1 5609 0 164 1 3297
0 508 0 272 1 2285 0 49
1 5023 0 289 1 2206 0 65
0 50 1 4144 0 101 1 2974
0 56 1 4247 0 167 1 6735
0 74 1 3232 1 6762 0 135
0 82 1 2335 1 4047 0 95
1 4206 0 128 1 2091 0 51
0 66 1 3250 0 422 0 459
0 81 1 3619 1 3680 0 109
0 254 1 6854 1 1980 0 58
1 6357 0 209 1 2772 0 60
0 3246 0 248 1 4612 0 56
0 78 1 4626 1 2684 0 128
0 69 1 5344 1 8218 0 113
1 3959 0 135 1 1514 0 79
0 76 1 4018 1 1731 0 75
1 2197 0 144 1 3167 0 46
0 405 1 5471 1 2628 0 69
0 215 1 4141 1 4351 0 65
0 80 1 5912 1 2499 0 81
0 76 1 4607 1 4173 0 192
0 112 1 3349 1 6315 0 65
0 62 1 5379 1 4815 0 114
0 78 1 4521 1 4683 0 133
0 64 1 2220 0 913 0 246
0 79 1 6576 1 6707 0 88
0 67 1 3221 0 230 1 8465
0 73 1 3395 1 3770 0 124
1 2921 0 203 1 1744 0 101
0 100 1 3611 1 2968 0 106
0 88 1 3626 1 7197 0 150
0 129 1 4104 1 4864 0 67
0 196 1 9369 1 5650 0 73
1 8220 0 560 1 5575 0 67
1 4289 0 88 1 6364 0 53
0 117 1 1933 1 3707 0 105
0 46 1 2549 0 81 1 3822
0 96 1 8367 1 3980 0 70
0 68 1 3437 1 4210 0 106
0 89 1 2058 1 2557 0 95
0 79 1 3592 0 211 1 4448
0 88 1 5933 1 2371 0 82
0 78 1 4079 1 3214 0 75
0 74 1 2088 1 3353 0 114
0 179 1 4860 1 2587 0 71
0 160 1 6501 1 2917 0 69
0 62 1 5448 1 4114 0 125
0 51 1 4506 0 226 1 10789
0 447 1 5955 1 4437 0 62
0 90 1 3541 1 4699 0 93
0 72 1 3489 1 3632 0 82
0 57 1 3742 1 3684 0 110
0 79 1 3623 1 6332 0 112
0 94 1 3031 1 2831 0 85
0 113 1 5456 1 3373 0 91
1 4005 0 179 1 3599 0 55
1 6065 0 124 1 4316 0 54
1 6802 0 134 1 2039 0 57
0 186 1 6010 1 3457 0 68
1 5251 0 167 1 3320 0 58
1 4019 0 71 1 3194 0 55
0 61 1 2262 0 604 0 604
0 83 1 4094 1 8729 0 122
0 111 1 8291 1 3571 0 64
0 127 1 9199 1 3329 0 78
1 8066 0 191 1 2991 0 57
0 47 1 2727 0 127 1 3615
0 74 1 8681 1 1987 0 85
0 75 1 3711 1 4926 0 70
0 47 1 2215 0 106 1 3543
0 115 1 3577 1 4269 0 98
0 96 1 2649 1 4989 0 98
1 5602 0 109 1 2796 0 54
0 88 1 4248 1 2160 0 161
1 5602 0 138 1 5495 0 56
0 61 1 4103 0 121 1 4248
1 4427 0 78 1 1888 0 40
0 77 1 3930 1 8540 0 129
0 93 1 3420 0 1172 0 525
0 225 1 9969 1 2506 0 67
0 53 1 2766 0 124 1 5267
0 71 1 3995 1 8855 0 97
0 1279 0 782 1 3799 0 72
0 59 1 3484 0 505 0 547
0 93 1 2351 1 5462 0 94
0 154 1 4398 1 2730 0 68
0 95 1 4128 1 2400 0 90
0 62 1 3048 0 138 1 4042
0 93 1 3255 1 4225 0 142
0 55 1 1585 0 156 1 6912
0 62 1 3850 1 6879 0 137
0 95 1 4807 1 6506 0 226
0 54 1 1650 0 121 1 5468
0 109 1 4779 1 5008 0 90
0 108 1 2467 1 4135 0 95
0 126 1 6614 1 4473 0 76
0 207 1 4197 1 3839 0 57
0 174 1 3846 1 4299 0 64
0 87 1 2025 0 1535 0 379
0 150 1 8233 1 5008 0 57
0 85 1 3247 1 4307 0 109
0 127 1 1631 1 5380 0 116
0 64 1 3454 1 7171 0 127
0 94 1 4843 1 2066 0 76
0 57 1 1335 1 6637 0 152
0 152 1 3515 1 3600 0 76
0 62 1 4199 0 134 1 7277
1 6586 0 152 1 2835 0 57
0 53 1 2090 0 107 1 5643
0 62 1 3328 1 8649 0 192
0 102 1 3607 1 6088 0 100
0 72 1 4142 1 4261 0 105
0 272 0 1517 1 1959 0 53
0 59 1 2351 1 6412 0 148
0 194 1 3588 1 3735 0 58
0 149 1 6055 1 2971 0 77
0 244 1 4154 1 5219 0 88
0 149 1 4976 1 1234 0 59
0 86 1 4056 1 7248 0 131
1 4289 0 108 1 866 0 52
0 56 1 2406 0 115 1 7821
0 62 1 2500 1 5387 0 167
0 97 1 3536 1 3795 0 124
0 135 1 4743 1 2549 0 61
0 72 1 4342 1 6881 0 127
0 53 1 1742 0 114 1 4594
0 69 1 2646 1 5189 0 499
0 167 1 11395 1 4130 0 63
0 177 1 3503 1 4122 0 71
1 3085 0 140 1 1698 0 55
0 107 1 2655 1 3126 0 76
0 90 1 3801 1 3036 0 103
0 63 1 6139 0 109 1 4399
0 122 1 4482 1 2252 0 56
0 75 1 4313 1 3999 0 111
0 58 1 2095 0 237 1 7487
1 10485 0 582 1 5190 0 58
0 63 1 2126 0 1015 0 192
0 73 1 3923 1 4199 0 265
0 70 1 2721 1 4812 0 98
0 87 1 6542 1 3106 0 76
0 68 1 3651 1 4922 0 148
0 81 1 1402 1 5088 0 214
0 71 1 4213 1 4817 0 145
0 90 1 3806 1 5546 0 84
1 9510 0 456 1 2400 0 64
0 147 1 4832 1 4099 0 83
0 117 1 5694 1 2259 0 110
0 65 1 3580 1 2684 0 91
1 7620 0 320 1 3528 0 67
0 62 1 2870 1 5550 0 141
0 478 0 384 1 2472 0 61
0 76 1 2260 1 6299 0 100
0 73 1 2618 1 7365 0 125
0 74 1 5282 1 3864 0 162
0 124 1 5193 1 2004 0 79
0 116 1 7203 1 2902 0 97
0 110 1 2325 1 6575 0 135
0 71 1 2930 1 6440 0 154
0 54 1 6872 0 175 1 3494
0 68 1 3734 1 5820 0 74
0 65 1 5266 1 6731 0 194
0 71 1 4379 1 3594 0 125
0 679 0 485 1 2406 0 60
0 102 1 5095 1 4716 0 90
0 71 1 5188 1 2345 0 96
0 71 1 3325 0 345 1 5681
0 57 1 1243 0 81 1 3474
0 49 1 1347 0 87 1 2782
0 64 1 4594 1 8206 0 313
0 64 1 2132 1 5684 0 146
1 5201 0 122 1 2647 0 61
0 70 1 2955 1 3528 0 83
0 68 1 4883 1 3366 0 71
0 95 1 3518 1 3673 0 132
0 103 1 7543 1 4916 0 108
0 89 1 3186 1 3197 0 114
0 78 1 3046 1 2760 0 98
0 76 1 4011 1 4361 0 115
0 197 1 5563 1 3836 0 57
0 97 1 3018 1 7929 0 75
0 1305 0 732 1 4463 0 61
0 156 1 4051 1 2407 0 86
0 79 1 4253 0 4064 0 642
0 77 1 2996 1 5079 0 82
0 75 1 4378 0 155 1 13982
0 107 1 2818 1 3825 0 75
1 4067 0 127 1 964 0 53
0 1504 0 330 1 1799 0 61
0 91 1 2058 1 4169 0 84
0 55 1 1919 0 788 1 7557
0 100 1 5627 1 2939 0 74
1 8907 0 144 1 3591 0 82
0 79 1 3030 1 3664 0 77
0 69 1 3035 0 1477 0 280
1 6697 0 264 1 1695 0 55
0 151 1 3546 1 1659 0 70
1 5722 0 284 1 3508 0 81
0 179 1 4328 1 3708 0 63
