Parameters: seed=646698548, s1=0.001000, s2=0.001000, s3=0.001000, s4=0.001000, e12=-0.200000, e13=0.000000, e14=0.000000, e23=0.000000, e24=0.000000, e34=-0.200000, r12=0.050000, r23=0.050000, r34=0.050000, h12=1, h13=1, h14=1, h23=1, h24=1, h34=1 , n_gen=10000000, n_ind=10000 initial freq: 0.000000 0.000000 0.000000 0.000000 0.000000 0.500000 0.000000 0.000000 0.000000 0.000000 0.500000 0.000000 0.000000 0.000000 0.000000 0.000000
0 114 1 6653 1 4304 0 64
0 275 1 6228 1 3460 0 61
0 125 1 3221 1 5645 0 75
1 7550 0 272 1 4088 0 59
0 57 1 3085 1 5644 0 145
0 94 1 2261 1 2905 0 102
0 67 1 1317 0 329 1 7355
0 67 1 2737 1 4097 0 86
0 366 0 1055 1 2220 0 61
0 86 1 4673 1 5546 0 197
0 88 1 4690 1 4718 0 111
1 4628 0 198 1 2527 0 55
0 254 1 6972 1 2900 0 51
0 205 1 3538 1 3725 0 64
0 53 1 1985 0 102 1 5536
1 5078 0 136 1 1940 0 53
1 5791 0 75 1 2084 0 53
0 98 1 3159 1 3912 0 80
1 7050 0 106 1 2478 0 55
0 70 1 2573 0 278 0 813
0 212 1 4285 1 2683 0 62
0 70 1 2770 0 1055 0 337
0 68 1 5575 0 110 1 4123
0 138 1 5474 1 2504 0 72
0 75 1 3725 1 3958 0 87
0 85 1 3730 1 3064 0 89
0 72 1 5740 1 3014 0 128
0 168 1 4309 1 2640 0 59
0 308 1 2915 1 3345 0 73
0 179 1 5543 1 8709 0 62
0 97 1 5943 1 3935 0 100
1 6095 0 238 1 5384 0 50
0 65 1 3119 0 3366 0 226
0 59 1 2409 0 2089 0 800
0 167 1 5903 1 1753 0 73
0 65 1 2329 0 934 0 535
0 76 1 4633 1 6255 0 98
0 69 1 3630 1 5141 0 100
0 86 1 3375 1 4680 0 76
0 926 0 363 1 3085 0 58
0 98 1 2384 1 2959 0 104
0 86 1 4637 1 3891 0 81
0 39 1 1670 0 82 1 5043
0 58 1 5639 0 279 1 7378
0 95 1 4133 1 2294 0 74
0 55 1 2943 1 5790 0 195
0 64 1 5191 1 2990 0 111
1 3712 0 236 1 3635 0 57
0 93 1 3374 1 4835 0 73
1 3648 0 120 1 2953 0 55
0 147 1 8135 1 3405 0 61
0 59 1 2615 0 154 1 5090
0 66 1 3492 1 4428 0 101
1 4916 0 144 1 1136 0 62
0 50 1 1826 0 103 1 4354
0 213 1 9303 1 1695 0 63
0 76 1 4210 1 3232 0 74
0 5411 0 293 1 2255 0 56
1 8095 0 180 1 2890 0 69
0 73 1 3851 0 366 1 5544
0 1123 0 656 1 4815 0 86
0 145 1 4742 1 5260 0 58
0 98 1 5440 1 2700 0 91
0 93 1 2617 1 7174 0 102
0 289 1 6022 1 2801 0 87
0 434 0 319 1 2166 0 57
1 6759 0 96 1 2598 0 58
0 66 1 6229 0 1200 0 135
0 84 1 3399 1 3837 0 92
0 169 1 7654 1 3300 0 62
0 308 0 772 1 1510 0 52
0 100 1 3823 1 3369 0 86
0 66 1 5698 0 483 1 6460
0 90 1 5837 1 6865 0 102
0 76 1 2685 0 496 0 659
0 69 1 3041 1 1958 0 94
0 60 1 1792 1 2934 0 83
0 67 1 3431 1 4107 0 89
0 60 1 3808 0 172 1 6838
0 75 1 1839 1 2084 0 92
0 78 1 2175 1 3148 0 144
0 86 1 5701 1 3671 0 101
0 73 1 3723 1 3909 0 103
0 55 1 2036 0 124 1 5008
0 197 1 6517 1 3196 0 61
0 122 1 3425 1 5510 0 67
0 63 1 1556 0 90 1 1830
0 145 1 6134 1 2888 0 80
0 60 1 1202 1 8102 0 303
0 74 1 2264 0 1868 0 176
0 106 1 2949 1 4892 0 79
0 115 1 8719 1 6253 0 68
0 76 1 1604 0 1503 0 193
1 5195 0 95 1 1716 0 49
1 3472 0 390 1 4355 0 65
0 80 1 2162 1 6241 0 141
0 61 1 1810 0 111 1 5574
0 60 1 2743 1 7022 0 195
0 314 0 840 1 2724 0 72
0 54 1 1641 0 201 1 8733
0 114 1 4015 1 2579 0 77
0 80 1 4769 1 3786 0 83
0 68 1 3007 1 6274 0 108
1 3646 0 206 1 1884 0 55
0 90 1 3846 1 2184 0 89
0 60 1 5453 1 5616 0 136
0 107 1 4013 1 4787 0 74
0 56 1 2448 0 180 0 623
0 100 1 2217 1 3276 0 72
1 3296 0 95 1 3174 0 65
0 52 1 2195 0 468 1 6056
1 5509 0 142 1 2399 0 58
0 111 1 4061 1 3292 0 74
0 89 1 3043 1 6957 0 80
0 427 1 7331 1 7038 0 73
1 2862 0 203 1 2693 0 60
0 57 1 5701 1 9113 0 369
0 86 1 2538 1 2835 0 71
0 57 1 1833 0 90 1 2830
0 121 1 7306 1 4974 0 75
0 59 1 2414 0 102 1 3978
0 125 1 3765 1 4718 0 105
0 54 1 2387 0 99 1 2020
0 120 1 4369 1 3662 0 63
0 172 1 11025 1 3330 0 62
0 62 1 1359 0 196 1 6231
0 126 1 7071 1 1588 0 77
0 89 1 3642 1 3983 0 73
0 91 1 4484 1 3589 0 81
0 65 1 3951 0 1330 0 132
0 52 1 5341 0 111 1 5619
0 148 1 4582 1 4384 0 56
0 74 1 2046 1 5094 0 183
0 397 1 5729 1 4458 0 59
0 126 1 3312 1 4082 0 95
0 59 1 5266 0 163 1 11325
0 73 1 5169 1 1824 0 95
0 80 1 2220 1 4070 0 89
0 66 1 1948 1 6260 0 125
0 74 1 3386 1 4620 0 85
0 189 1 5102 1 4649 0 69
1 2240 0 115 1 1638 0 49
0 99 1 6939 1 4705 0 86
1 5326 0 139 1 2734 0 46
0 70 1 4185 0 1041 0 243
0 127 1 3515 1 2712 0 72
0 52 1 1897 0 109 1 4608
0 70 1 3464 1 5111 0 166
0 64 1 2267 1 4545 0 178
0 61 1 2804 0 224 1 5006
1 4255 0 150 1 1584 0 49
1 4963 0 110 1 1778 0 67
0 145 1 8223 1 3633 0 69
0 59 1 5613 1 6437 0 167
0 78 1 1745 0 91 1 8403
0 83 1 4028 1 4399 0 79
0 157 1 3590 1 3586 0 79
0 75 1 5584 1 3473 0 96
0 89 1 3201 1 2604 0 79
0 102 1 3748 1 3107 0 91
0 65 1 3680 0 442 0 564
0 68 1 2008 0 389 1 5380
0 96 1 3321 1 3082 0 183
0 60 1 5363 1 5287 0 266
0 92 1 4966 1 3590 0 79
0 88 1 2637 1 3716 0 91
0 668 0 393 1 6841 0 60
0 236 1 2953 1 2704 0 74
0 86 1 2651 1 3391 0 108
0 321 1 6041 1 3183 0 60
0 94 1 7696 1 3870 0 107
0 125 1 6046 1 3936 0 86
1 4685 0 241 1 4188 0 76
1 8749 0 252 1 2382 0 74
0 81 1 7042 1 1348 0 78
0 74 1 5088 1 3327 0 148
0 64 1 5044 0 152 1 5075
0 153 1 2398 1 4848 0 61
0 77 1 2150 1 6010 0 169
0 65 1 5303 1 2276 0 123
0 98 1 3820 1 4548 0 97
0 68 1 3342 1 3053 0 99
1 3133 0 68 1 1169 0 48
1 6494 0 350 1 3319 0 49
0 81 1 5467 1 4798 0 79
0 86 1 4257 1 2295 0 87
0 76 1 5128 1 3219 0 111
0 63 1 2823 1 8427 0 117
0 67 1 2158 0 639 1 9504
0 85 1 4311 1 3261 0 109
0 169 1 13158 1 3778 0 62
0 115 1 6108 1 2483 0 66
0 100 1 3600 1 5053 0 92
0 56 1 2244 1 4663 0 194
0 68 1 4030 1 5169 0 176
0 106 1 3266 1 4028 0 73
0 59 1 11554 1 5038 0 150
0 401 1 6188 1 2955 0 67
0 92 1 4432 1 3845 0 94
0 86 1 3259 1 5937 0 72
0 86 1 2589 1 3687 0 107
0 50 1 1751 0 136 1 10346
0 2228 0 696 1 3400 0 57
0 64 1 4779 1 7306 0 218
0 63 1 2956 1 7712 0 169
0 187 1 3561 1 3965 0 85
0 141 1 3737 1 3152 0 59
0 124 1 3613 1 5107 0 79
1 7791 0 200 1 2866 0 60
1 2327 0 78 1 1861 0 55
1 5630 0 143 1 2123 0 61
0 189 1 3726 1 3085 0 70
0 93 1 1965 1 7161 0 104
0 68 1 1780 1 8254 0 111
0 59 1 3330 0 154 1 7977
1 6931 0 174 1 3454 0 63
0 61 1 3596 1 5358 0 125
0 248 1 5304 1 2292 0 52
0 52 1 1933 0 261 1 3817
0 61 1 1220 0 110 1 3752
0 73 1 3662 1 7554 0 157
1 3163 0 109 1 5124 0 45
0 141 1 6787 1 6992 0 65
1 3900 0 142 1 3699 0 60
0 60 1 3135 1 4021 0 87
1 3642 0 88 1 1363 0 59
0 87 1 3665 1 2630 0 88
0 82 1 3312 1 3455 0 95
1 4649 0 101 1 3446 0 61
0 53 1 4665 0 142 1 2590
0 98 1 2811 1 3504 0 81
0 62 1 2777 0 366 1 10679
0 85 1 4736 1 2335 0 171
0 63 1 1733 1 8208 0 196
0 139 1 4259 1 4436 0 74
1 3972 0 239 1 3370 0 63
0 91 1 5789 1 5483 0 77
0 86 0 5717 1 4501 0 71
0 76 1 2656 0 853 0 420
0 80 1 4113 1 4669 0 104
0 77 1 1329 0 349 0 767
0 98 1 2389 1 3027 0 71
0 58 1 4579 0 2195 0 181
0 83 1 1983 1 5116 0 104
0 140 1 6529 1 3377 0 74
0 84 1 2005 1 2638 0 130
0 94 1 6045 1 5436 0 90
1 4328 0 123 1 1879 0 53
0 62 1 3072 1 4396 0 220
0 58 1 2963 1 7326 0 203
0 93 1 5724 1 4773 0 114
0 67 1 7675 1 2326 0 73
0 106 1 4611 1 6042 0 81
0 286 1 4018 1 6515 0 66
0 51 1 1983 0 92 1 4262
0 107 1 7133 1 4221 0 91
0 115 1 5669 1 1669 0 76
0 128 1 4163 1 3207 0 95
0 73 1 5478 1 3059 0 96
0 54 1 3552 0 276 0 3802
0 45 1 1387 0 108 1 4187
0 4560 0 630 1 5094 0 61
1 3785 0 105 1 2228 0 64
0 100 1 3072 1 3590 0 60
0 61 1 3032 0 507 0 360
0 74 1 4308 1 3902 0 118
0 125 1 5337 1 4140 0 102
0 134 1 3993 1 3287 0 83
0 90 1 4220 1 4231 0 97
1 9099 0 130 1 4446 0 79
0 74 1 2729 1 5201 0 147
0 72 1 2145 1 4414 0 108
0 94 1 3672 1 3724 0 81
0 82 1 6309 1 2709 0 118
1 4599 0 141 1 1425 0 77
0 136 0 2203 1 1688 0 60
0 179 0 1308 1 2250 0 80
0 145 1 6442 1 1953 0 78
0 51 1 1796 0 95 1 6870
0 131 1 4211 1 3499 0 77
0 53 1 1294 0 78 1 2918
0 165 1 3331 1 4373 0 75
1 8273 0 234 1 6891 0 65
0 49 1 1774 0 97 1 3336
0 73 1 3486 0 271 1 7002
0 55 1 2703 1 5964 0 438
1 6338 0 135 1 3147 0 59
0 146 1 5152 1 3230 0 69
0 107 1 4856 1 8110 0 114
0 171 1 5816 1 2289 0 51
0 74 1 4706 1 3833 0 140
0 74 1 4828 1 7828 0 108
1 3611 0 113 1 3100 0 51
1 2940 0 163 1 1929 0 54
0 129 1 5877 1 3805 0 67
0 49 1 2113 0 104 1 2813
0 208 1 7862 1 3153 0 84
0 139 1 5041 1 5554 0 65
0 155 1 9252 1 4795 0 99
0 145 1 3575 1 3234 0 82
0 129 1 6939 1 2083 0 83
0 69 1 2895 1 3985 0 136
0 116 1 4023 1 1018 0 61
0 125 1 6229 1 2559 0 59
0 66 1 2078 1 4689 0 102
0 65 1 3415 1 8091 0 126
1 3258 0 123 1 2651 0 52
0 74 1 3575 1 3745 0 171
0 94 1 3796 1 5018 0 92
1 5580 0 119 1 6572 0 62
0 72 1 4147 1 2551 0 128
0 65 1 3596 1 3487 0 247
0 88 1 3368 1 2628 0 101
0 187 1 7635 1 7689 0 75
0 87 1 3889 1 3899 0 92
0 102 1 5144 1 8178 0 80
0 67 1 2595 1 7392 0 156
0 82 1 8184 1 4018 0 122
0 73 1 2074 0 111 1 5891
0 70 1 4649 1 5927 0 93
0 73 1 3371 1 2698 0 148
0 73 1 1657 0 124 1 6500
0 52 1 3364 1 6333 0 136
0 54 1 3079 0 283 1 6601
0 81 1 2612 1 8349 0 100
1 2301 0 87 1 3694 0 47
0 73 1 3171 1 4418 0 102
0 64 1 5323 0 147 1 8708
0 48 1 5234 0 98 1 9854
0 140 1 5284 1 3034 0 67
1 5982 0 423 1 2188 0 57
0 104 1 3092 1 4744 0 80
0 81 1 3012 1 2499 0 95
0 50 1 2550 1 10218 0 334
0 76 1 4876 1 4918 0 84
0 105 1 3290 1 4242 0 76
0 42 1 790 0 109 1 1666
0 86 1 3141 1 4743 0 93
0 72 1 3669 1 5328 0 102
0 48 1 1952 0 103 1 6273
0 60 1 2647 0 261 1 4664
0 354 0 1684 1 1546 0 59
0 84 1 4407 1 3270 0 76
0 130 1 5027 1 7545 0 85
0 56 1 2296 0 258 1 3203
0 287 1 6703 1 3826 0 59
1 3320 0 127 1 2601 0 53
0 84 1 3907 1 3959 0 104
0 55 1 3371 1 8117 0 118
0 74 1 2556 1 5433 0 110
0 95 1 3219 1 3285 0 71
0 56 1 2297 1 3500 0 135
0 53 1 2046 1 3320 0 192
1 3256 0 89 1 2346 0 56
0 89 1 2512 1 6349 0 89
0 72 1 2502 1 5455 0 112
0 55 1 4709 0 211 0 1042
0 291 0 737 1 1986 0 82
0 106 1 3997 1 3299 0 71
0 54 1 1850 0 164 1 3204
0 114 1 5268 1 7482 0 84
0 81 1 2556 1 4007 0 121
0 94 1 3237 1 3721 0 80
1 4158 0 122 1 7106 0 52
0 65 1 3063 0 270 1 6802
0 70 1 4728 1 3997 0 132
0 56 1 1789 1 5826 0 121
1 6188 0 106 1 1963 0 52
0 80 1 4756 1 10061 0 121
0 78 1 5716 1 3481 0 97
0 966 0 241 1 3261 0 68
1 9221 0 170 1 2769 0 67
0 51 1 1912 0 140 1 3479
0 64 1 2493 1 5055 0 272
0 69 1 5723 1 2825 0 105
0 136 1 6340 1 3408 0 65
1 4727 0 95 1 3483 0 46
0 135 1 6901 1 2513 0 68
0 86 1 2486 1 3229 0 79
0 302 1 10174 1 3093 0 70
0 1144 0 192 1 3012 0 76
0 102 1 5471 1 3950 0 71
0 59 1 4492 0 215 1 4142
0 138 1 1851 1 3508 0 69
0 87 1 3232 1 2760 0 82
0 78 1 4566 1 3928 0 118
0 80 1 3506 1 5321 0 114
0 207 0 707 1 2893 0 60
0 63 1 3495 1 6889 0 141
0 149 1 4116 1 6375 0 92
0 82 1 1848 1 7105 0 163
0 100 1 4396 1 6509 0 118
0 838 0 241 1 1111 0 74
0 111 1 4476 1 2361 0 128
0 115 1 2949 1 4012 0 66
0 62 1 1297 0 108 1 8624
0 89 1 4604 1 4089 0 61
0 145 1 4567 1 5644 0 79
0 390 0 543 1 2746 0 80
0 53 1 2732 0 691 0 463
0 63 1 1756 0 173 1 6829
0 129 1 3064 1 3075 0 62
0 89 1 7416 1 2503 0 112
1 6654 0 108 1 2590 0 41
0 58 1 2240 0 121 1 4247
0 60 1 4805 0 152 1 5554
0 81 1 4320 1 4071 0 108
0 67 1 8481 1 3826 0 125
0 119 1 5195 1 5024 0 86
0 148 1 7289 1 2137 0 58
1 3403 0 146 1 3313 0 55
0 76 1 7896 1 7111 0 117
0 72 1 5022 1 5360 0 180
0 94 1 3036 1 4811 0 86
0 167 1 3414 1 5614 0 76
0 182 1 5540 1 3998 0 70
1 5704 0 156 1 3154 0 55
0 106 1 2946 1 2723 0 74
0 94 1 3225 1 5645 0 123
0 57 1 4377 0 209 1 9929
0 62 1 2781 0 89 1 8568
0 59 1 3995 0 112 1 3406
0 211 1 6103 1 4496 0 83
1 7337 0 151 1 2821 0 63
1 3353 0 110 1 4022 0 41
0 101 1 2257 1 4266 0 132
1 7178 0 249 1 2778 0 56
0 118 1 3623 1 5063 0 90
1 4774 0 110 1 1446 0 51
0 74 1 2757 1 3427 0 89
0 99 1 5667 1 2590 0 100
0 80 1 3060 1 3159 0 132
0 111 1 4571 1 3948 0 69
0 81 1 3947 1 2197 0 93
0 73 1 4681 1 3531 0 106
0 89 1 2145 1 2786 0 96
0 87 1 2285 1 3829 0 79
0 67 1 5894 0 919 0 382
1 3168 0 82 1 2359 0 77
0 61 1 2891 1 4224 0 173
0 55 1 2492 0 129 1 5917
0 71 1 2886 1 5665 0 87
0 109 1 4666 1 3836 0 70
1 4642 0 117 1 3313 0 62
0 68 1 4631 1 5977 0 272
0 156 1 6520 1 3052 0 76
0 71 1 2669 1 6206 0 117
0 98 1 3443 1 2988 0 101
1 5016 0 181 1 1344 0 58
0 71 1 3385 1 6213 0 133
1 2609 0 108 1 4350 0 55
0 88 1 4533 1 6304 0 68
0 211 1 6458 1 3738 0 75
0 59 1 3364 1 3056 0 114
1 3353 0 134 1 3317 0 51
0 91 1 5431 1 2678 0 95
0 59 1 1686 0 186 1 4559
0 80 1 1932 0 266 1 4607
0 67 1 3718 1 4655 0 92
0 365 0 256 1 2915 0 66
0 117 1 6844 1 4589 0 65
0 70 1 1496 0 233 1 6620
0 68 1 1759 1 3508 0 107
0 58 1 1839 0 107 1 5127
0 94 1 3995 1 4086 0 102
0 220 1 8576 1 3968 0 84
0 93 1 2720 1 4544 0 88
0 62 1 3937 0 381 0 1300
0 422 1 10209 1 5626 0 60
0 180 1 2928 1 3620 0 68
0 213 1 8260 1 3150 0 83
0 66 1 2058 0 444 1 9399
0 158 1 5097 1 2655 0 53
0 64 1 3032 1 3664 0 66
1 4400 0 119 1 3512 0 62
0 69 1 5616 1 3241 0 83
0 62 1 3428 0 252 1 5246
0 65 1 6562 1 6780 0 168
0 102 1 2273 1 2423 0 103
0 78 1 3384 1 3107 0 179
1 3363 0 125 1 4579 0 47
0 98 1 3733 1 4331 0 122
0 53 1 2582 1 4045 0 156
0 83 1 4323 1 3777 0 108
0 80 1 6399 1 5687 0 120
1 6318 0 98 1 2627 0 59
0 50 1 1504 0 87 1 8199
0 89 1 3123 1 3662 0 73
0 96 1 4024 1 4573 0 104
0 63 1 1579 0 3971 0 139
0 75 1 6440 1 6776 0 175
1 5453 0 167 1 5253 0 61
0 82 1 2713 1 5341 0 101
1 5278 0 104 1 1499 0 51
0 60 1 5438 1 5007 0 135
0 951 0 464 1 4993 0 99
0 213 1 5005 1 3067 0 70
1 4036 0 97 1 1121 0 62
1 4692 0 90 1 1210 0 50
1 7716 0 226 1 3618 0 71
1 3297 0 165 1 2501 0 49
0 559 0 201 1 6794 0 64
0 136 1 8333 1 4791 0 114
0 58 1 2369 0 1180 0 463
0 112 1 4544 1 5294 0 91
1 3400 0 102 1 3153 0 44
0 106 1 5143 1 6333 0 87
0 189 1 6162 1 2954 0 67
0 66 1 2224 1 6597 0 250
0 89 1 5018 1 3073 0 81
0 57 1 3821 0 98 1 2669
0 73 1 2579 1 3797 0 146
0 64 1 6225 1 3551 0 82
0 54 1 2189 0 154 1 4859
0 72 1 5292 0 1130 0 192
0 64 1 2738 0 105 1 5158
0 76 1 2136 1 5825 0 77
0 67 1 2238 0 617 0 152
0 178 1 4816 1 3207 0 74
0 50 1 1352 0 84 1 2948
0 143 1 4832 1 3812 0 78
0 97 1 5721 1 3737 0 91
0 253 0 1351 1 3051 0 75
0 133 1 4858 1 4457 0 66
0 78 1 6983 1 5243 0 111
0 111 1 5598 1 4782 0 105
0 78 1 3938 1 2994 0 93
1 4338 0 86 1 2638 0 49
0 62 1 4056 0 625 0 877
0 71 1 3135 1 3040 0 121
0 85 1 3348 1 1635 0 81
0 437 1 6309 1 3068 0 68
0 79 1 2926 1 3750 0 116
1 7082 0 186 1 1688 0 60
0 105 1 4601 1 3778 0 95
0 74 1 4294 0 226 1 5743
0 63 1 3325 1 4214 0 98
0 93 1 2499 1 3670 0 80
1 5449 0 247 1 4496 0 59
0 121 1 6031 1 3943 0 73
0 66 1 7054 1 5289 0 173
0 51 1 2283 0 146 1 7360
0 83 1 3924 1 4892 0 152
1 4779 0 161 1 4460 0 65
0 130 1 6012 1 3170 0 68
0 174 1 3929 1 2203 0 101
1 2708 0 172 1 3109 0 55
0 284 0 1609 1 2875 0 55
1 3422 0 197 1 3470 0 55
0 101 1 1436 1 11201 0 105
0 58 1 1970 0 188 1 6313
0 56 1 5280 0 102 1 5338
0 114 1 4124 1 3616 0 95
0 69 1 2861 1 5579 0 91
0 52 1 4679 0 2760 0 389
0 91 1 2582 1 3630 0 71
0 127 1 4499 1 3239 0 73
1 5011 0 141 1 3567 0 58
0 173 1 6267 1 4055 0 70
0 117 1 2999 1 3483 0 67
0 62 1 3232 1 5930 0 167
1 6319 0 107 1 2825 0 69
1 5595 0 158 1 3285 0 53
1 4541 0 185 1 1399 0 56
1 4191 0 130 1 2858 0 53
1 5981 0 214 1 2635 0 63
1 11004 0 139 1 5056 0 56
0 142 1 3504 1 5086 0 71
0 90 1 6767 1 8861 0 82
1 2972 0 79 1 4115 0 53
0 100 1 3737 1 3490 0 94
0 58 1 3428 0 226 0 829
0 53 1 1305 0 97 1 7345
1 4469 0 74 1 2212 0 46
0 71 1 2280 1 8421 0 154
0 71 1 3155 1 4666 0 92
1 6710 0 373 1 1189 0 57
1 6988 0 95 1 1471 0 65
0 56 1 3060 1 7275 0 197
0 46 1 2382 0 83 1 3727
1 8863 0 181 1 1590 0 62
0 57 1 5628 0 115 1 3229
0 195 0 667 1 2337 0 86
0 161 1 3116 1 5108 0 77
0 59 1 3927 0 1633 0 706
0 101 1 4025 1 3177 0 79
0 49 1 2302 0 122 1 6070
0 47 1 1733 0 94 1 3758
0 58 1 1347 0 141 1 5363
1 7418 0 110 1 3174 0 54
0 89 1 5726 1 5991 0 132
0 73 1 3887 0 178 1 2261
0 90 1 3024 1 3720 0 78
1 6612 0 133 1 2767 0 60
0 84 1 3297 1 3635 0 103
0 46 1 2068 0 68 1 3689
1 8822 0 140 1 2457 0 47
1 4512 0 259 1 2175 0 49
0 73 1 4598 0 3759 0 156
1 4763 0 101 1 2002 0 57
0 110 1 5541 1 5536 0 74
0 56 1 4707 0 117 1 3950
0 199 1 6909 1 2888 0 80
0 87 1 3424 1 7122 0 78
0 71 1 3681 1 5727 0 130
0 87 1 6244 0 556 0 309
0 83 1 2284 1 7496 0 116
0 92 1 6323 1 4413 0 93
1 5001 0 131 1 5533 0 75
0 72 1 6349 1 8140 0 123
1 5389 0 233 1 3307 0 53
0 167 1 4869 1 3335 0 76
0 140 1 3602 1 2543 0 59
0 95 1 3318 1 1922 0 76
0 60 1 2334 0 108 1 4193
0 79 1 3674 1 6061 0 81
1 4825 0 151 1 6010 0 66
0 61 1 5937 0 2475 0 224
1 2528 0 95 1 2704 0 91
0 73 1 1602 1 4231 0 155
0 75 1 1746 1 6876 0 136
0 54 1 1430 0 77 1 4384
0 168 1 4223 1 2839 0 82
0 83 1 2464 1 7978 0 108
0 325 1 6264 1 2032 0 65
0 71 1 3221 1 10654 0 121
0 56 1 3789 1 4436 0 161
0 97 1 4068 1 4202 0 64
0 92 1 2498 1 3226 0 109
0 86 1 2962 1 3792 0 99
0 62 1 3246 1 1421 0 98
0 66 1 3710 1 5526 0 184
0 142 1 6320 1 5061 0 78
1 5927 0 173 1 2508 0 55
0 366 1 10525 1 1881 0 57
0 5144 0 406 1 2502 0 58
1 6108 0 268 1 2951 0 56
0 103 1 6174 1 3425 0 116
0 96 1 6580 1 2936 0 102
0 63 1 4381 1 6779 0 146
0 256 0 763 1 2818 0 61
0 290 1 9235 1 2134 0 55
0 56 1 4311 0 175 1 3381
0 104 1 4420 1 2395 0 71
0 71 1 4684 0 442 1 4733
0 50 1 3283 1 5958 0 294
0 106 1 4144 1 2198 0 76
1 9059 0 203 1 2440 0 96
0 67 1 4000 1 4641 0 152
0 66 1 3778 1 3092 0 82
1 7904 0 123 1 7433 0 58
0 108 1 5456 1 3546 0 77
0 88 1 5172 1 5497 0 86
0 51 1 3094 0 98 1 4956
0 78 1 3068 1 3661 0 134
0 65 1 1097 1 9324 0 157
0 84 1 2486 1 2607 0 82
0 74 1 4718 1 4041 0 72
0 66 1 6711 1 8948 0 118
0 56 1 2634 0 439 0 386
0 113 1 8874 1 1494 0 64
1 5084 0 174 1 3429 0 89
0 74 1 2892 1 4257 0 164
0 86 1 4109 1 9123 0 98
0 70 1 5569 1 6594 0 131
0 118 1 5811 1 4097 0 79
0 157 1 3509 1 6350 0 72
0 140 1 6039 1 6804 0 75
1 2873 0 81 1 1107 0 51
0 51 1 3480 0 73 1 2819
0 99 1 4505 1 1992 0 71
0 54 1 2537 0 171 1 5140
0 117 1 6604 1 1836 0 73
0 68 1 2609 1 6304 0 105
0 41 1 1644 0 57 1 3042
0 110 1 3031 1 2363 0 68
0 175 1 9121 1 3394 0 63
1 5611 0 139 1 4531 0 60
1 3599 0 92 1 4067 0 51
0 63 1 1439 0 119 1 2246
0 60 1 3230 1 3557 0 105
0 90 1 6413 1 2519 0 95
0 67 1 4970 0 331 1 6714
0 50 1 7353 0 258 1 9323
0 95 1 3182 1 3190 0 75
0 54 1 4316 0 235 1 7438
0 84 1 2720 1 2568 0 120
0 49 1 1979 0 164 1 4358
0 65 1 4720 0 166 1 7657
1 2312 0 110 1 2211 0 58
0 121 1 4718 1 2811 0 81
0 80 1 14040 1 6800 0 109
0 66 1 4388 1 6269 0 201
0 114 1 5766 1 3736 0 112
1 4260 0 115 1 2017 0 50
0 1040 0 180 1 3472 0 55
0 99 1 3958 1 3141 0 88
0 87 1 3386 1 2052 0 74
0 142 1 3724 1 2454 0 74
0 57 1 1891 0 150 1 5363
0 93 1 5683 1 6339 0 104
0 150 1 5920 1 3001 0 58
0 82 1 3441 1 7849 0 302
0 61 1 4982 0 332 0 687
0 56 1 3020 0 98 1 4827
0 91 1 5274 1 2549 0 81
0 58 1 1705 0 527 0 662
0 68 1 3490 0 98 1 3610
0 69 1 3213 1 4812 0 87
0 55 1 4175 0 155 1 8022
0 69 1 2151 0 154 1 5699
0 83 1 2642 1 3921 0 144
1 10946 0 151 1 4353 0 46
0 77 1 3556 1 4664 0 92
0 75 1 2625 1 4554 0 128
0 65 1 5160 1 10011 0 224
0 86 1 3421 1 5124 0 111
0 129 1 5761 1 4484 0 82
0 79 1 5138 1 3898 0 87
0 100 1 3853 1 5675 0 111
0 240 1 5423 1 2801 0 53
1 5079 0 153 1 2456 0 59
0 136 1 5759 1 2227 0 74
1 4586 0 342 1 2901 0 65
1 3617 0 106 1 2843 0 52
0 131 1 3948 1 2822 0 68
0 64 1 2293 0 262 1 7448
1 2113 0 99 1 1614 0 51
0 61 1 4165 1 5104 0 155
0 81 1 4286 1 5658 0 79
0 54 1 2901 1 8290 0 346
0 67 1 2641 1 3906 0 122
1 4372 0 160 1 3987 0 64
0 65 1 3096 1 4102 0 90
0 137 1 6466 1 5276 0 63
0 54 1 5202 0 176 1 6105
1 2938 0 233 1 3920 0 72
0 64 1 2778 1 6733 0 164
1 5720 0 86 1 2689 0 49
0 72 1 3193 1 2516 0 118
0 147 1 5207 1 4084 0 89
0 67 1 3744 0 171 0 1459
0 119 1 2207 1 4544 0 60
0 104 1 4035 1 1625 0 71
0 70 1 7624 1 5506 0 91
0 180 1 6346 1 3326 0 55
0 66 1 3011 1 7177 0 114
0 68 1 2769 1 8222 0 370
0 51 1 1935 0 131 1 4254
1 3277 0 194 1 5821 0 57
0 68 1 2899 1 6697 0 179
1 4962 0 187 1 3493 0 58
0 84 1 3337 1 7255 0 141
0 69 1 1288 1 6489 0 168
1 3629 0 116 1 1300 0 52
0 105 1 4364 1 1600 0 58
0 80 1 2579 1 2792 0 103
0 311 1 4924 1 2499 0 56
0 67 1 4459 1 5399 0 381
0 65 1 5644 1 9685 0 394
0 72 1 5695 1 3512 0 95
0 97 1 4601 1 3752 0 70
0 64 1 2327 1 7070 0 146
0 129 1 5460 1 3040 0 90
0 90 1 7887 1 2663 0 76
1 10350 0 314 1 2838 0 65
0 118 1 4116 1 3415 0 78
0 127 1 7979 1 2723 0 98
1 5079 0 82 1 5696 0 46
0 73 1 2185 1 8114 0 161
0 83 1 4780 1 3416 0 123
0 74 1 4404 1 8019 0 81
0 85 1 6120 1 8396 0 79
1 12475 0 274 1 4180 0 73
0 57 1 1739 0 79 1 2476
0 74 1 4147 1 5042 0 251
0 96 1 2635 1 5572 0 107
0 117 1 3195 1 6789 0 74
0 55 1 1786 1 4280 0 106
0 54 1 1440 0 171 1 6940
0 51 1 3412 0 137 1 3354
0 162 1 4322 1 4153 0 61
0 44 1 2144 0 218 1 2587
0 53 1 2741 0 108 1 4725
0 186 0 969 1 1750 0 92
1 4137 0 79 1 1531 0 48
0 65 1 1708 1 4363 0 127
1 5905 0 219 1 3952 0 64
0 71 1 5943 1 5760 0 153
0 61 1 4671 1 3075 0 119
0 126 1 5312 1 1564 0 76
0 98 1 4933 1 2608 0 100
0 101 1 2792 1 2745 0 88
0 72 1 3964 1 5977 0 130
0 69 1 3678 1 4260 0 147
0 316 1 6555 1 5714 0 72
0 49 1 4957 0 563 0 1588
0 68 1 3436 1 4322 0 103
0 80 1 4038 1 4035 0 89
0 114 1 3715 1 3979 0 67
0 96 1 4649 1 3147 0 86
0 69 1 3873 1 5347 0 133
1 5347 0 169 1 1058 0 55
0 141 1 4748 1 2409 0 72
0 98 1 3413 1 4562 0 99
0 81 1 5829 1 6446 0 109
0 136 1 6283 1 2008 0 87
0 49 1 3717 1 5252 0 161
0 62 1 4286 1 7153 0 601
0 71 1 6450 1 5643 0 136
0 139 1 3976 1 2954 0 69
0 204 1 5396 1 4950 0 72
1 5250 0 140 1 3211 0 49
0 87 1 5697 1 2441 0 73
0 198 0 2373 1 1829 0 59
0 62 1 3910 0 170 1 6585
0 117 1 6139 1 2372 0 67
1 7615 0 114 1 1797 0 55
0 352 1 8245 1 2215 0 60
0 87 1 3397 1 6068 0 120
0 76 1 2148 1 10338 0 70
0 50 1 2814 0 245 1 4815
0 993 0 342 1 4950 0 61
0 60 1 4132 1 3020 0 109
0 75 1 9331 1 8576 0 72
0 160 1 6253 1 2259 0 68
0 229 0 2410 1 4230 0 68
0 51 1 2238 0 87 1 5817
0 75 1 2388 0 131 1 3594
0 73 1 3563 1 7133 0 95
0 66 1 3879 1 4111 0 92
0 60 1 2085 0 435 0 780
0 95 1 8938 1 4978 0 70
0 65 1 2252 1 5230 0 141
0 102 1 2614 1 3307 0 76
0 130 1 5202 1 3799 0 66
1 2844 0 103 1 3030 0 56
0 73 1 2603 1 4251 0 123
0 59 1 3049 0 172 1 6474
0 72 1 2222 1 3934 0 201
0 53 1 3286 0 79 1 2666
0 60 1 7667 1 5346 0 182
0 124 1 6115 1 2765 0 70
0 118 1 3996 1 5844 0 74
0 85 1 3010 1 4652 0 105
0 118 1 5001 1 2963 0 77
0 87 1 4184 1 2451 0 91
0 69 1 6144 1 4794 0 105
0 75 1 2766 1 2476 0 131
0 158 1 7516 1 1294 0 94
0 107 1 11854 1 6323 0 80
0 67 1 2605 0 150 1 4539
1 3254 0 250 1 2784 0 55
0 59 1 3407 1 6902 0 157
0 65 1 2518 0 157 1 3426
0 70 1 3729 1 8206 0 129
1 3344 0 95 1 2734 0 56
0 58 1 6078 0 103 1 3863
0 77 1 4676 1 3446 0 74
0 322 1 4875 1 4007 0 66
0 55 1 7836 0 257 1 6727
0 115 1 3472 1 2611 0 87
0 103 1 3170 1 2809 0 99
0 47 1 5582 1 7189 0 248
0 86 1 3094 0 172 1 4450
1 5362 0 187 1 5266 0 60
1 4273 0 94 1 1809 0 53
0 88 1 4096 1 7310 0 138
0 73 1 5196 1 4830 0 106
0 72 1 4218 0 186 1 6000
0 103 1 6140 1 3135 0 81
0 74 1 8095 0 427 1 9772
0 55 1 2090 0 191 1 7025
0 125 1 2645 1 3161 0 60
0 129 1 3141 1 6244 0 82
0 256 1 4247 1 7526 0 63
0 129 1 4484 1 2720 0 80
0 90 1 2978 1 3311 0 133
0 114 1 3575 1 5946 0 123
1 5472 0 148 1 3559 0 58
0 69 1 2903 1 4593 0 140
0 58 1 4344 1 3378 0 142
0 54 1 3124 0 134 1 5888
0 69 1 1897 1 4613 0 148
0 129 1 4211 1 1768 0 69
0 119 1 4417 1 3451 0 80
0 90 1 6147 1 3536 0 101
0 71 1 2883 1 4244 0 160
0 82 1 6212 1 3499 0 89
0 69 1 3597 1 5546 0 111
0 74 1 1496 1 3333 0 106
0 83 1 2610 1 2867 0 84
1 3452 0 89 1 2623 0 45
1 8491 0 163 1 4406 0 60
0 99 1 3214 1 4033 0 101
0 54 1 2346 0 168 1 3076
0 132 1 3813 1 13109 0 72
0 152 1 12682 1 2571 0 76
0 242 1 7489 1 3841 0 64
0 84 1 3144 0 154 1 4503
0 93 1 4235 1 2858 0 121
0 129 1 3261 1 3403 0 53
0 58 1 1505 0 111 1 7907
0 62 1 1772 0 195 0 3125
1 8372 0 176 1 2398 0 62
0 88 1 3847 1 3184 0 142
0 100 1 5526 1 4214 0 72
0 69 1 2819 0 104 1 3928
0 77 1 3014 1 4284 0 142
0 83 1 4260 1 3665 0 95
0 120 1 6081 1 4068 0 76
0 132 1 4911 1 2312 0 57
1 3048 0 72 1 1574 0 63
1 9259 0 214 1 4530 0 54
0 72 1 2798 1 4554 0 166
0 82 1 5923 1 2167 0 120
0 70 1 7472 1 5571 0 89
0 61 1 2288 1 3187 0 119
0 66 1 2821 1 2892 0 135
0 57 1 2823 0 188 1 10183
0 867 0 779 1 3362 0 75
0 132 1 4043 1 4703 0 68
0 98 1 5049 1 1822 0 58
0 68 1 1949 1 5833 0 113
0 137 1 4217 1 2783 0 65
0 101 1 4256 1 2390 0 124
0 100 1 4735 1 4454 0 75
0 107 1 3853 1 3184 0 74
0 95 1 3273 1 3406 0 97
0 87 1 5702 1 3422 0 80
0 61 1 1516 1 3240 0 144
0 63 1 2740 1 4378 0 256
0 83 1 5640 1 5594 0 85
0 72 1 2853 0 151 1 3636
0 53 1 2414 0 63 1 3869
0 89 1 4225 1 3699 0 139
0 139 1 5300 1 2882 0 82
0 357 1 4548 1 3789 0 56
0 98 1 2296 1 4085 0 148
0 94 1 3935 1 5021 0 84
0 73 1 2282 1 7157 0 148
0 123 1 3412 1 2450 0 89
0 140 1 7231 1 2341 0 56
1 2351 0 95 1 4024 0 66
1 3329 0 86 1 4639 0 51
0 64 1 4279 1 5572 0 171
0 96 1 3188 1 2408 0 78
0 62 1 1165 0 130 1 5252
0 147 1 4394 1 3595 0 81
0 815 1 5838 1 3272 0 60
0 134 1 5653 1 1916 0 76
0 73 1 2235 1 4798 0 112
0 55 1 9554 0 137 1 5449
0 134 1 4316 1 2234 0 51
0 50 1 2822 0 107 1 8005
0 74 1 7759 0 277 0 1634
0 56 1 1613 0 174 1 3811
1 4773 0 200 1 3867 0 63
0 75 1 2640 0 251 1 6370
0 82 1 2726 1 5767 0 165
1 5929 0 116 1 2437 0 49
0 58 1 4870 0 136 1 5228
0 91 1 6210 1 7275 0 91
0 53 1 2083 0 112 1 3758
0 101 1 7153 1 4489 0 99
0 54 1 11780 0 222 1 9077
0 83 1 2787 1 2892 0 90
0 86 1 4488 1 4932 0 95
0 50 1 1963 0 65 1 2196
0 78 1 7511 1 3725 0 84
0 52 1 2877 0 392 0 376
0 85 1 3750 1 3982 0 84
0 95 1 2923 1 3630 0 83
0 71 1 6399 1 2938 0 80
0 86 1 3041 1 5065 0 86
0 82 1 4374 1 4914 0 120
0 705 0 225 1 2456 0 66
1 5358 0 144 1 4182 0 63
0 68 1 3259 1 4893 0 117
0 58 1 2204 0 140 1 5251
0 83 1 3881 1 2694 0 109
0 57 1 1600 0 225 1 6312
0 79 1 1625 1 2569 0 137
0 950 0 206 1 3198 0 71
0 77 1 5237 1 4268 0 90
0 77 1 4424 1 2814 0 99
0 83 1 4150 1 5437 0 107
0 103 1 9175 1 3854 0 97
0 106 1 3197 1 2574 0 89
0 113 1 3263 1 3573 0 81
0 147 1 7420 1 3236 0 66
0 83 1 3067 1 3016 0 112
0 92 1 5883 1 4874 0 86
0 602 0 300 1 2568 0 64
1 6037 0 119 1 2080 0 58
0 52 1 4846 0 349 0 3156
1 8184 0 232 1 1874 0 58
0 84 1 2956 1 8070 0 113
0 70 1 2205 1 4930 0 116
0 124 1 9234 1 5051 0 76
