Parameters: seed=629437759, s1=0.001000, s2=0.001000, s3=0.001000, s4=0.001000, e12=-0.200000, e13=0.000000, e14=0.000000, e23=0.000000, e24=0.000000, e34=-0.200000, r12=0.240000, r23=0.240000, r34=0.240000, h12=1, h13=1, h14=1, h23=1, h24=1, h34=1 , n_gen=10000000, n_ind=10000 initial freq: 0.000000 0.000000 0.000000 0.000000 0.000000 0.500000 0.000000 0.000000 0.000000 0.000000 0.500000 0.000000 0.000000 0.000000 0.000000 0.000000
0 124 1 4154 0 1055 0 233
0 307 1 11777 1 4692 0 148
0 213 1 7658 1 4307 0 109
0 334 0 2920 1 4609 0 97
0 253 0 409 1 5706 0 85
0 154 1 5380 1 5751 0 79
0 123 1 5545 0 444 0 3828
0 155 1 6789 1 5595 0 87
0 116 1 3070 1 5127 0 120
0 107 1 3237 1 6432 0 271
0 115 1 2872 1 4626 0 191
0 170 1 3935 1 6693 0 127
0 161 1 5811 1 7321 0 151
0 142 1 4497 0 232 1 4952
0 158 1 5425 1 5143 0 148
0 79 1 4650 1 4920 0 138
0 127 1 3837 0 1164 0 122
0 112 1 4061 1 5855 0 118
0 83 1 4971 0 4273 0 154
0 181 0 1787 1 5522 0 91
0 142 1 7036 1 5079 0 114
0 146 0 3310 1 6133 0 137
0 153 1 6961 1 5117 0 124
0 195 0 1152 1 2779 0 77
0 566 0 509 1 5324 0 112
0 166 0 4062 1 4528 0 136
0 122 1 5862 0 1970 0 302
0 85 1 3101 0 2523 0 322
0 213 1 8914 1 7053 0 105
0 126 0 2477 1 7769 0 178
0 130 1 4650 1 4730 0 98
0 146 1 8033 1 5491 0 80
0 162 1 3868 1 3817 0 153
0 159 1 5026 1 3132 0 256
0 110 1 3764 1 5138 0 143
0 72 1 6303 1 5056 0 137
0 97 1 6600 1 4764 0 110
0 152 1 5359 1 3423 0 256
0 88 1 6558 1 6833 0 115
0 89 1 5644 0 336 0 663
0 853 0 705 1 4962 0 95
0 139 1 6985 1 6755 0 141
0 205 0 744 1 3336 0 129
0 120 1 4554 1 4821 0 106
0 110 1 5060 1 9677 0 225
1 5123 0 231 1 3526 0 105
0 160 0 1338 0 917 0 327
0 203 0 1250 1 4922 0 73
0 101 1 5943 1 7279 0 206
0 220 1 3768 1 3207 0 111
0 96 1 4690 1 3961 0 117
0 391 1 5016 1 7084 0 101
0 114 1 5130 1 11444 0 95
0 91 1 6695 1 7056 0 89
0 149 1 5888 1 7534 0 105
0 94 1 6093 1 3890 0 174
0 147 1 5668 1 6197 0 193
0 357 1 4636 1 7072 0 138
0 130 1 4459 1 5014 0 126
0 79 1 6255 0 1232 0 236
0 103 1 3867 0 1081 0 125
0 123 1 7605 1 6320 0 253
0 80 1 5983 1 3858 0 108
0 85 1 4247 1 6427 0 171
0 144 1 6672 1 5250 0 143
0 225 1 6827 1 4449 0 117
0 117 1 8311 0 2717 0 160
0 103 1 6361 1 9732 0 179
0 356 1 4996 1 6979 0 103
0 97 1 5934 1 4458 0 187
0 116 1 5675 0 244 1 7288
0 249 0 976 1 3812 0 98
0 648 1 8556 1 4020 0 157
0 161 1 4190 1 6209 0 79
0 81 1 3743 0 175 0 948
0 398 1 5484 1 4971 0 113
1 9011 0 271 1 6687 0 86
0 60 1 6887 1 6731 0 302
0 266 1 9238 1 5544 0 153
0 83 1 6875 1 4936 0 215
0 114 1 4478 1 4716 0 263
0 151 1 4499 1 5920 0 101
0 68 1 5432 1 8908 0 126
0 139 1 5718 1 4687 0 144
0 107 0 2640 1 2909 0 100
0 111 1 3414 1 6399 0 307
1 11970 0 284 0 1243 0 148
0 85 1 5082 1 6150 0 112
0 184 1 10792 1 4744 0 132
0 86 1 4065 1 6174 0 143
0 125 1 6181 1 3810 0 122
0 100 1 4217 1 3927 0 134
0 138 1 3562 1 3971 0 161
0 210 0 1724 1 3264 0 88
0 97 1 5141 1 4137 0 109
0 254 0 2976 1 4156 0 106
0 94 1 6868 0 581 0 256
0 145 1 3244 1 6009 0 119
0 91 1 7482 0 174 0 1097
0 172 1 6238 1 9622 0 98
0 1502 0 216 1 5952 0 75
0 219 1 6837 0 4239 0 138
0 93 1 4013 1 6271 0 154
0 242 0 2117 1 8940 0 157
0 126 1 4632 1 5183 0 170
0 310 0 633 1 7520 0 105
0 379 0 165 1 6188 0 120
0 308 0 351 1 7210 0 166
0 119 1 10305 1 5937 0 285
0 125 1 4987 0 324 0 805
0 152 1 5283 1 7309 0 111
0 141 1 7079 1 3836 0 204
0 126 1 9856 1 7004 0 106
0 222 0 327 1 3668 0 109
0 132 1 6410 1 5963 0 104
0 132 1 4327 1 5091 0 99
0 463 1 4518 1 6056 0 117
0 82 1 4917 1 3580 0 256
0 71 1 6404 0 339 0 315
0 129 1 5706 1 4951 0 113
0 87 1 5017 0 97 1 7649
0 105 1 4951 1 8897 0 200
0 105 1 4415 0 1052 0 164
0 117 1 6086 1 2667 0 86
0 121 1 5673 1 6279 0 154
0 141 1 4334 0 2073 0 334
0 127 1 7275 0 361 1 10728
0 288 0 620 1 5725 0 98
0 77 1 4721 1 7468 0 212
0 104 1 5490 1 7581 0 158
0 144 1 5558 1 5327 0 90
0 184 1 6034 1 4194 0 121
0 127 1 6580 1 5554 0 116
0 178 1 5571 1 5499 0 168
0 1655 0 255 1 3711 0 82
0 105 1 7791 1 4708 0 302
0 126 1 6038 1 6144 0 90
0 74 1 4240 0 2017 0 149
0 149 1 8024 1 3420 0 110
0 118 1 5510 1 4763 0 102
0 239 1 5460 1 8575 0 164
0 148 1 8822 1 2858 0 88
0 158 1 7559 1 10974 0 109
0 318 0 1892 1 5121 0 87
0 92 1 4910 1 5185 0 132
0 81 1 6573 1 5313 0 243
0 179 1 4162 1 4187 0 138
0 127 1 9736 1 5771 0 91
0 145 1 8727 1 5827 0 100
0 165 1 5602 1 3718 0 91
0 162 1 3349 0 1573 0 123
0 121 1 10000 1 7421 0 202
0 82 1 4643 1 6615 0 162
0 432 0 1864 1 5522 0 96
0 85 1 3216 1 4827 0 196
0 67 1 4377 1 4032 0 269
0 91 1 9573 1 4451 0 97
0 242 1 4794 1 6032 0 79
0 105 0 3226 0 226 1 5218
0 102 1 4900 1 3723 0 69
0 145 1 4503 1 3298 0 91
0 64 1 3627 1 9757 0 456
0 235 1 5066 1 2534 0 84
0 244 1 6295 1 6089 0 77
0 133 1 7005 0 1836 0 143
0 123 1 4506 1 4694 0 174
0 92 1 8223 1 7130 0 134
0 96 1 4220 1 3677 0 218
0 97 1 4925 0 284 0 625
0 144 0 2753 1 6315 0 107
0 81 1 4801 1 4726 0 111
0 132 1 4170 0 1120 0 126
0 191 1 4621 1 5780 0 79
0 182 0 636 1 5178 0 351
0 138 1 5488 0 842 0 944
0 228 0 1011 1 6812 0 70
0 233 1 5927 1 4458 0 120
0 109 1 3716 1 5169 0 172
0 92 1 7411 1 5224 0 164
0 130 1 3654 1 6339 0 127
1 9606 0 164 1 9532 0 88
0 91 1 4135 0 883 0 560
0 172 1 9278 0 1143 0 136
0 83 1 4342 0 1679 0 218
0 162 1 4184 1 6771 0 82
0 108 1 3905 1 3529 0 89
0 388 0 1088 1 2069 0 114
0 116 1 6850 1 5897 0 115
0 170 1 5278 1 4587 0 123
0 115 1 8531 1 6014 0 159
0 136 1 5458 0 2127 0 230
0 205 1 6034 1 3043 0 87
0 261 0 12122 1 6183 0 113
0 115 1 4180 1 7161 0 162
0 67 1 7401 1 4579 0 378
0 162 1 5034 0 501 0 452
0 161 1 6637 1 5592 0 237
0 95 1 11985 1 8572 0 191
0 116 1 5827 1 5331 0 88
0 106 1 4776 0 472 0 688
1 5558 0 137 1 6350 0 80
0 181 1 6407 0 1216 0 148
0 117 1 6570 1 7224 0 120
0 377 0 643 1 7558 0 79
0 172 1 7080 1 3860 0 101
0 67 1 3324 1 4191 0 120
0 262 1 5342 1 4110 0 164
0 95 1 6823 1 2965 0 138
0 90 1 5362 1 4232 0 98
0 142 1 6114 1 3752 0 76
0 255 0 736 1 10868 0 114
0 112 1 7253 1 3292 0 88
0 85 1 6834 1 3466 0 125
1 5385 0 205 1 5783 0 111
0 201 1 5863 1 4927 0 128
1 4877 0 386 1 5972 0 111
0 119 1 3689 1 5234 0 155
0 84 1 2473 1 4787 0 135
0 177 1 6437 1 6747 0 93
0 136 1 3946 1 9831 0 81
0 135 1 6215 1 5077 0 103
0 78 1 6361 1 5845 0 155
0 123 1 8030 0 236 1 8225
0 114 1 4675 1 4867 0 169
0 96 1 4174 1 8508 0 147
0 132 1 5771 1 5151 0 102
0 88 1 3567 0 141 1 4806
0 114 1 5430 1 5690 0 98
0 151 1 4920 1 6537 0 191
0 125 1 5911 1 5269 0 138
0 307 0 707 1 3069 0 104
0 85 1 6043 1 4872 0 185
0 139 1 8938 1 9348 0 169
0 98 1 4178 1 3688 0 112
0 299 0 1469 1 9776 0 185
0 135 1 4856 1 8110 0 108
0 118 1 6349 1 8316 0 203
0 93 1 4914 0 210 0 2668
0 84 1 4932 1 6794 0 155
0 171 1 8776 1 5293 0 95
0 86 1 6855 0 566 0 244
0 508 0 676 1 3017 0 77
0 551 0 395 1 9023 0 118
0 93 1 3229 0 719 0 404
1 5205 0 245 1 2782 0 90
0 88 1 6325 1 7694 0 144
0 713 0 3127 1 5546 0 395
0 133 1 4972 1 5247 0 110
0 154 1 6401 1 6426 0 89
0 101 1 5282 1 5236 0 129
0 168 0 1071 1 6169 0 84
0 120 1 9585 0 568 1 13586
0 159 1 5986 1 7058 0 221
0 157 1 5911 1 7917 0 165
0 132 1 8343 1 4973 0 95
0 94 1 4578 1 3786 0 138
0 136 1 5253 1 5907 0 185
0 129 1 4363 1 7591 0 101
1 9486 0 315 0 568 0 178
0 105 1 4555 1 5128 0 132
0 75 1 5382 1 3670 0 281
0 115 1 6815 1 11342 0 97
0 125 1 5670 1 4312 0 148
0 77 1 5052 1 2657 0 110
0 86 1 2211 1 5850 0 238
0 150 0 2831 1 6782 0 218
0 82 1 4833 0 650 0 2691
0 171 1 4322 1 6024 0 99
0 90 1 6597 1 6791 0 187
0 63 1 4253 1 7482 0 180
0 124 1 5396 1 4071 0 177
0 87 1 5628 1 3544 0 138
0 150 1 8851 1 3202 0 106
0 93 1 4711 1 9014 0 132
0 140 1 7885 1 4791 0 88
0 164 1 6470 1 5685 0 221
0 72 1 3389 1 4812 0 136
0 122 1 7327 1 8899 0 112
0 114 1 5862 1 7537 0 159
0 72 1 4459 0 2156 0 235
0 98 1 7919 1 4546 0 84
0 259 0 408 1 5704 0 95
0 209 1 5021 1 4987 0 120
0 396 1 8168 1 4941 0 223
0 159 1 3523 1 4949 0 99
0 77 1 3484 1 8591 0 419
0 94 1 5998 0 1071 0 244
0 98 1 3624 1 3195 0 97
0 164 1 3020 1 2735 0 91
0 227 1 5909 1 4960 0 119
0 185 1 7217 1 3853 0 103
0 105 1 3754 1 7093 0 271
0 71 1 5415 0 211 1 8604
0 103 1 7996 0 434 0 746
0 65 1 5313 0 126 1 7238
0 108 1 3640 1 12998 0 175
0 148 0 1454 1 5620 0 183
0 1658 0 387 1 5558 0 89
0 122 1 8690 0 588 0 272
0 270 0 746 1 2384 0 79
0 105 1 3551 1 4741 0 132
0 96 1 6085 1 6573 0 260
0 107 1 7079 0 3181 0 294
0 107 1 5824 1 5437 0 152
0 76 1 3916 1 5998 0 241
0 81 1 6083 1 3369 0 123
0 234 1 7832 1 5212 0 130
0 114 1 4998 1 7965 0 159
0 104 1 4321 1 5780 0 113
0 97 1 4278 1 5894 0 150
0 101 1 8518 1 3875 0 321
0 119 1 4442 1 4660 0 195
0 133 1 3665 1 5445 0 128
0 110 1 6048 1 3132 0 71
0 162 1 3828 1 3683 0 121
0 82 1 4195 1 4084 0 125
0 99 1 6748 1 5254 0 154
0 181 1 5526 1 3783 0 484
0 210 1 9326 1 7451 0 99
0 142 1 9399 1 6028 0 190
0 220 1 10641 1 3927 0 250
0 142 1 6221 0 886 0 117
0 123 0 3799 1 6928 0 115
0 123 1 7233 1 8638 0 109
0 130 1 3765 1 7297 0 182
0 119 1 12994 1 4418 0 120
0 142 1 3756 1 4155 0 147
0 163 1 6126 1 4427 0 109
0 114 1 5291 1 3904 0 64
0 81 1 4783 0 1747 0 218
0 156 1 6359 1 12758 0 77
0 122 0 511 1 3842 0 97
0 124 0 3279 1 4989 0 126
0 92 1 4389 1 2914 0 127
0 164 0 2852 1 7511 0 129
0 82 1 3622 1 6277 0 313
0 351 0 401 0 1201 0 140
0 144 1 3051 1 5843 0 129
0 115 1 9300 1 6321 0 149
0 99 1 2751 1 3455 0 130
0 109 1 3061 1 4367 0 80
0 178 1 5664 0 1227 0 163
0 180 1 4182 1 4811 0 71
0 127 1 4224 1 3232 0 100
0 308 1 6718 1 9146 0 131
0 87 1 3288 0 1420 0 454
0 101 1 6465 1 5408 0 203
0 317 0 467 1 5348 0 111
0 113 1 9604 1 4413 0 173
0 114 1 6803 1 5364 0 202
0 111 1 3989 0 513 0 291
0 126 1 4208 0 503 0 882
0 115 1 5135 0 867 0 520
0 209 1 6136 1 6078 0 97
0 176 1 5690 1 4109 0 89
0 143 1 12592 1 5668 0 95
0 135 1 6900 1 4732 0 63
0 171 1 8436 0 1367 0 178
0 231 1 4909 1 3926 0 85
0 131 1 4581 1 4447 0 110
0 88 1 5763 1 3399 0 81
0 144 1 5265 1 5621 0 89
0 182 1 6746 1 6272 0 210
0 116 0 1207 1 4072 0 73
0 121 1 5217 1 4569 0 128
1 8493 0 202 1 4279 0 78
0 163 1 5024 1 3510 0 111
0 270 0 1910 1 5245 0 156
0 137 1 3782 1 6779 0 130
0 108 1 5813 1 4346 0 120
0 99 1 4322 1 5405 0 124
0 431 0 531 1 8579 0 103
0 369 1 4625 1 7417 0 79
0 218 1 4526 1 8070 0 189
0 96 1 9897 1 7621 0 310
0 330 0 570 1 3409 0 106
0 89 1 5079 1 5031 0 98
0 118 1 3760 1 7994 0 222
0 102 1 5131 1 7468 0 126
0 213 1 5043 1 3316 0 107
0 80 1 9573 1 6994 0 134
0 180 1 8118 1 4004 0 131
0 177 0 3565 1 6211 0 107
0 94 1 3468 1 7561 0 472
0 128 1 11940 1 4802 0 185
0 95 0 4424 1 3795 0 87
0 151 1 5319 1 3637 0 86
0 149 1 9903 1 6985 0 165
0 183 1 9020 1 7014 0 94
0 260 1 8459 1 2718 0 81
0 110 1 10224 0 401 0 346
0 138 1 3332 1 5676 0 87
0 205 0 3807 1 3718 0 100
0 84 1 3068 0 291 1 7000
0 113 1 4103 0 2027 0 245
0 103 1 5262 0 2190 0 281
0 78 1 6720 1 8295 0 183
0 97 1 5985 1 9211 0 106
0 88 1 4283 1 6815 0 105
0 174 1 5891 1 5384 0 150
0 196 1 3176 1 4625 0 128
0 138 1 5055 1 4444 0 104
0 198 1 5669 1 4348 0 156
0 114 1 7446 1 4077 0 110
0 88 1 4412 1 4921 0 118
0 164 1 5368 1 3349 0 92
0 515 1 4836 1 3937 0 58
0 183 0 2260 0 2161 0 141
0 1184 0 425 1 3235 0 77
0 85 1 2894 1 7659 0 237
0 140 1 5010 1 6113 0 77
0 232 1 4967 1 9114 0 104
0 150 1 6036 1 5317 0 196
0 105 1 7234 1 4649 0 156
0 909 0 455 1 7519 0 89
1 11254 0 619 1 6355 0 119
0 106 1 4494 1 3929 0 90
0 93 1 5771 0 291 0 674
0 102 1 3660 0 220 0 2059
0 123 1 3220 1 4864 0 107
1 8116 0 317 1 2459 0 80
0 119 1 3634 1 9568 0 124
0 96 1 5086 1 6122 0 148
0 174 1 4094 1 6030 0 108
0 89 1 6655 1 4106 0 158
0 98 1 6269 1 4913 0 113
0 163 1 6313 1 8248 0 82
0 75 1 5421 1 4521 0 214
0 240 0 1212 1 3966 0 64
0 106 1 6732 1 4366 0 69
0 81 1 8119 1 6531 0 117
0 401 1 9908 1 4403 0 179
0 110 1 6229 1 2646 0 75
0 62 1 7878 1 6439 0 211
1 5320 0 166 1 3890 0 142
0 265 1 9412 1 9127 0 171
0 91 1 2732 0 399 1 6046
0 112 1 5498 1 5845 0 99
0 171 1 6652 1 7495 0 78
0 188 1 11386 0 2867 0 178
0 87 1 2700 0 3360 0 374
0 91 1 2701 0 119 1 6775
0 121 1 3253 1 4514 0 148
0 281 0 2687 1 9329 0 84
0 203 1 9007 1 7534 0 82
0 210 1 5548 1 7039 0 145
0 91 1 3161 0 4372 0 209
0 183 0 1317 1 5571 0 69
0 103 1 3173 1 4996 0 166
0 100 1 4888 0 724 0 773
0 77 1 4289 1 2987 0 75
0 143 1 5674 1 5064 0 88
0 149 1 7044 1 8663 0 158
0 91 1 2823 1 4780 0 157
0 295 1 9094 0 1657 0 368
0 134 1 5624 0 248 0 2583
0 98 1 5338 1 5555 0 94
0 122 1 5202 1 3398 0 88
0 110 1 7000 1 5367 0 239
0 127 1 5810 1 4581 0 144
0 140 1 6953 1 6492 0 115
0 303 1 5549 1 4812 0 88
1 7822 0 557 1 3727 0 101
0 87 1 6051 1 5735 0 165
0 202 1 9078 1 4677 0 122
0 182 0 975 1 4775 0 79
0 82 1 4267 0 918 0 1012
0 118 1 8673 1 4904 0 229
0 251 1 5490 0 1186 0 138
0 2591 0 126 1 9565 0 118
0 113 1 7223 1 3568 0 170
0 217 0 2897 1 6724 0 73
1 7213 0 314 0 1622 0 166
0 154 1 5853 1 6635 0 164
0 197 1 12396 0 885 0 125
0 114 1 4471 1 2700 0 99
0 196 1 6234 1 6223 0 85
0 132 1 4654 1 8012 0 81
0 127 1 4924 1 11817 0 84
0 111 1 3707 1 6328 0 97
0 170 0 1778 1 4266 0 80
0 116 0 906 1 5638 0 110
0 84 1 4865 1 5898 0 198
0 96 1 5047 1 4348 0 92
0 133 1 4195 1 4945 0 164
0 78 1 4535 1 6433 0 455
0 115 1 7474 1 3598 0 83
0 100 1 6392 0 306 1 5409
0 217 1 6394 1 6919 0 108
0 161 1 5231 1 7124 0 141
0 149 1 5276 1 4479 0 87
0 141 1 7517 1 5877 0 261
0 153 1 12787 1 4896 0 277
0 127 1 5325 1 8385 0 100
0 122 1 5827 1 7323 0 133
0 135 1 2961 1 2709 0 75
0 135 1 7962 1 3164 0 88
0 109 1 4366 1 6863 0 118
0 104 1 3801 0 241 1 7330
0 104 1 2883 1 6990 0 181
0 99 1 4905 1 4055 0 165
0 264 1 4366 1 2353 0 108
0 111 1 4161 0 1177 0 273
0 167 1 6125 1 9229 0 144
0 81 1 6736 1 4743 0 101
0 149 1 6644 1 4378 0 156
0 111 1 4786 1 3962 0 106
0 266 1 9980 1 6898 0 71
0 186 1 3323 0 167 1 8683
0 1348 0 190 1 9433 0 104
0 126 1 6141 1 8304 0 129
0 128 0 728 1 7200 0 140
0 122 1 6430 1 6763 0 449
0 106 1 4763 1 4097 0 95
0 262 1 5398 1 5951 0 320
0 128 1 3030 1 7736 0 115
0 112 1 2216 0 1592 0 235
0 102 1 3973 1 7371 0 194
0 133 1 5131 1 6174 0 189
0 638 0 345 1 6925 0 117
0 144 1 4717 1 3911 0 110
0 88 1 3385 1 5381 0 198
1 6223 0 274 1 6150 0 69
0 160 1 5166 1 5972 0 266
0 989 0 323 1 5680 0 69
0 85 1 5207 1 5332 0 136
0 180 0 1293 1 6051 0 225
0 191 1 6855 0 956 0 124
0 152 1 11539 1 3790 0 91
0 77 1 4509 0 528 1 6187
0 117 1 2963 1 6096 0 122
0 105 1 3624 1 5499 0 280
0 76 1 3676 1 3826 0 132
0 108 1 8390 1 5471 0 88
0 80 1 4103 1 4567 0 78
0 149 1 6336 0 241 0 619
0 138 1 2967 1 6535 0 429
0 132 1 6314 0 957 0 135
0 158 1 5634 1 9532 0 106
0 71 1 3490 0 271 0 975
0 151 1 5732 1 3966 0 126
0 129 0 1355 1 6904 0 115
0 131 1 7847 1 3888 0 86
0 107 1 5658 1 3900 0 399
0 96 1 5868 1 7092 0 111
0 308 1 9015 1 4240 0 91
0 85 1 8010 1 6681 0 140
0 89 1 5530 0 416 0 1100
0 166 0 1270 1 4760 0 88
0 128 1 4271 1 3652 0 91
0 173 1 7116 1 7853 0 161
0 96 1 2294 1 3514 0 145
0 378 1 4425 1 6630 0 101
0 150 1 7572 1 6465 0 437
0 141 0 2341 1 4562 0 139
0 166 0 1382 1 7773 0 119
0 110 1 3188 0 206 0 1661
0 133 1 7134 1 5470 0 90
0 182 1 9748 1 4428 0 171
0 211 1 5914 1 4962 0 118
0 108 1 7297 1 5944 0 286
0 125 1 5026 1 9813 0 155
0 60 1 4575 0 455 0 1386
0 82 1 2003 0 2068 0 252
0 67 1 4750 1 4221 0 164
0 158 1 3854 1 5492 0 82
0 92 1 3831 1 7146 0 82
0 131 1 10125 1 7000 0 148
0 134 1 5901 1 4322 0 99
0 144 1 3701 0 511 0 446
0 101 1 6535 1 4314 0 191
0 175 1 4796 1 4140 0 140
0 117 1 10219 1 6303 0 79
0 83 1 4823 1 5178 0 135
0 146 1 4285 0 299 0 715
0 102 1 4623 0 439 0 357
0 339 0 1495 1 5529 0 92
0 78 1 4510 1 4265 0 300
0 132 1 7626 1 5903 0 223
0 157 1 6345 1 3089 0 76
0 111 1 8299 1 4249 0 148
0 106 1 3785 1 9935 0 137
0 261 0 2932 0 3234 0 120
0 332 1 8777 1 4918 0 135
0 300 1 6648 1 4813 0 151
0 118 1 4420 0 445 0 359
0 265 1 6157 1 4584 0 72
0 96 1 6419 1 3993 0 103
0 198 1 5616 1 2600 0 111
0 117 1 8972 0 214 1 5380
0 182 0 3392 1 7342 0 144
0 158 1 6991 1 3424 0 75
0 170 1 4078 1 8634 0 148
0 169 1 8935 1 5878 0 440
0 144 1 5214 1 4743 0 88
0 103 1 4729 1 4208 0 162
0 426 0 255 1 6827 0 110
0 835 0 814 1 5992 0 84
0 2300 0 486 1 3039 0 72
0 81 1 2876 0 180 1 7826
0 143 1 4412 1 5523 0 86
0 127 1 8547 0 277 1 9141
0 136 1 7050 1 6437 0 178
0 95 1 6844 1 6502 0 174
0 356 1 8498 1 4131 0 76
0 284 0 750 1 4650 0 102
0 191 1 7007 1 4634 0 95
1 7256 0 158 1 4783 0 72
0 128 1 14869 1 6111 0 148
0 156 1 6163 0 1579 0 136
0 73 1 4068 0 291 0 3498
0 131 1 3531 1 6276 0 110
0 90 1 5096 1 4966 0 262
0 235 1 7768 1 5820 0 77
0 94 1 5400 1 3244 0 84
0 137 1 8822 0 1665 0 316
0 104 1 5865 1 5256 0 124
0 173 1 6005 1 5442 0 179
0 139 1 5099 0 1996 0 102
0 112 1 3274 1 4382 0 111
0 192 1 4848 1 5014 0 121
0 88 1 7083 1 4802 0 104
0 238 1 6044 1 2706 0 120
0 230 0 697 1 3535 0 88
0 69 1 4907 0 266 0 356
0 173 1 7285 1 7109 0 73
0 78 1 5818 0 197 1 4265
0 168 1 6621 1 7153 0 87
0 777 0 506 1 4481 0 93
0 187 1 4547 0 1588 0 153
0 60 1 4115 0 196 1 7531
0 285 1 8795 1 4098 0 79
0 97 1 3621 1 7037 0 146
0 210 1 11459 1 4479 0 91
0 86 1 4255 0 264 0 1474
0 171 1 5282 1 5826 0 98
0 138 1 4851 1 6164 0 112
0 327 1 8753 1 8008 0 92
0 224 1 11109 1 5352 0 82
0 125 1 4132 1 4629 0 246
0 943 0 483 1 8610 0 91
0 119 1 4368 1 3090 0 69
0 93 1 5752 1 4221 0 114
0 107 1 6003 1 5444 0 85
0 74 1 4926 1 9519 0 243
0 307 1 4344 1 4323 0 87
0 126 1 2758 1 8511 0 127
0 143 1 6512 1 5882 0 118
0 201 1 5534 0 377 0 1054
0 154 1 9275 1 3225 0 106
0 128 1 5948 1 4875 0 89
0 109 1 4195 1 5957 0 185
1 10271 0 272 1 10036 0 159
0 291 0 340 1 5101 0 124
0 329 1 9510 1 3980 0 99
0 101 1 7243 1 5512 0 103
0 102 1 4208 1 6729 0 193
1 8010 0 705 1 5365 0 99
0 121 1 4857 1 3742 0 103
0 101 1 3366 1 4661 0 118
0 71 1 7041 1 8648 0 361
0 93 1 5695 1 6319 0 118
0 92 1 2938 0 1575 0 354
0 96 1 5858 1 5037 0 78
0 93 1 4517 1 4759 0 119
0 136 1 4662 1 4066 0 173
0 143 0 1831 0 529 0 2499
0 112 1 4265 1 5035 0 87
0 242 1 4651 1 5007 0 297
0 154 1 6041 1 4908 0 105
0 75 1 4732 1 4736 0 146
0 89 1 3944 1 4777 0 172
0 220 1 8051 1 6245 0 91
0 88 1 5497 0 308 1 6951
0 78 1 5337 0 123 1 5198
0 162 1 3371 1 5194 0 89
0 188 1 12195 1 4989 0 113
0 220 0 1312 1 8141 0 84
0 169 1 4526 0 245 1 9095
0 132 0 1428 1 3330 0 163
0 131 1 6792 1 5197 0 128
0 201 0 1726 1 5775 0 74
0 69 1 4219 1 4863 0 272
0 103 1 4251 1 2868 0 121
0 98 1 7006 0 133 1 5525
0 91 1 4232 0 513 0 1046
0 117 0 1355 1 4456 0 91
0 150 1 5877 1 3902 0 154
0 107 1 10732 1 7709 0 143
0 79 1 4748 1 3363 0 185
0 140 1 6929 1 9718 0 170
0 733 0 445 1 4574 0 79
0 68 1 3548 0 449 0 313
0 119 1 3504 1 5052 0 76
0 104 1 10177 1 8150 0 131
0 139 1 4262 1 5182 0 127
0 106 1 8846 1 6015 0 141
0 128 1 8080 1 4194 0 165
0 71 1 3566 1 4458 0 143
0 232 1 9636 1 7228 0 207
0 107 1 2789 1 8157 0 159
0 113 1 5871 1 3181 0 134
0 100 0 829 1 5781 0 112
0 118 1 5458 1 6577 0 144
0 113 1 7007 1 5557 0 109
0 115 1 3415 1 5766 0 193
0 93 1 5419 0 173 1 4519
0 126 1 5562 1 6502 0 101
0 118 0 755 1 5151 0 92
0 80 0 2927 1 4595 0 114
0 280 1 6298 1 3795 0 75
0 151 1 5261 1 2524 0 88
1 6540 0 356 1 3514 0 106
0 610 0 963 1 5648 0 84
0 86 1 2636 1 5636 0 162
0 148 1 7422 1 5029 0 207
1 2758 0 274 1 3623 0 94
0 102 1 2716 1 5697 0 95
0 76 1 7565 0 3857 0 175
0 295 0 647 1 5159 0 109
0 192 0 725 1 5024 0 83
0 175 1 7290 1 4095 0 130
0 121 1 7638 1 7528 0 102
0 145 1 15405 1 4831 0 123
0 86 1 8001 1 7134 0 167
0 75 1 4477 1 5198 0 156
0 135 1 9447 1 7654 0 90
0 103 1 3839 0 350 0 1416
0 133 1 8184 1 4835 0 117
0 152 0 898 1 6018 0 183
0 196 1 5080 1 5163 0 73
1 10457 0 168 1 3331 0 70
0 85 1 3265 1 4390 0 200
0 114 1 3299 1 7228 0 120
0 150 1 3396 1 6401 0 95
0 122 1 3233 0 1262 0 219
0 167 1 4018 1 3603 0 105
0 215 0 1103 1 4195 0 91
0 145 1 5546 1 5719 0 126
0 108 1 4416 0 3687 0 119
0 102 1 9170 1 5394 0 87
0 131 1 4374 1 3181 0 117
0 96 1 4386 0 469 0 482
0 114 1 6742 0 2206 0 160
0 114 1 7168 1 5298 0 77
0 88 1 3982 0 209 1 7413
0 108 1 5652 1 3773 0 91
0 122 1 5925 0 1848 0 385
0 75 1 3282 1 4982 0 156
0 120 1 7300 1 5073 0 159
0 107 1 5735 1 3450 0 88
0 163 1 8950 1 6929 0 160
0 137 1 5277 1 5386 0 126
0 92 1 5229 1 4668 0 192
0 103 1 4397 0 243 0 290
0 187 1 6451 0 739 0 294
0 113 1 5050 1 6118 0 103
0 73 1 6958 0 321 1 4914
0 79 1 4615 1 5404 0 251
0 67 1 6437 0 132 0 1016
0 217 1 5566 1 4089 0 63
0 128 0 1495 0 640 0 921
0 91 1 7419 1 2377 0 142
0 186 0 2329 1 3294 0 196
0 70 1 5373 1 4931 0 244
0 484 0 600 1 10356 0 126
0 143 1 5054 0 5820 0 129
0 299 1 7404 1 5273 0 85
0 96 1 4143 0 236 1 6419
0 138 1 5706 1 5760 0 211
0 122 1 4498 1 4492 0 109
0 101 1 3361 1 3880 0 102
0 144 1 6063 1 5407 0 157
0 187 1 6380 1 2979 0 113
0 175 0 1718 0 1962 0 120
0 124 1 4991 1 5563 0 136
0 79 1 4030 1 6722 0 172
0 93 1 6244 1 7720 0 302
0 81 1 4834 1 7247 0 114
0 89 1 3155 1 7334 0 95
0 126 1 7282 0 1436 0 138
1 6208 0 151 1 5218 0 89
0 225 1 6106 1 7848 0 94
0 146 1 9837 1 9750 0 76
0 233 0 1480 1 7167 0 101
0 77 1 4752 1 3923 0 201
1 3113 0 171 1 6224 0 82
0 80 1 3385 1 5409 0 304
0 158 1 6580 1 6822 0 110
0 245 1 7113 1 3883 0 99
0 105 1 8224 1 14477 0 256
0 80 1 2912 0 245 1 5085
0 81 1 7651 1 7652 0 197
0 175 0 446 1 5515 0 159
0 160 1 3740 0 1434 0 132
0 108 1 5199 1 4600 0 146
0 85 1 8864 1 3649 0 108
0 204 0 1379 1 2811 0 64
0 75 1 4839 0 1806 0 134
0 112 1 6319 1 7197 0 369
1 7969 0 521 1 6152 0 116
0 138 1 8327 1 4000 0 155
0 95 1 7677 1 5879 0 278
0 225 0 943 1 6884 0 110
0 123 1 8929 1 6944 0 114
0 189 1 5008 1 5282 0 95
0 102 1 6206 1 5223 0 117
0 220 1 7284 1 4928 0 71
0 213 0 1805 1 3708 0 170
0 73 1 3429 0 322 0 600
0 61 1 2405 1 6025 0 289
0 163 0 1089 1 5476 0 104
0 114 1 3664 1 3303 0 116
0 92 1 2619 0 3942 0 154
0 100 1 4498 0 1652 0 236
0 449 1 5499 1 3230 0 134
0 152 1 7994 1 8812 0 133
0 194 1 4796 1 8035 0 103
0 88 1 6222 0 340 0 831
0 136 1 3483 1 4728 0 147
0 229 1 5217 0 984 0 123
0 585 0 341 1 7461 0 66
0 153 1 4691 1 4417 0 140
0 241 0 934 1 4796 0 123
0 260 1 4249 1 7680 0 111
0 130 1 6608 1 3237 0 70
0 127 1 10866 1 3983 0 146
0 312 0 371 1 3680 0 62
0 159 1 5562 0 779 0 843
0 294 1 9897 1 5721 0 149
0 153 1 5452 0 2847 0 151
0 241 1 8261 1 2973 0 97
0 751 0 479 1 4297 0 148
0 102 1 8615 0 758 0 166
0 107 1 8044 1 7420 0 166
0 155 1 6086 1 10925 0 345
0 275 1 4938 1 3846 0 188
0 94 1 5821 1 6712 0 283
0 90 1 3031 0 909 0 246
0 182 1 6005 1 8643 0 152
0 111 1 3831 1 5509 0 103
0 84 1 3617 1 7673 0 129
0 102 1 3852 1 6541 0 193
0 66 1 3841 0 683 0 322
0 114 1 3694 1 3976 0 177
0 2405 0 319 1 3773 0 93
0 111 1 4796 1 6174 0 123
0 99 1 3522 1 3456 0 86
0 86 1 4055 1 6943 0 126
0 85 1 4785 1 6203 0 130
0 108 1 5383 1 5378 0 92
0 66 1 3400 1 4188 0 157
0 188 1 3847 1 8861 0 358
0 62 1 4461 0 1154 0 683
0 103 1 5510 1 3363 0 253
0 124 1 7085 1 2385 0 149
0 134 1 6295 1 3620 0 115
0 205 0 1991 1 7984 0 119
0 102 1 2715 1 4602 0 108
0 143 1 7614 0 1313 0 114
0 123 1 4270 1 5998 0 142
0 135 1 6652 1 7036 0 118
0 194 1 4620 1 4217 0 205
0 109 1 5579 0 2537 0 202
0 130 1 7860 1 6147 0 93
0 113 1 8985 1 5516 0 157
0 195 1 9047 1 4380 0 89
0 89 1 5199 1 7135 0 114
0 117 1 5013 1 4017 0 113
0 122 1 7290 1 4664 0 180
0 104 1 7814 1 7466 0 146
0 383 0 835 1 5138 0 96
0 124 1 5235 0 1794 0 221
0 186 1 6498 1 9105 0 132
0 123 1 4327 1 7093 0 120
0 120 1 4706 1 3544 0 114
0 181 0 2268 1 7735 0 72
0 124 1 9270 1 4814 0 205
0 134 1 4023 1 6653 0 149
0 153 1 9849 1 4933 0 113
0 111 1 8609 1 4417 0 294
0 110 1 6087 1 5301 0 107
0 116 1 7522 0 1247 0 833
0 168 1 6348 1 2192 0 83
0 103 1 5928 1 4769 0 181
0 85 1 7177 1 5630 0 236
0 136 1 7697 1 5792 0 113
0 116 1 6274 0 3375 0 238
0 107 1 5841 1 4721 0 115
0 124 1 7616 1 3539 0 108
0 149 1 5839 1 3836 0 92
0 445 0 313 1 5504 0 88
0 92 1 5581 1 6552 0 114
0 200 0 2195 1 6957 0 132
0 345 1 8046 1 4205 0 137
0 425 1 5995 1 8003 0 98
0 125 1 5354 1 6201 0 152
0 433 0 403 1 4791 0 97
0 212 1 11313 1 5694 0 132
0 87 1 5916 1 4767 0 137
0 115 1 5626 1 6511 0 198
0 286 1 4839 1 5887 0 145
0 129 1 4983 0 184 0 1292
0 174 1 7936 1 2575 0 116
0 415 0 522 1 6314 0 81
0 144 1 6242 1 5919 0 110
0 188 1 5372 1 2710 0 113
0 101 1 5511 0 107 0 948
0 156 0 2790 1 7913 0 180
0 114 1 4447 0 4923 0 141
0 127 1 3943 1 4661 0 129
0 105 1 4208 1 5586 0 201
0 109 1 4664 0 1536 0 365
0 98 1 7008 1 4595 0 163
0 105 1 8635 1 7021 0 128
0 105 1 4746 1 5368 0 144
0 165 1 3589 1 2646 0 93
0 325 0 499 1 3640 0 103
0 111 1 3408 1 3875 0 151
0 652 0 404 1 3297 0 59
0 102 1 4000 1 6151 0 106
0 115 1 4637 0 3118 0 93
0 127 1 6180 1 5631 0 154
0 117 1 6342 1 8638 0 119
0 71 1 5941 1 7816 0 159
0 88 1 4617 1 4680 0 159
0 186 1 9136 1 3200 0 83
0 152 1 3978 1 1747 0 90
0 624 0 148 1 4847 0 87
0 183 1 5254 1 5766 0 101
0 86 1 5471 0 761 0 175
0 144 1 6301 1 4787 0 286
0 112 1 10838 1 7537 0 85
0 150 1 5098 1 5729 0 99
0 108 1 5497 1 3413 0 123
0 105 1 4121 1 6688 0 119
0 88 1 5798 1 5624 0 180
0 139 1 5774 1 6593 0 115
0 104 1 2985 0 1239 0 151
0 149 1 6050 0 1482 0 116
0 108 1 7929 1 6319 0 171
0 92 1 3949 1 5373 0 90
0 106 1 4647 1 5895 0 136
0 139 1 6309 1 7797 0 69
0 76 1 7053 0 692 0 188
1 5468 0 601 1 3755 0 116
0 158 1 4405 0 1314 0 176
0 104 1 4981 1 3790 0 88
0 343 0 447 1 3870 0 126
0 130 1 5812 1 4521 0 113
1 6941 0 196 1 4992 0 107
0 242 0 1445 1 3928 0 148
0 74 1 7717 1 7994 0 203
0 139 1 5245 1 5216 0 149
0 87 1 4601 1 5829 0 174
0 385 0 960 1 4001 0 101
0 149 1 9981 1 6359 0 81
0 91 1 4106 1 2515 0 100
0 143 1 4493 1 4569 0 199
0 175 1 9971 1 4080 0 102
0 151 0 1603 1 5834 0 85
0 160 1 5401 1 5770 0 131
0 172 1 5246 1 4155 0 132
0 110 1 4544 1 11450 0 125
1 5420 0 534 1 5511 0 76
0 129 1 5205 1 3328 0 261
0 90 1 4564 1 6038 0 190
0 128 1 5277 0 1926 0 513
0 123 1 7585 1 7098 0 163
0 81 1 7449 1 4775 0 171
0 141 1 6466 1 5592 0 168
0 89 1 3860 0 253 0 465
0 99 1 3892 0 1791 0 488
0 58 1 4382 1 5027 0 101
0 103 1 5938 1 4837 0 166
0 87 1 8502 1 7387 0 135
1 5295 0 352 1 6542 0 90
0 114 1 5117 1 3948 0 118
0 165 1 7033 1 8981 0 204
0 133 1 7055 1 8023 0 343
0 114 0 1583 1 2716 0 145
0 80 1 8472 1 7148 0 123
0 131 1 6951 1 4525 0 130
0 153 1 7658 1 6727 0 167
0 259 1 7375 1 5045 0 77
0 262 1 4561 1 7789 0 124
0 173 1 4335 1 6002 0 310
0 155 1 6575 1 3491 0 153
0 103 1 3157 1 7266 0 130
0 113 1 7244 1 6100 0 216
0 121 1 5972 1 3963 0 151
0 580 0 353 1 5420 0 90
0 102 1 3673 1 7881 0 81
1 5872 0 232 1 2742 0 117
0 126 1 3904 1 7087 0 180
0 256 1 5604 1 3265 0 122
0 242 0 2313 1 3760 0 79
0 138 1 4650 0 1485 0 83
0 86 1 3446 1 5786 0 189
0 113 1 2908 1 3033 0 248
