Parameters: seed=631790739, s1=0.001000, s2=0.001000, s3=0.001000, s4=0.001000, e12=-0.200000, e13=0.000000, e14=0.000000, e23=0.000000, e24=0.000000, e34=-0.200000, r12=0.280000, r23=0.280000, r34=0.280000, h12=1, h13=1, h14=1, h23=1, h24=1, h34=1 , n_gen=10000000, n_ind=10000 initial freq: 0.000000 0.000000 0.000000 0.000000 0.000000 0.500000 0.000000 0.000000 0.000000 0.000000 0.500000 0.000000 0.000000 0.000000 0.000000 0.000000
0 175 0 1445 1 5648 0 176
0 149 1 7912 1 5306 0 117
0 113 1 8327 1 4256 0 179
0 177 1 7498 0 476 0 261
1 5683 0 215 1 4459 0 79
0 291 1 6452 1 5792 0 92
0 102 1 6646 0 714 0 443
0 136 1 6049 1 4996 0 147
0 164 1 5681 0 1632 0 128
0 123 1 5526 1 4809 0 102
0 118 1 6661 1 5643 0 227
0 413 0 1151 1 5021 0 83
0 129 0 1127 1 4585 0 90
0 89 1 7147 0 373 0 585
0 108 1 5820 0 2350 0 109
0 188 1 10945 0 1363 0 279
0 160 1 4719 1 6226 0 182
0 167 1 5354 1 5087 0 150
0 285 0 917 1 5053 0 140
0 178 1 4481 1 4097 0 115
0 212 1 5616 1 3357 0 99
1 5776 0 179 1 4956 0 99
0 188 0 3548 1 4859 0 94
0 765 0 224 1 4277 0 99
0 130 1 4521 1 7935 0 111
0 140 1 3602 1 7884 0 139
0 81 1 2493 0 635 0 553
0 88 1 6134 0 287 1 13266
0 306 0 552 1 3366 0 114
0 173 1 4079 1 11011 0 163
0 84 1 4332 0 1619 0 127
0 296 0 527 1 4890 0 87
0 99 1 5784 0 2032 0 115
0 152 1 4973 1 5353 0 166
0 119 0 1252 1 4055 0 211
0 151 1 4936 1 2629 0 121
1 6984 0 346 1 4122 0 114
0 801 0 357 1 5613 0 110
0 121 1 3710 1 3735 0 94
1 5202 0 264 1 6232 0 79
0 4645 0 217 1 3815 0 66
0 95 1 4926 0 441 0 170
0 111 1 5645 0 1432 0 294
0 103 1 3854 1 4791 0 187
0 128 1 8971 1 6480 0 135
0 392 1 7302 0 604 0 139
0 110 1 5262 1 3190 0 118
0 166 1 6067 1 5565 0 86
0 1128 0 456 1 4290 0 119
0 722 0 244 1 5823 0 180
0 78 0 1781 0 2099 0 212
0 161 1 6291 1 7520 0 174
0 133 1 5475 1 5597 0 138
0 107 1 9192 0 2527 0 206
0 163 1 5527 0 1847 0 366
0 166 1 5006 1 3654 0 82
0 263 0 820 1 5925 0 104
0 131 1 5640 1 3352 0 126
0 1216 0 183 1 6189 0 112
0 107 1 2941 1 5084 0 225
0 974 0 193 1 6215 0 84
0 295 0 700 1 5746 0 89
0 223 1 6063 1 6199 0 122
0 105 1 5299 1 11479 0 183
0 337 0 227 1 4278 0 148
0 132 1 5170 1 5405 0 192
0 119 1 5339 1 6085 0 97
0 141 1 4038 1 3776 0 90
0 194 1 3737 0 203 0 955
0 91 1 3219 0 225 0 3209
0 71 1 2741 1 6044 0 205
0 94 1 5256 1 2861 0 134
0 118 1 4865 0 191 1 8675
0 135 1 4658 1 3537 0 141
0 213 1 7651 0 218 0 2523
0 153 1 6538 1 3373 0 86
0 192 1 11252 1 4275 0 133
0 289 1 6538 1 7662 0 118
0 90 1 7403 0 2270 0 124
0 103 1 7826 1 8537 0 202
0 213 1 4382 1 8669 0 74
0 128 1 7582 0 377 0 720
0 90 1 4542 1 4587 0 177
0 128 1 7224 1 6138 0 127
0 112 1 5639 1 4263 0 156
0 114 1 5491 1 3889 0 81
0 106 1 9019 1 9062 0 105
0 110 1 10444 1 8135 0 159
0 99 1 4296 1 4803 0 115
0 79 1 3148 0 271 1 6001
0 147 0 3705 1 5462 0 190
0 101 1 5955 1 7206 0 187
0 134 1 3502 1 3536 0 100
0 106 1 4519 0 956 0 183
0 114 1 5221 0 708 0 289
0 108 1 7275 1 6368 0 161
0 269 1 6885 1 3758 0 134
0 81 1 4630 1 5731 0 98
0 84 1 4781 1 4425 0 168
0 107 1 5967 1 4626 0 211
0 194 1 3997 1 5725 0 118
0 118 1 8992 1 7556 0 172
0 117 1 2879 0 767 0 194
1 3914 0 226 1 9676 0 107
0 164 0 2068 1 5956 0 226
0 225 1 6406 0 351 0 277
0 212 1 11124 1 8129 0 146
0 139 1 4084 1 4422 0 108
0 123 1 3808 1 4012 0 179
0 82 1 3418 0 726 0 367
0 184 1 8518 0 943 0 318
0 143 1 3594 1 12509 0 124
0 332 1 4782 1 3496 0 97
0 136 1 3902 1 5423 0 108
0 80 1 9121 1 6529 0 316
0 98 1 9998 1 3669 0 122
0 130 1 6245 1 4773 0 213
0 378 1 8796 1 2851 0 90
0 83 1 3670 1 7540 0 174
0 138 1 6724 1 5633 0 79
0 169 1 8385 1 6727 0 71
0 461 0 279 1 7033 0 91
0 92 1 6556 0 525 0 225
0 143 0 670 1 6507 0 129
0 271 0 489 1 7256 0 191
0 152 1 4502 1 5264 0 211
0 278 1 7693 0 582 0 1385
0 137 1 4099 1 4255 0 99
0 1346 0 312 1 7975 0 242
0 142 1 3796 1 4671 0 150
0 155 0 1840 1 5701 0 475
0 104 1 5565 1 5871 0 203
0 171 1 4100 1 7670 0 125
0 389 0 254 1 5051 0 278
0 1262 0 450 1 3137 0 184
0 119 1 4126 0 249 1 6394
0 164 1 7089 1 8235 0 204
0 205 1 5224 0 1079 0 128
0 124 1 5665 1 5566 0 431
0 164 1 4073 0 968 0 361
0 128 1 6612 1 3862 0 157
0 103 1 8813 0 2702 0 108
0 163 1 4864 1 6437 0 95
0 134 1 10607 1 8438 0 102
0 224 0 2636 1 3858 0 249
0 176 1 11260 1 3032 0 99
0 145 1 6834 0 2419 0 157
0 112 1 3470 1 4620 0 103
0 209 1 2615 1 15031 0 141
0 128 1 3493 1 7426 0 90
0 138 1 4523 1 4622 0 106
0 110 1 3999 1 3805 0 125
0 151 1 4359 1 10403 0 289
0 239 0 1008 1 10306 0 94
0 154 1 5742 1 4806 0 267
0 198 1 4517 1 5093 0 142
0 111 1 4431 1 4680 0 332
0 90 1 5138 0 181 0 992
0 88 1 6760 1 13466 0 243
0 261 0 531 1 4054 0 91
0 93 1 4436 1 6839 0 163
0 115 1 7068 1 5452 0 144
0 139 1 7302 1 8354 0 190
0 80 1 7380 0 1507 0 200
0 102 1 6816 1 7852 0 200
0 134 1 5094 1 4637 0 74
0 255 0 1817 1 4580 0 283
0 286 1 9225 1 7167 0 116
0 72 1 3928 1 6385 0 196
0 244 1 5411 1 5124 0 122
0 130 1 2328 1 9227 0 259
0 111 1 3373 0 223 1 5414
0 344 0 1017 1 2918 0 104
0 195 1 7021 1 3613 0 100
0 126 1 6532 1 4355 0 194
0 168 1 9642 1 6231 0 120
0 260 1 10731 1 4069 0 144
0 156 1 5735 1 4272 0 235
0 111 1 5735 1 6153 0 132
0 100 1 7935 1 5139 0 321
0 120 1 4532 1 9157 0 100
0 83 1 6466 1 5417 0 183
0 166 1 8834 1 5240 0 171
0 70 1 3923 0 253 1 9486
0 701 0 499 1 4976 0 132
0 106 1 5365 1 7618 0 153
0 115 1 3106 0 299 0 413
0 119 1 3360 0 190 1 8147
0 125 1 4909 1 7690 0 111
0 99 1 4366 1 6195 0 100
1 7271 0 222 1 6070 0 82
0 304 0 1614 1 4764 0 127
0 121 0 1382 1 4475 0 102
0 243 0 1117 1 7899 0 132
0 305 1 6308 1 5671 0 119
0 125 1 9637 1 4623 0 169
0 136 1 7060 1 6089 0 116
0 147 1 4939 1 4793 0 105
1 6960 0 152 1 5471 0 71
0 132 0 757 1 6964 0 187
1 4335 0 374 1 4900 0 197
0 168 1 4640 1 4411 0 176
0 148 0 1286 0 163 1 5612
0 399 1 7826 1 4389 0 79
0 128 0 1173 0 1047 0 179
0 476 0 1739 1 6583 0 145
0 337 0 680 1 3071 0 83
0 102 1 5782 0 275 0 355
0 161 1 4573 1 6743 0 305
0 164 1 6391 1 9110 0 149
0 108 1 7462 1 5845 0 158
0 203 1 7300 1 4078 0 83
0 120 1 8834 1 4002 0 154
0 120 1 6614 0 181 0 786
0 145 1 4182 1 3717 0 124
0 107 1 3589 1 6301 0 235
0 138 1 5582 1 4909 0 191
0 127 1 7615 1 4228 0 277
0 82 1 5894 1 6181 0 95
0 723 0 330 1 2949 0 101
0 154 1 4101 0 892 0 125
1 5412 0 332 1 5642 0 100
0 103 1 4237 1 4681 0 189
0 101 0 1655 1 6824 0 164
0 233 0 1535 0 1482 0 307
0 93 1 6394 0 351 1 10311
0 107 1 7392 0 264 0 844
0 117 1 4855 0 3040 0 284
0 178 1 8321 1 5581 0 104
0 309 0 617 1 5933 0 128
0 131 0 1517 1 7608 0 246
0 244 1 7233 0 879 0 319
0 169 1 9844 1 6333 0 154
0 148 1 4787 0 936 0 282
0 135 1 5307 1 6328 0 104
0 165 1 9543 1 7018 0 237
0 195 1 5973 1 5855 0 139
0 84 1 10098 1 4414 0 159
0 187 1 7925 1 12636 0 125
0 129 1 6675 0 202 1 11262
0 126 1 5195 0 1110 0 121
0 171 1 4672 1 2712 0 83
0 152 1 6613 1 4925 0 102
0 134 1 5143 1 7758 0 222
0 254 1 5751 1 8218 0 201
0 105 1 3184 1 4767 0 164
1 6791 0 356 0 336 1 9309
0 144 1 5658 1 4362 0 124
0 202 1 6078 1 3624 0 128
0 201 0 2068 1 4316 0 102
1 11098 0 131 1 4706 0 175
0 291 1 6692 1 6423 0 96
0 105 1 2864 0 287 1 4573
0 437 0 329 1 5149 0 71
0 145 1 5244 1 3884 0 91
0 105 1 4019 1 4909 0 163
0 299 1 5812 1 4058 0 98
0 97 1 3160 0 644 0 248
0 88 1 5349 0 350 1 6962
0 161 1 4888 1 4916 0 98
0 142 1 5411 1 5803 0 97
1 5627 0 284 1 5893 0 139
0 317 1 5125 1 5141 0 75
0 114 1 8344 1 9891 0 190
0 106 1 4167 1 5568 0 395
0 86 1 3765 1 6009 0 133
0 155 1 6350 0 905 0 177
0 216 0 769 1 4479 0 723
0 655 0 366 1 5850 0 160
0 122 1 5667 1 4736 0 81
0 132 1 7557 1 3563 0 191
1 6938 0 486 1 3364 0 98
0 310 0 739 0 584 0 345
0 125 1 6018 1 2959 0 137
0 89 1 5255 0 346 0 325
0 142 1 5317 1 6599 0 153
0 172 1 5138 1 4844 0 101
0 140 1 7259 1 4180 0 147
0 482 0 2114 1 3234 0 139
0 981 0 125 1 4396 0 162
0 129 1 4999 1 8480 0 234
0 180 1 5694 1 9308 0 136
0 730 0 707 1 4097 0 116
0 132 1 6554 1 8144 0 114
1 5374 0 137 1 4195 0 118
0 111 1 5036 1 9153 0 107
0 118 1 7156 1 4854 0 226
1 4628 0 204 1 8268 0 88
0 444 0 241 1 6814 0 150
0 97 1 2782 1 4937 0 167
0 199 1 9846 1 3900 0 137
0 126 1 6145 1 5104 0 101
0 126 1 7106 1 9975 0 169
0 97 1 5139 1 5685 0 105
0 201 1 6857 1 4884 0 127
0 100 1 5266 0 828 0 319
0 301 1 6600 1 5156 0 96
0 164 1 6734 1 8060 0 147
0 374 1 10202 1 6066 0 138
0 173 1 5720 1 6940 0 146
1 6365 0 195 1 5024 0 87
0 105 1 6419 0 3214 0 282
0 126 1 6867 0 677 0 191
0 207 1 7659 1 7266 0 104
0 95 1 4716 0 899 0 145
0 132 1 6941 1 6877 0 184
0 103 1 4415 1 4193 0 136
0 553 0 346 1 6096 0 107
0 151 1 4732 1 6244 0 158
0 116 1 5807 1 4821 0 98
0 141 1 5639 1 7184 0 169
0 130 1 4934 1 4479 0 98
0 139 1 5469 1 5002 0 136
0 212 1 8198 1 6450 0 125
0 282 1 8379 1 8179 0 256
0 178 1 5516 1 5409 0 78
0 225 1 5531 1 3032 0 94
0 256 1 5405 1 3658 0 216
0 114 1 4932 1 6996 0 106
0 110 1 7974 1 11837 0 177
0 145 1 6266 1 6305 0 90
0 107 1 6472 1 5186 0 169
0 93 1 10769 1 5666 0 206
0 245 0 929 1 5448 0 153
0 243 1 5287 1 5175 0 313
0 105 1 4521 1 4035 0 222
1 8195 0 320 1 4832 0 100
0 170 1 6554 1 7647 0 82
0 200 1 10119 1 9499 0 126
0 163 1 4674 1 8048 0 136
0 201 1 3333 1 4957 0 90
0 149 1 4399 1 7968 0 134
0 95 1 3725 0 635 0 457
0 152 1 6219 1 4202 0 119
0 694 0 236 1 4837 0 84
1 5733 0 326 1 3780 0 99
0 182 1 5163 1 8341 0 92
0 163 0 720 1 5954 0 202
0 153 1 8424 1 3707 0 72
0 117 1 4900 0 329 0 1272
0 156 1 4727 1 6516 0 200
0 400 0 692 1 9649 0 173
0 97 1 7914 0 390 0 309
0 94 1 7703 1 2859 0 110
0 259 0 1094 1 4204 0 111
0 1372 0 183 1 5310 0 130
0 85 1 7308 1 3810 0 133
0 405 0 609 1 4380 0 72
0 134 1 5309 0 532 0 427
0 367 1 9529 1 6412 0 73
0 107 1 5057 1 4406 0 190
0 170 1 8202 1 5868 0 134
0 126 0 568 1 6484 0 90
0 132 1 6078 1 4110 0 77
0 92 1 5963 1 5630 0 140
0 94 1 4652 1 6053 0 150
0 119 1 8515 1 6409 0 124
0 91 1 5018 0 509 0 416
0 135 1 7683 1 3944 0 150
0 1697 0 192 1 4570 0 133
0 1759 0 699 1 6377 0 161
0 145 1 5518 1 6694 0 130
0 134 1 4663 1 7508 0 201
0 135 1 9346 1 6040 0 137
0 316 0 689 1 3927 0 133
0 101 1 3399 1 3935 0 102
0 78 1 2306 1 6684 0 312
0 134 0 638 1 5278 0 165
0 95 1 4601 0 280 0 918
0 120 1 5756 0 344 0 1615
0 110 1 5924 1 4494 0 139
0 163 0 663 1 6350 0 93
0 76 1 5716 1 7460 0 196
0 549 0 215 1 3443 0 66
1 4120 0 370 1 4929 0 135
0 222 1 7041 1 6049 0 130
0 558 0 295 1 4733 0 92
0 113 1 4601 1 4845 0 118
0 160 1 6327 1 6584 0 99
0 258 1 5978 1 7161 0 119
0 90 1 4017 1 6606 0 152
0 755 0 527 1 6250 0 133
0 144 1 11354 1 3305 0 113
0 149 0 667 1 10015 0 141
0 418 1 7856 1 8233 0 139
0 112 1 4957 1 2866 0 118
0 154 1 4668 1 5572 0 121
0 228 1 4057 1 9466 0 113
0 102 1 5597 1 7373 0 139
0 117 1 6593 0 1670 0 503
0 300 0 1090 1 5783 0 295
0 145 1 5608 1 3886 0 110
0 156 1 3446 1 6222 0 106
0 160 1 5147 0 197 0 893
0 162 1 8732 0 876 0 189
0 169 1 8767 1 4650 0 88
0 128 1 3615 0 425 1 6798
0 336 0 871 1 3904 0 409
0 96 1 4605 1 6288 0 110
0 158 1 5369 1 8773 0 111
0 267 1 5001 1 3479 0 92
1 8853 0 214 1 5282 0 109
1 7629 0 229 1 5616 0 95
0 105 1 9676 1 6292 0 90
0 138 1 6264 1 4092 0 250
0 127 1 2134 1 9436 0 98
0 122 1 8308 0 184 0 1152
0 760 0 419 1 2974 0 118
0 117 1 2945 1 6624 0 286
0 208 1 3838 1 5007 0 150
0 168 0 2536 1 4397 0 162
0 126 1 5914 1 4365 0 80
0 96 1 10291 1 9542 0 186
0 227 1 9052 0 669 0 516
0 76 1 4432 1 4436 0 131
1 5834 0 184 1 3157 0 106
0 94 1 8094 1 11216 0 71
0 274 1 8085 1 5317 0 143
0 225 1 6598 1 4470 0 130
0 89 1 4468 0 353 0 588
0 424 0 193 1 3325 0 132
1 6101 0 133 1 4360 0 70
0 76 1 5550 0 503 1 5156
0 139 1 4585 1 10076 0 123
0 173 1 5234 1 4050 0 127
0 132 1 3969 1 7131 0 139
0 401 0 264 1 5000 0 81
0 110 0 1930 0 227 0 2391
0 99 1 5285 0 2169 0 141
0 355 0 675 1 4718 0 106
0 153 1 8170 0 158 1 7249
1 7603 0 167 1 4556 0 195
0 346 0 459 1 4162 0 108
0 83 1 4195 0 254 1 8572
0 134 1 8506 1 6641 0 134
0 97 1 5432 1 5898 0 100
1 5341 0 220 1 3850 0 130
0 91 1 11307 1 5398 0 228
0 121 1 5689 1 3650 0 149
0 160 1 5482 1 4586 0 114
0 83 1 5929 1 4876 0 157
0 125 1 6143 1 7328 0 138
0 359 1 7484 1 3864 0 96
0 97 1 3534 0 421 0 339
0 144 1 6194 1 5066 0 258
0 96 1 8567 1 4182 0 145
0 189 1 6183 1 6199 0 107
0 104 1 4948 0 260 1 7128
0 136 1 4309 1 5144 0 240
0 529 0 288 1 4663 0 153
0 104 1 6712 1 6067 0 109
0 1630 0 403 1 4784 0 87
0 245 0 802 0 1677 0 124
0 320 0 417 1 7467 0 88
0 90 1 3033 0 239 1 5168
0 127 1 4022 1 8027 0 133
0 125 1 6765 1 5694 0 393
0 244 1 7875 1 4659 0 99
0 123 1 3258 1 6514 0 208
0 82 1 5288 0 977 0 337
0 76 1 3871 1 5429 0 205
0 341 0 965 1 6912 0 195
0 101 1 4266 1 6229 0 132
0 124 1 3411 1 6643 0 529
0 84 1 4567 1 5151 0 125
0 108 1 3578 1 8804 0 162
0 90 0 940 1 4218 0 139
1 7889 0 225 1 4006 0 96
0 94 1 4679 1 6562 0 115
0 112 1 4033 0 2233 0 164
1 10723 0 340 1 3434 0 128
0 92 1 3286 1 6147 0 114
0 232 0 2383 1 5030 0 65
0 98 1 7582 1 4884 0 114
0 469 0 1295 1 6257 0 104
0 64 1 5179 0 157 1 4651
0 201 1 9563 1 5715 0 89
0 685 0 812 1 4161 0 104
0 149 1 3251 1 8304 0 111
0 84 1 3012 1 6598 0 147
0 279 1 8286 1 6227 0 233
0 126 1 3597 1 3856 0 123
1 7804 0 251 1 5354 0 121
0 212 1 4015 1 5066 0 132
0 100 1 7463 1 6262 0 183
0 100 1 8243 1 6883 0 127
0 151 1 5172 0 2305 0 121
0 135 1 4399 0 2105 0 295
0 140 1 5296 1 3457 0 119
0 189 1 4685 1 7592 0 167
0 105 1 6429 1 3664 0 78
0 244 1 6805 1 8077 0 89
0 197 1 4590 0 1467 0 432
1 7312 0 272 1 2975 0 95
0 304 0 1887 1 7707 0 135
0 122 1 3244 0 871 0 295
0 173 1 8567 0 1378 0 314
0 108 1 3863 1 5785 0 256
0 76 1 2747 0 584 0 1022
0 348 1 5931 1 3485 0 85
0 121 1 7517 0 910 0 193
0 165 1 5630 1 4366 0 108
0 130 1 11249 1 6599 0 204
0 156 1 4001 1 3452 0 231
0 117 1 3440 1 5771 0 99
0 131 1 6242 1 7918 0 165
1 4861 0 204 1 6917 0 70
0 77 1 5985 1 6187 0 172
1 7064 0 246 1 6882 0 146
1 8007 0 144 1 4268 0 72
0 249 0 907 1 7041 0 103
0 135 1 6296 0 301 0 887
0 124 1 7131 0 708 0 464
0 100 1 3519 0 1726 0 300
0 165 1 8004 0 901 0 302
1 6431 0 188 1 4224 0 150
0 87 1 3066 1 8346 0 107
0 68 1 3307 1 3642 0 271
0 98 1 4464 1 6638 0 228
0 196 1 9189 1 7238 0 125
1 10189 0 194 1 2466 0 86
1 5769 0 352 1 4293 0 123
0 80 1 6819 1 4910 0 110
0 92 1 4196 0 178 0 2394
0 134 0 2512 0 314 0 585
0 98 1 7745 0 198 0 563
0 173 1 12274 1 4504 0 93
0 73 1 4930 1 5954 0 175
0 344 1 6228 1 3484 0 104
0 421 0 278 1 4981 0 106
0 98 1 4851 1 7724 0 176
0 147 1 8503 1 4295 0 292
0 132 1 7361 1 6198 0 158
0 119 1 3507 1 4186 0 151
0 150 0 1236 1 2608 0 146
0 132 1 3928 1 2919 0 100
0 300 1 5018 0 661 0 270
0 129 1 8260 1 8138 0 232
0 192 1 8530 1 8240 0 235
0 120 1 4597 1 3276 0 225
1 7396 0 164 1 5308 0 104
0 231 0 1771 1 9367 0 134
0 488 0 185 1 5077 0 81
0 92 1 3404 1 3576 0 227
0 108 1 7231 1 6089 0 202
0 196 1 4209 0 3626 0 126
0 207 1 10211 1 6960 0 79
1 3931 0 280 1 4851 0 105
0 130 1 4633 1 4615 0 797
0 181 1 7515 1 5402 0 100
0 208 1 7959 1 7066 0 94
0 324 0 695 1 4988 0 80
0 204 1 7857 1 8260 0 120
0 206 1 8084 0 1637 0 266
0 279 0 524 1 8935 0 157
0 125 1 6176 1 5148 0 130
0 255 0 1406 1 8093 0 99
1 6129 0 108 1 11272 0 78
0 120 1 3114 0 5376 0 140
0 108 1 4403 1 5092 0 133
0 115 1 3857 1 6055 0 218
1 9694 0 153 1 6488 0 100
0 76 1 9037 1 3644 0 152
0 192 1 5488 0 424 0 845
0 88 1 4946 1 5484 0 158
0 132 1 6436 1 5446 0 139
0 133 1 5353 1 4690 0 99
0 151 0 1897 1 6524 0 93
0 105 1 7824 1 8192 0 181
0 87 1 3852 1 8844 0 385
0 122 1 5953 1 5494 0 144
0 150 1 5630 1 5892 0 155
0 218 0 1245 1 4548 0 128
0 99 1 4715 0 182 1 4552
0 115 1 5476 1 4600 0 183
0 194 0 812 1 3583 0 93
0 122 1 5651 0 3129 0 163
0 244 0 1368 1 2509 0 72
0 214 1 5581 1 4387 0 169
0 99 1 3981 0 766 0 504
0 115 0 4398 1 6479 0 191
0 421 0 533 1 4195 0 94
0 122 1 7475 1 5057 0 119
0 118 1 7695 0 1333 0 313
0 112 1 7230 0 291 1 9656
0 108 1 7246 1 7227 0 289
0 91 1 6543 1 6197 0 115
0 250 1 8830 1 4362 0 89
0 178 1 8601 0 193 1 5463
0 140 1 3874 0 1976 0 191
0 106 1 3166 1 7129 0 82
0 288 1 6572 1 10497 0 143
0 123 0 1411 0 1342 0 143
0 106 1 3729 0 3703 0 236
0 93 1 7976 1 12070 0 97
0 120 1 6232 1 5614 0 87
0 141 1 5018 0 533 0 215
0 104 1 2962 1 6022 0 147
0 129 1 4970 1 5997 0 111
1 4541 0 592 1 3901 0 116
0 110 1 4380 0 3527 0 272
0 61 1 4555 1 5313 0 139
0 112 1 5098 1 2556 0 86
0 88 1 9483 1 7044 0 235
0 223 0 498 1 5732 0 83
0 103 1 3473 1 7949 0 762
0 656 0 583 1 7038 0 189
0 410 0 486 1 3141 0 97
0 92 1 11520 1 3764 0 107
0 125 1 5542 1 5003 0 82
0 690 0 348 1 5531 0 124
0 81 1 5649 0 947 0 238
0 109 1 6448 1 8548 0 159
1 10085 0 253 1 5641 0 103
1 4075 0 118 1 8490 0 98
0 457 0 1255 1 8195 0 213
0 242 1 7845 1 11340 0 82
0 129 1 8244 0 746 0 2182
0 85 1 3408 0 1248 0 405
0 108 1 7966 1 3760 0 106
0 264 1 5194 1 4612 0 125
0 150 1 4320 1 5082 0 92
0 167 1 6107 1 4410 0 137
0 130 1 6318 1 6655 0 150
0 107 1 4702 1 4639 0 94
0 88 1 5270 0 1771 0 173
0 122 1 8468 0 236 1 7816
0 7948 0 160 1 3742 0 75
0 127 1 5772 1 6685 0 161
0 144 1 6306 1 4602 0 113
0 328 1 5852 1 4586 0 216
0 266 1 6624 1 8068 0 111
0 134 1 4863 1 6425 0 124
0 118 1 9715 0 1735 0 152
0 110 1 7805 1 6587 0 112
0 107 1 3113 1 3763 0 210
0 179 1 3884 0 366 1 7140
0 114 1 5974 1 5410 0 177
0 125 1 8589 1 10282 0 259
0 90 1 7836 0 439 1 10379
0 107 1 4052 1 6851 0 105
0 77 1 3958 1 5337 0 257
0 192 0 2342 0 410 0 1299
0 83 1 3405 0 143 1 5722
0 94 1 3453 0 384 1 4203
0 199 1 5684 0 1179 0 211
0 264 1 6246 0 1595 0 544
0 257 0 1472 1 5914 0 75
0 375 0 312 1 8838 0 87
0 102 1 6233 1 12744 0 151
0 231 1 5597 1 9323 0 136
0 107 1 6549 1 6360 0 215
0 231 1 10573 1 5575 0 98
0 123 0 1230 1 5101 0 132
0 934 0 566 1 8659 0 72
0 150 1 10050 1 15467 0 136
0 101 1 5993 1 6285 0 199
0 150 1 6253 1 9526 0 110
0 107 1 5536 1 6513 0 341
0 156 1 5851 1 5843 0 281
0 100 1 7453 1 4649 0 162
0 181 0 926 1 7917 0 167
1 5076 0 216 1 3287 0 144
0 87 1 1947 0 197 1 5777
0 145 1 5031 1 4829 0 113
0 246 1 6957 0 449 0 627
0 253 1 6999 0 573 0 182
0 674 0 343 1 5017 0 149
0 625 0 392 1 7745 0 142
0 368 0 249 1 6311 0 159
0 62 1 3618 0 678 0 429
0 100 1 5485 0 191 1 5131
0 117 1 8261 1 12751 0 225
0 5273 0 279 1 5119 0 122
0 112 1 5790 1 11525 0 323
0 698 0 265 1 4719 0 95
0 107 1 5074 0 360 1 4831
0 128 1 2894 1 6001 0 146
0 207 1 6728 1 6804 0 176
0 116 1 5889 1 4513 0 172
0 390 0 436 1 9369 0 87
0 481 0 1384 1 6244 0 535
0 135 1 5325 1 4040 0 89
0 262 1 6392 1 4808 0 102
0 82 1 3137 0 460 0 340
0 104 1 4446 1 5145 0 204
0 94 1 4989 0 369 0 1133
0 109 1 4140 1 5659 0 105
0 181 1 3898 1 6518 0 120
0 142 1 9286 1 4984 0 88
0 214 0 1967 1 6679 0 107
0 93 1 4697 1 4166 0 167
0 123 1 5157 1 7011 0 236
0 1198 0 218 1 9324 0 167
0 139 1 6459 1 5591 0 123
0 148 1 10429 0 1770 0 594
0 135 1 4013 1 7672 0 190
0 120 1 8956 1 6032 0 103
0 203 1 4869 1 5060 0 90
0 115 1 4702 1 5294 0 93
0 111 1 4467 1 4475 0 103
0 1240 0 540 1 6363 0 279
0 95 1 3988 1 5499 0 96
0 107 1 4513 0 455 0 351
0 98 1 4472 0 1503 0 371
0 206 1 6855 1 3130 0 84
0 123 1 7884 1 3367 0 130
0 149 1 5573 1 3562 0 134
0 250 0 865 0 1774 0 123
0 157 1 4001 1 5722 0 117
0 209 0 4733 1 4722 0 107
0 155 1 4568 0 826 0 152
0 169 1 8988 1 10708 0 105
0 172 1 6610 1 7373 0 141
0 202 1 7471 1 5961 0 123
0 160 1 4545 1 6570 0 114
0 165 1 8755 1 6332 0 101
0 235 0 2653 1 4206 0 76
0 134 1 6837 0 247 1 5725
0 121 1 4359 0 2254 0 328
0 207 1 5621 1 5017 0 82
0 121 1 6691 1 7505 0 133
0 168 1 4021 1 5359 0 84
0 217 1 10340 0 2136 0 135
0 103 1 6017 1 8704 0 124
0 217 1 3902 1 4240 0 128
0 125 1 7470 1 6772 0 129
0 226 1 6610 1 3323 0 139
0 89 1 3781 0 561 0 462
0 113 1 3819 1 7770 0 194
0 120 1 5749 0 705 0 466
0 149 1 3413 1 5731 0 146
0 112 1 8805 1 3999 0 275
0 241 1 4783 1 6924 0 152
0 103 1 6790 0 391 0 569
0 154 1 4371 1 3203 0 88
0 161 0 939 0 1642 0 233
0 95 1 7442 1 4738 0 171
0 88 1 3795 1 6216 0 147
0 167 1 7003 1 8515 0 183
0 158 1 5458 0 247 1 7352
0 183 1 3966 1 3860 0 152
0 118 1 3627 0 1048 0 256
0 119 1 5493 1 4540 0 120
0 72 1 3893 1 7480 0 159
0 249 0 736 1 3897 0 76
0 117 1 4570 1 7134 0 194
0 207 1 5770 1 3536 0 85
0 213 1 5975 0 1542 0 398
1 5746 0 352 1 6063 0 82
1 7167 0 139 1 5768 0 137
0 398 1 5335 1 6028 0 94
0 148 1 4593 1 8060 0 134
0 127 0 2112 1 7993 0 153
0 106 1 4383 0 1005 0 140
0 133 1 6078 1 4030 0 131
0 134 1 8767 1 3276 0 173
0 113 1 4643 1 7394 0 129
0 230 1 4356 1 3087 0 93
0 162 1 10165 1 3762 0 141
1 6800 0 149 1 7484 0 93
0 168 1 2676 1 6797 0 152
0 96 1 8880 0 148 0 654
0 135 0 2511 0 241 1 9574
0 149 1 3694 0 691 0 94
0 208 1 7906 1 6286 0 115
0 209 0 1068 1 9556 0 333
0 101 1 8265 1 5269 0 128
0 405 1 7420 1 3345 0 112
0 277 1 6259 0 893 0 147
0 113 1 6528 1 5301 0 267
0 374 0 784 1 4340 0 131
0 192 1 5281 1 4653 0 110
0 83 1 8572 1 5952 0 82
0 104 1 2247 0 2674 0 159
0 166 0 888 1 5126 0 129
1 4748 0 285 1 3724 0 106
0 160 1 6280 1 8022 0 107
0 72 1 4232 0 3066 0 164
0 444 0 423 1 4345 0 135
0 933 0 280 1 4838 0 138
0 146 1 6232 1 6457 0 219
0 196 1 3735 1 13651 0 124
0 195 0 1698 1 6188 0 128
0 146 1 8092 1 5016 0 67
0 131 1 5008 1 5809 0 202
0 157 1 6957 1 4964 0 170
0 114 1 3053 1 5135 0 134
0 101 1 6050 0 265 0 475
0 207 1 7050 1 6439 0 94
0 108 1 3701 0 239 0 773
0 168 1 5174 1 7694 0 205
0 1089 0 394 1 5113 0 115
0 98 1 9182 0 171 1 6133
0 131 1 5051 0 335 0 2136
0 103 1 7390 0 2228 0 145
0 92 1 6373 0 248 1 5885
0 157 0 1422 1 4405 0 116
0 88 1 9581 1 4010 0 278
0 109 1 4476 1 4453 0 170
0 99 1 1859 0 719 0 239
0 105 1 5521 0 2821 0 286
0 100 1 4293 0 230 1 6178
0 633 1 7369 1 3208 0 97
0 128 1 4372 1 7574 0 148
0 183 1 9724 1 7044 0 134
0 96 1 3763 0 808 0 132
0 108 1 5221 1 5622 0 142
0 147 1 4599 1 3050 0 105
0 226 1 12530 0 3101 0 251
0 259 1 5556 1 8604 0 254
0 270 0 359 1 8929 0 70
0 176 1 6899 1 8407 0 311
0 111 1 8247 1 4741 0 173
0 310 1 8484 1 6003 0 93
0 409 0 1495 1 5312 0 104
0 101 1 4012 1 3819 0 67
0 73 1 8812 1 6468 0 153
0 97 1 3435 1 3916 0 236
0 120 1 4353 0 887 0 304
0 148 1 3979 0 579 1 7241
0 79 1 6576 1 4942 0 105
0 92 1 7146 1 4870 0 135
0 92 1 5912 0 393 1 4952
0 126 0 1346 0 292 1 9046
0 237 0 494 1 3988 0 119
0 224 1 4602 1 4955 0 80
0 86 1 5222 1 5583 0 130
0 141 1 6907 1 4423 0 114
0 92 0 1760 1 7497 0 135
0 251 1 8563 1 4442 0 118
0 79 1 12473 0 161 1 4577
0 147 1 7371 1 6535 0 141
0 283 1 3931 1 5242 0 112
0 99 1 4483 1 7723 0 123
0 379 1 6302 1 6262 0 77
0 164 1 3637 1 8891 0 87
0 97 1 4268 1 6706 0 228
0 126 1 9474 0 1038 0 222
0 77 1 3570 0 364 1 8292
0 83 1 8290 1 3307 0 108
0 165 1 9176 0 341 0 580
0 133 1 7516 1 3875 0 195
0 176 1 5594 0 884 0 118
0 143 1 4671 1 5561 0 116
0 93 1 4174 1 6019 0 263
0 201 1 5196 1 4521 0 114
0 214 1 7220 1 4369 0 103
0 70 1 2903 0 595 0 639
0 213 1 7234 1 7387 0 202
0 162 0 3245 1 6764 0 188
0 831 0 336 1 4972 0 104
0 91 1 3020 0 925 0 214
0 125 1 4585 1 6606 0 214
0 155 1 7014 1 7771 0 152
0 174 1 7217 1 9552 0 151
0 97 1 3188 1 4689 0 116
0 1318 0 311 1 4457 0 113
0 95 1 4417 1 6443 0 76
0 87 1 5737 1 3600 0 117
0 84 1 3737 0 1815 0 133
0 131 1 3251 1 6006 0 154
0 82 1 4699 1 7949 0 242
0 98 1 6764 0 3391 0 199
0 109 1 6545 1 6050 0 86
0 332 1 6993 1 4703 0 105
0 92 1 9072 1 10248 0 88
0 94 1 6638 0 1020 0 169
0 424 1 7100 1 5462 0 101
0 392 0 536 0 1675 0 169
0 243 1 5143 1 5695 0 94
0 191 0 1004 1 5896 0 95
0 142 0 894 1 8037 0 76
0 107 1 3561 1 4811 0 327
0 103 1 7493 1 6700 0 117
0 62 1 8006 0 1003 0 153
0 194 1 5307 0 508 0 296
0 137 1 6706 1 4492 0 232
0 111 1 3726 1 6626 0 115
0 121 1 4100 0 332 0 3134
0 164 1 8393 1 4041 0 108
0 154 1 8366 1 8237 0 174
0 226 1 4869 1 7238 0 119
0 92 1 3951 0 339 1 5716
0 1161 0 443 1 5070 0 92
0 496 0 1510 0 1379 0 246
0 72 1 5798 1 10432 0 164
0 205 0 3776 1 8003 0 312
0 258 1 4196 1 5930 0 95
0 92 1 6519 0 1327 0 384
0 320 0 2600 1 4566 0 116
0 1126 0 348 1 4374 0 83
0 86 1 6980 0 949 0 311
1 8171 0 349 1 5725 0 255
0 1325 0 339 1 2347 0 97
0 247 1 6605 1 3670 0 147
0 93 1 4136 0 613 0 243
0 136 1 9256 1 5007 0 92
0 97 1 6147 0 449 1 5847
0 201 1 3798 0 728 0 283
0 119 1 4591 1 3350 0 91
0 114 1 9793 1 8619 0 88
0 100 1 3494 1 3909 0 110
0 80 1 6052 1 2453 0 67
0 89 1 4333 1 6552 0 245
0 153 1 7092 1 7232 0 215
1 5957 0 140 1 3037 0 78
0 165 1 7068 1 4887 0 205
0 241 0 580 1 3635 0 142
0 199 1 5004 1 9266 0 351
0 270 1 6013 1 4445 0 95
0 279 0 771 1 7185 0 188
0 208 1 7235 1 6926 0 179
0 148 0 859 1 5333 0 157
0 200 1 5932 0 444 0 1465
0 1631 0 147 1 3605 0 124
0 325 0 338 1 5060 0 133
0 777 0 330 0 469 1 8015
0 201 0 1630 1 4254 0 202
0 261 0 2081 1 4625 0 66
0 350 0 518 1 5004 0 102
0 103 1 4829 1 5287 0 151
0 115 1 4407 1 6372 0 349
0 147 1 6757 1 3611 0 104
0 132 1 3936 1 8513 0 123
0 265 0 811 0 954 0 267
0 130 1 4699 1 5977 0 126
0 95 1 10067 1 7128 0 209
0 241 0 946 1 4175 0 86
0 240 1 6286 1 4819 0 145
0 127 1 6632 1 4418 0 163
0 170 1 7088 0 2637 0 85
0 84 1 5157 1 3362 0 467
1 7372 0 232 1 3408 0 74
0 958 0 164 1 6672 0 140
0 86 1 3555 1 7459 0 131
0 168 1 6902 1 7700 0 149
0 285 0 1430 1 5185 0 218
0 744 0 697 0 1217 0 130
0 730 0 370 1 4644 0 126
0 187 1 5579 0 655 0 625
0 189 1 5855 0 763 0 125
0 114 1 8753 0 178 1 6649
0 110 1 7157 1 7657 0 132
0 188 1 5694 1 4860 0 155
0 156 1 6510 1 4627 0 179
0 108 1 4936 1 5370 0 117
0 92 1 3723 1 5196 0 140
0 124 1 5311 1 6712 0 141
1 9925 0 287 1 8745 0 237
0 87 1 4125 0 736 0 143
0 105 1 4026 1 4535 0 124
0 146 1 7003 1 7555 0 130
0 171 0 2117 1 3959 0 121
0 568 0 498 1 5300 0 83
0 249 1 6180 0 1311 0 317
0 169 1 5228 1 5648 0 99
0 95 1 7813 1 3644 0 89
0 232 0 734 1 5093 0 100
0 100 0 2599 0 309 1 3834
0 141 1 4481 1 2650 0 92
0 107 1 5807 0 864 0 87
0 194 1 7716 1 7037 0 196
1 3459 0 127 1 3077 0 99
0 156 1 2573 1 8431 0 159
0 78 1 2909 1 9750 0 121
0 138 0 2215 1 5273 0 112
0 130 1 7791 1 5920 0 216
0 125 1 5538 0 444 0 383
0 140 1 6367 1 3963 0 93
0 212 1 6893 1 3942 0 124
0 106 1 5969 0 1519 0 434
1 8773 0 168 1 3139 0 81
0 263 1 7963 1 3784 0 186
1 9367 0 165 0 2525 0 158
0 138 1 9345 0 3449 0 152
0 167 1 4533 0 956 0 412
0 113 1 3615 0 1091 0 133
0 154 1 2553 1 3211 0 134
0 72 1 3983 1 5900 0 138
0 127 1 5105 1 4122 0 149
0 106 1 4970 1 4119 0 187
0 101 1 4217 1 5783 0 239
0 233 1 5326 1 3827 0 143
0 307 1 4608 1 5133 0 150
0 287 1 4835 1 3814 0 148
0 176 1 3873 0 369 0 210
0 73 1 7491 0 261 0 1395
0 147 1 7998 0 453 0 591
0 156 1 4715 1 5949 0 118
0 143 1 7128 0 312 0 1026
0 1325 0 585 1 2885 0 122
0 361 1 6190 1 6289 0 235
0 213 1 4370 1 5397 0 106
0 91 1 4815 1 9460 0 236
0 124 0 1219 1 6488 0 162
0 94 1 5414 1 8970 0 144
0 247 0 815 1 5435 0 95
0 151 1 8292 1 9247 0 193
0 95 1 4161 1 11684 0 291
