Parameters: seed=649202791, s1=0.001000, s2=0.001000, s3=0.001000, s4=0.001000, e12=-0.200000, e13=0.000000, e14=0.000000, e23=0.000000, e24=0.000000, e34=-0.200000, r12=0.001000, r23=0.001000, r34=0.001000, h12=1, h13=1, h14=1, h23=1, h24=1, h34=1 , n_gen=10000000, n_ind=10000 initial freq: 0.000000 0.000000 0.000000 0.000000 0.000000 0.500000 0.000000 0.000000 0.000000 0.000000 0.500000 0.000000 0.000000 0.000000 0.000000 0.000000
0 49 1 49 0 49 1 559
1 803 0 41 1 41 0 39
0 50 1 79 0 79 1 914
1 120 0 33 1 36 0 36
0 45 1 45 0 48 1 1927
0 45 1 45 0 45 1 195
1 73 0 39 1 39 0 37
1 778 0 47 1 47 0 43
1 236 0 43 1 48 0 44
1 195 0 44 1 47 0 46
1 798 0 68 1 52 0 52
1 995 0 70 1 184 0 54
0 44 1 44 0 43 1 358
1 261 0 37 1 40 0 40
1 131 0 41 1 41 0 38
0 37 1 123 0 42 1 926
1 257 0 43 1 43 0 42
0 43 1 43 0 43 1 335
0 44 1 44 0 41 1 1003
0 49 1 99 0 49 1 961
0 41 1 41 0 37 1 157
1 879 0 61 1 482 0 50
0 44 1 64 0 64 1 89
1 1016 0 58 1 58 0 55
0 38 1 43 0 43 1 471
1 325 0 37 1 44 0 44
0 35 1 37 0 37 1 1265
0 44 1 44 0 44 1 142
0 44 1 47 0 47 1 617
0 41 1 55 0 55 1 1751
0 36 1 36 0 35 1 469
1 242 0 46 1 42 0 42
0 39 1 47 0 47 1 1829
0 35 1 35 0 49 1 250
1 1538 0 42 1 42 0 34
1 467 0 48 1 48 0 45
0 42 1 42 0 31 1 51
1 1376 0 49 1 143 0 48
1 562 0 43 1 47 0 47
1 226 0 38 1 38 0 35
1 2275 0 54 1 54 0 37
0 53 1 54 0 45 1 239
0 47 1 47 0 47 1 160
1 438 0 40 1 47 0 47
1 323 0 35 1 35 0 35
1 147 0 40 1 44 0 44
1 324 0 37 1 37 0 37
1 500 0 63 1 101 0 58
0 38 1 38 0 38 1 483
1 792 0 71 1 71 0 53
0 55 1 55 0 55 1 545
1 304 0 55 1 41 0 38
1 915 0 42 1 42 0 42
1 853 0 44 1 44 0 44
1 610 0 63 1 79 0 56
1 2626 0 67 1 68 0 68
0 37 1 37 0 37 1 245
1 67 0 44 1 44 0 44
0 40 1 40 0 39 1 633
0 44 1 44 0 44 1 763
0 39 1 39 0 46 1 331
0 51 1 61 0 61 1 1283
0 38 1 44 0 44 1 1008
1 512 0 40 1 41 0 41
1 406 0 48 1 85 0 48
0 37 1 49 0 42 1 1518
1 177 0 36 1 36 0 36
1 74 0 39 1 39 0 39
0 45 1 60 0 60 1 201
0 33 1 33 0 33 1 487
1 3585 0 51 1 51 0 51
1 444 0 45 1 53 0 53
0 58 1 58 0 58 1 3825
1 823 0 42 1 42 0 42
0 66 1 104 0 88 1 1566
1 347 0 39 1 49 0 49
0 37 1 37 0 37 1 328
0 44 1 46 0 46 1 2405
0 52 1 52 0 52 1 392
0 47 1 53 0 53 1 1487
0 46 1 46 0 47 1 547
0 49 1 110 0 62 1 2936
1 198 0 35 1 35 0 35
1 444 0 45 1 45 0 45
0 41 1 146 0 43 1 408
0 45 1 45 0 45 1 542
1 827 0 47 1 47 0 38
0 44 1 44 0 44 1 162
0 51 1 51 0 53 1 1604
1 1727 0 50 1 50 0 50
0 52 1 52 0 50 1 183
0 45 1 45 0 45 1 1510
1 176 0 48 1 35 0 35
1 160 0 39 1 145 0 32
1 452 0 35 1 35 0 35
0 43 1 48 0 48 1 380
1 877 0 42 1 38 0 35
0 36 1 37 0 37 1 253
0 55 1 266 0 55 1 430
1 1775 0 37 1 37 0 37
0 38 1 101 0 49 1 680
1 324 0 37 1 38 0 38
1 948 0 40 1 44 0 44
0 41 1 41 0 53 1 495
0 47 1 116 0 76 1 1429
0 41 1 41 0 41 1 417
1 271 0 53 1 51 0 46
0 41 1 44 0 44 1 409
0 38 1 38 0 38 1 212
0 46 1 51 0 51 1 335
1 461 0 42 1 42 0 42
0 45 1 46 0 46 1 1134
1 830 0 34 1 34 0 34
1 288 0 46 1 46 0 44
1 1541 0 35 1 35 0 35
0 40 1 47 0 47 1 341
1 168 0 37 1 37 0 37
0 33 1 34 0 34 1 180
0 38 1 40 0 40 1 160
1 1811 0 49 1 49 0 41
0 42 1 50 0 50 1 318
0 41 1 48 0 48 1 300
1 849 0 46 1 120 0 46
0 46 1 519 0 59 1 884
1 384 0 72 1 72 0 60
0 39 1 184 0 39 1 511
0 39 1 56 0 56 1 1888
1 362 0 52 1 52 0 52
0 55 1 58 0 58 1 479
1 518 0 42 1 72 0 37
1 899 0 55 1 55 0 52
0 39 1 40 0 40 1 824
0 47 1 47 0 47 1 635
0 35 1 36 0 36 1 2677
0 44 1 44 0 32 1 288
1 295 0 59 1 59 0 45
1 961 0 58 1 58 0 44
1 212 0 45 1 96 0 43
1 1420 0 33 1 33 0 33
1 207 0 34 1 32 0 30
1 591 0 34 1 34 0 34
1 565 0 47 1 48 0 48
0 40 1 40 0 40 1 454
1 1349 0 65 1 65 0 49
0 37 1 38 0 38 1 1224
1 309 0 46 1 45 0 45
1 386 0 60 1 143 0 45
0 47 1 58 0 47 1 1197
0 44 1 67 0 44 1 551
0 49 1 94 0 64 1 2802
1 693 0 47 1 55 0 55
1 1312 0 34 1 37 0 34
1 818 0 65 1 65 0 55
1 957 0 73 1 374 0 62
0 39 1 49 0 49 1 1506
1 225 0 57 1 43 0 43
1 693 0 38 1 38 0 36
0 37 1 37 0 37 1 282
0 37 1 38 0 38 1 3178
0 40 1 42 0 45 1 891
1 148 0 39 1 39 0 38
0 41 1 44 0 44 1 1763
0 43 1 47 0 47 1 309
0 42 1 42 0 40 1 1512
0 44 1 45 0 45 1 426
1 491 0 37 1 37 0 37
1 175 0 51 1 51 0 43
1 192 0 40 1 40 0 40
1 56 0 38 1 38 0 38
1 3784 0 50 1 53 0 50
1 1077 0 46 1 86 0 46
0 39 1 45 0 45 1 1736
0 43 1 43 0 39 1 368
0 48 1 48 0 48 1 367
0 42 1 44 0 44 1 660
0 36 1 40 0 40 1 168
0 32 1 32 0 36 1 396
1 722 0 45 1 45 0 45
1 168 0 50 1 50 0 39
0 49 1 49 0 49 1 829
1 1720 0 42 1 41 0 40
1 355 0 30 1 32 0 30
0 47 1 47 0 47 1 323
0 47 1 52 0 52 1 856
0 47 1 86 0 86 1 454
0 44 1 46 0 46 1 3555
1 374 0 52 1 52 0 46
1 269 0 43 1 41 0 41
0 54 1 110 0 58 1 1558
1 2105 0 50 1 54 0 51
1 1178 0 38 1 38 0 34
1 820 0 38 1 38 0 38
1 188 0 41 1 38 0 36
0 42 1 42 0 42 1 791
1 189 0 53 1 141 0 43
1 1976 0 51 1 378 0 43
0 38 1 69 0 38 1 1197
1 1817 0 42 1 36 0 36
0 41 1 41 0 41 1 531
0 39 1 56 0 56 1 80
0 43 1 50 0 50 1 990
1 3130 0 47 1 44 0 40
0 49 1 55 0 55 1 1585
0 42 1 45 0 45 1 401
1 123 0 56 1 105 0 46
1 733 0 47 1 47 0 43
1 393 0 38 1 37 0 37
1 1611 0 45 1 46 0 46
1 749 0 59 1 59 0 53
0 37 1 37 0 37 1 224
1 159 0 35 1 35 0 35
1 841 0 39 1 168 0 38
1 635 0 48 1 42 0 42
1 134 0 46 1 46 0 45
1 633 0 42 1 42 0 42
0 45 1 1666 0 50 1 965
1 106 0 41 1 41 0 36
1 574 0 40 1 40 0 40
0 51 1 51 0 51 1 1153
1 106 0 43 1 43 0 43
0 63 1 66 0 66 1 1070
1 1251 0 52 1 52 0 49
0 37 1 57 0 37 1 157
1 192 0 35 1 35 0 35
1 195 0 46 1 46 0 45
1 1828 0 67 1 604 0 53
0 36 1 44 0 44 1 414
0 37 1 37 0 37 1 127
0 41 1 41 0 41 1 361
1 620 0 37 1 37 0 37
0 54 1 408 0 66 1 2060
0 43 1 43 0 42 1 653
1 193 0 43 1 37 0 35
0 37 1 37 0 40 1 151
0 53 1 73 0 55 1 1021
0 51 1 65 0 58 1 480
1 478 0 35 1 35 0 35
0 46 1 60 0 60 1 4396
0 44 1 101 0 49 1 1029
1 2654 0 74 1 137 0 58
0 44 1 44 0 44 1 494
0 48 1 50 0 50 1 676
1 280 0 47 1 47 0 39
1 1251 0 44 1 46 0 44
1 1826 0 56 1 68 0 46
1 347 0 38 1 38 0 38
1 721 0 54 1 71 0 46
0 46 1 46 0 46 1 599
1 275 0 44 1 44 0 42
1 782 0 31 1 31 0 31
0 45 1 45 0 45 1 1549
0 53 1 1690 0 63 1 1574
0 41 1 56 0 56 1 246
0 37 1 39 0 40 1 119
0 43 1 43 0 43 1 416
1 585 0 56 1 56 0 51
0 58 1 58 0 52 1 279
1 890 0 46 1 46 0 41
1 643 0 40 1 47 0 39
1 749 0 51 1 51 0 41
1 673 0 59 1 59 0 46
0 54 1 54 0 44 1 408
1 764 0 51 1 46 0 46
0 53 1 53 0 57 1 1145
0 34 1 42 0 40 1 213
1 416 0 39 1 39 0 37
1 211 0 36 1 36 0 34
1 556 0 39 1 39 0 35
1 695 0 48 1 48 0 48
0 38 1 40 0 40 1 189
1 130 0 40 1 45 0 45
1 87 0 41 1 44 0 44
0 35 1 46 0 46 1 250
1 812 0 51 1 51 0 48
0 34 1 34 0 36 1 162
0 32 1 34 0 46 1 124
0 42 1 42 0 42 1 587
1 86 0 37 1 37 0 37
0 42 1 42 0 46 1 259
1 113 0 47 1 46 0 37
1 84 0 40 1 47 0 47
0 35 1 40 0 40 1 268
0 38 1 38 0 38 1 433
0 39 1 582 0 60 1 186
1 210 0 62 1 62 0 54
1 249 0 35 1 34 0 34
1 117 0 41 1 41 0 34
1 705 0 36 1 36 0 36
0 37 1 37 0 41 1 99
0 42 1 42 0 42 1 90
0 36 1 36 0 43 1 371
0 37 1 37 0 37 1 158
0 54 1 54 0 54 1 1350
0 50 1 40 0 40 1 1244
1 406 0 53 1 53 0 53
0 42 1 42 0 42 1 716
0 44 1 44 0 44 1 589
0 56 1 79 0 70 1 1075
1 143 0 44 1 105 0 43
1 2297 0 50 1 50 0 35
0 51 1 52 0 42 1 533
1 2971 0 48 1 43 0 43
1 190 0 51 1 51 0 42
1 475 0 33 1 44 0 44
1 212 0 44 1 44 0 44
0 38 1 38 0 38 1 124
1 387 0 49 1 49 0 39
0 38 1 38 0 35 1 163
0 40 1 222 0 41 1 1927
1 495 0 39 1 39 0 33
0 36 1 36 0 36 1 101
1 525 0 55 1 55 0 48
0 38 1 38 0 38 1 249
1 269 0 42 1 37 0 37
0 42 1 47 0 47 1 555
0 36 1 42 0 49 1 228
1 3940 0 38 1 38 0 38
0 51 1 51 0 53 1 324
0 40 1 40 0 45 1 4859
1 318 0 40 1 40 0 35
0 48 1 52 0 52 1 840
1 178 0 43 1 43 0 43
0 38 1 42 0 42 1 1446
1 169 0 55 1 55 0 44
1 386 0 46 1 46 0 39
0 35 1 35 0 35 1 182
1 331 0 55 1 55 0 42
1 397 0 41 1 99 0 40
1 812 0 41 1 44 0 36
0 39 1 45 0 45 1 458
1 165 0 33 1 35 0 35
1 982 0 64 1 355 0 52
0 31 1 37 0 37 1 2780
0 36 1 37 0 37 1 456
1 844 0 40 1 40 0 37
0 38 1 38 0 38 1 83
1 148 0 40 1 40 0 37
0 37 1 44 0 44 1 183
0 52 1 52 0 37 1 153
0 41 1 42 0 54 1 411
1 450 0 41 1 116 0 46
0 44 1 49 0 49 1 540
1 2450 0 94 1 122 0 71
1 346 0 45 1 45 0 42
1 499 0 45 1 45 0 45
1 136 0 46 1 46 0 46
0 38 1 39 0 40 1 769
0 34 1 34 0 45 1 551
0 51 1 51 0 43 1 822
1 345 0 43 1 43 0 42
1 3459 0 82 1 82 0 82
1 120 0 40 1 40 0 38
0 46 1 54 0 54 1 1219
1 188 0 39 1 37 0 35
0 40 1 40 0 40 1 284
1 690 0 64 1 64 0 53
0 49 1 55 0 55 1 519
0 31 1 32 0 34 1 116
1 200 0 40 1 40 0 40
1 410 0 49 1 49 0 44
1 1487 0 48 1 52 0 47
1 407 0 46 1 46 0 42
1 1294 0 43 1 48 0 48
1 708 0 40 1 41 0 41
1 173 0 37 1 37 0 37
1 182 0 38 1 34 0 34
1 222 0 44 1 59 0 44
0 41 1 41 0 41 1 159
1 775 0 54 1 54 0 45
0 61 1 87 0 68 1 1073
1 634 0 41 1 44 0 44
0 43 1 43 0 43 1 1260
0 47 1 47 0 47 1 1135
1 434 0 74 1 74 0 47
1 1717 0 66 1 399 0 52
0 39 1 40 0 40 1 2474
0 59 1 59 0 70 1 718
0 37 1 41 0 41 1 242
0 44 1 44 0 50 1 775
1 582 0 59 1 55 0 45
1 540 0 49 1 84 0 49
1 886 0 49 1 49 0 46
1 702 0 36 1 55 0 39
1 546 0 42 1 40 0 40
1 871 0 72 1 72 0 71
1 381 0 51 1 75 0 41
1 256 0 46 1 57 0 49
0 40 1 43 0 47 1 1682
1 163 0 37 1 136 0 34
0 54 1 59 0 59 1 945
1 1286 0 32 1 32 0 32
1 755 0 61 1 61 0 54
1 96 0 40 1 38 0 38
0 32 1 33 0 33 1 1397
0 33 1 33 0 33 1 824
0 42 1 47 0 47 1 602
0 45 1 117 0 49 1 515
0 43 1 43 0 43 1 1239
1 1629 0 47 1 47 0 44
1 444 0 36 1 36 0 35
1 98 0 47 1 49 0 44
0 47 1 47 0 47 1 846
0 40 1 40 0 40 1 194
1 247 0 41 1 41 0 40
1 139 0 42 1 42 0 38
1 868 0 46 1 46 0 46
0 44 1 44 0 44 1 1237
0 54 1 79 0 69 1 1961
1 1365 0 42 1 42 0 36
1 699 0 56 1 59 0 59
1 230 0 55 1 55 0 50
1 300 0 42 1 41 0 41
1 1141 0 41 1 201 0 41
0 47 1 47 0 47 1 215
1 1001 0 60 1 60 0 49
0 56 1 56 0 56 1 212
0 53 1 50 0 50 1 1095
0 46 1 344 0 39 1 1545
1 384 0 51 1 51 0 40
1 337 0 35 1 35 0 34
0 52 1 81 0 62 1 1149
1 856 0 46 1 46 0 46
0 40 1 63 0 40 1 405
1 129 0 47 1 39 0 39
0 40 1 47 0 47 1 952
1 913 0 46 1 46 0 43
0 44 1 46 0 45 1 4267
1 700 0 35 1 35 0 35
0 41 1 47 0 41 1 232
1 615 0 47 1 46 0 40
0 49 1 69 0 62 1 1087
0 41 1 43 0 51 1 3207
0 47 1 52 0 52 1 3358
1 1376 0 57 1 57 0 57
0 38 1 42 0 42 1 2163
0 40 1 48 0 48 1 136
0 35 1 37 0 37 1 229
0 43 1 43 0 43 1 2009
0 38 1 38 0 38 1 291
0 39 1 40 0 40 1 271
1 171 0 47 1 45 0 35
0 36 1 38 0 42 1 464
0 40 1 40 0 38 1 537
1 1613 0 41 1 159 0 41
1 297 0 41 1 42 0 42
0 49 1 61 0 61 1 295
1 483 0 42 1 92 0 42
0 45 1 45 0 44 1 373
1 546 0 46 1 46 0 46
1 645 0 36 1 54 0 54
0 38 1 40 0 40 1 761
1 1203 0 38 1 38 0 38
0 51 1 59 0 59 1 1240
0 44 1 106 0 47 1 807
1 161 0 46 1 43 0 43
1 2161 0 53 1 67 0 67
1 104 0 31 1 31 0 31
0 39 1 43 0 43 1 832
0 35 1 44 0 44 1 1575
0 51 1 51 0 51 1 1313
1 531 0 56 1 56 0 51
0 65 1 88 0 63 1 727
0 42 1 42 0 54 1 422
1 611 0 54 1 54 0 48
0 45 1 55 0 55 1 378
0 39 1 39 0 39 1 179
1 1151 0 39 1 44 0 39
0 33 1 39 0 39 1 52
1 228 0 44 1 44 0 44
0 57 1 57 0 57 1 436
1 318 0 45 1 45 0 42
0 42 1 55 0 55 1 413
0 37 1 37 0 37 1 3741
1 556 0 45 1 45 0 33
1 323 0 54 1 54 0 43
1 1000 0 54 1 230 0 52
0 46 1 55 0 55 1 515
1 858 0 41 1 41 0 38
1 191 0 49 1 49 0 39
0 40 1 40 0 40 1 440
1 113 0 45 1 45 0 45
0 57 1 63 0 63 1 1390
1 165 0 75 1 75 0 55
1 2111 0 57 1 57 0 50
1 443 0 47 1 48 0 48
0 38 1 38 0 38 1 247
1 776 0 46 1 144 0 41
0 51 1 51 0 36 1 993
0 42 1 42 0 42 1 539
1 924 0 43 1 43 0 43
1 124 0 41 1 41 0 41
1 338 0 51 1 65 0 65
1 1006 0 67 1 67 0 57
0 46 1 46 0 46 1 835
1 214 0 37 1 43 0 43
1 176 0 47 1 59 0 59
0 44 1 3635 0 45 1 688
1 170 0 40 1 40 0 40
0 38 1 42 0 42 1 108
0 48 1 58 0 58 1 594
1 806 0 43 1 43 0 39
1 1295 0 52 1 55 0 55
0 44 1 63 0 44 1 844
1 559 0 44 1 44 0 42
1 197 0 39 1 39 0 39
1 3147 0 38 1 51 0 38
1 2080 0 56 1 56 0 46
1 608 0 54 1 54 0 46
0 43 1 46 0 46 1 2088
0 40 1 42 0 42 1 1977
1 533 0 45 1 70 0 45
0 42 1 42 0 38 1 825
0 32 1 32 0 32 1 48
0 40 1 88 0 44 1 233
0 52 1 57 0 57 1 1646
1 888 0 39 1 39 0 39
1 774 0 36 1 36 0 36
1 427 0 45 1 45 0 45
0 42 1 56 0 44 1 376
0 54 1 716 0 65 1 862
1 163 0 48 1 48 0 48
1 305 0 36 1 36 0 36
0 40 1 47 0 47 1 1578
0 47 1 55 0 55 1 991
0 41 1 41 0 41 1 419
1 66 0 36 1 34 0 34
1 764 0 42 1 66 0 41
1 421 0 45 1 45 0 45
1 342 0 48 1 48 0 40
1 302 0 43 1 47 0 47
1 898 0 45 1 45 0 38
0 37 1 51 0 51 1 1909
0 36 1 36 0 36 1 753
0 36 1 47 0 47 1 305
1 2252 0 76 1 76 0 63
1 77 0 38 1 38 0 38
1 220 0 54 1 90 0 44
0 56 1 56 0 41 1 313
1 3748 0 46 1 46 0 46
0 44 1 54 0 54 1 1410
0 38 1 112 0 43 1 64
0 36 1 36 0 36 1 340
1 656 0 38 1 38 0 38
1 556 0 50 1 50 0 41
0 49 1 49 0 49 1 1041
0 37 1 46 0 46 1 135
1 99 0 40 1 41 0 41
0 44 1 56 0 56 1 2565
1 84 0 35 1 35 0 35
1 441 0 40 1 40 0 40
1 261 0 48 1 47 0 47
0 48 1 48 0 48 1 2103
0 44 1 44 0 44 1 240
1 1076 0 61 1 61 0 44
1 363 0 53 1 53 0 41
0 41 1 41 0 41 1 291
1 391 0 45 1 45 0 45
0 47 1 48 0 48 1 262
1 534 0 35 1 35 0 35
1 87 0 41 1 41 0 41
1 270 0 47 1 50 0 50
0 71 1 393 0 59 1 224
1 95 0 47 1 47 0 45
0 40 1 47 0 47 1 1130
1 4796 0 42 1 103 0 38
0 42 1 52 0 52 1 566
1 434 0 38 1 38 0 38
1 186 0 43 1 127 0 39
0 44 1 55 0 55 1 375
1 196 0 59 1 59 0 46
0 69 1 98 0 98 1 1955
1 365 0 34 1 34 0 34
1 486 0 69 1 69 0 49
1 999 0 45 1 45 0 41
1 788 0 44 1 44 0 38
1 95 0 57 1 57 0 34
0 43 1 43 0 43 1 211
0 32 1 32 0 32 1 878
0 53 1 57 0 57 1 943
1 629 0 39 1 50 0 50
0 42 1 42 0 45 1 539
0 43 1 52 0 52 1 1806
0 37 1 37 0 37 1 61
1 234 0 42 1 48 0 48
0 55 1 55 0 41 1 569
1 51 0 36 1 36 0 36
1 4472 0 62 1 62 0 53
0 40 1 40 0 40 1 710
0 39 1 39 0 39 1 256
1 321 0 51 1 51 0 47
0 49 1 92 0 50 1 476
1 59 0 50 1 50 0 34
1 2485 0 49 1 49 0 48
1 297 0 63 1 75 0 52
0 33 1 44 0 44 1 273
1 1643 0 55 1 59 0 48
0 37 1 39 0 39 1 190
0 40 1 59 0 50 1 50
0 42 1 67 0 42 1 1152
0 32 1 32 0 32 1 601
1 1723 0 45 1 53 0 45
1 940 0 47 1 57 0 46
0 48 1 48 0 38 1 863
1 440 0 37 1 37 0 37
0 63 1 63 0 49 1 3117
1 112 0 47 1 47 0 46
0 39 1 68 0 44 1 458
0 43 1 43 0 43 1 1183
0 40 1 44 0 44 1 787
1 1000 0 49 1 49 0 46
1 1447 0 52 1 52 0 44
0 49 1 51 0 51 1 629
1 128 0 51 1 40 0 40
1 473 0 37 1 37 0 37
0 39 1 39 0 39 1 190
0 39 1 39 0 39 1 1080
0 39 1 39 0 39 1 1134
1 1109 0 64 1 73 0 55
0 43 1 43 0 43 1 826
1 2878 0 44 1 46 0 46
0 36 1 41 0 41 1 513
0 42 1 42 0 39 1 985
0 48 1 57 0 57 1 164
1 3344 0 45 1 45 0 45
1 1045 0 39 1 53 0 39
0 59 1 112 0 68 1 2049
1 1135 0 32 1 34 0 34
1 1636 0 50 1 50 0 38
0 39 1 39 0 44 1 376
1 1726 0 81 1 681 0 67
0 51 1 55 0 50 1 1050
0 47 1 58 0 58 1 1335
1 1144 0 40 1 188 0 41
0 38 1 53 0 53 1 2037
1 222 0 31 1 33 0 33
0 46 1 56 0 56 1 457
0 42 1 42 0 42 1 214
0 35 1 35 0 35 1 290
1 304 0 45 1 45 0 31
1 388 0 42 1 42 0 38
0 39 1 43 0 48 1 245
0 40 1 56 0 56 1 1848
0 42 1 42 0 42 1 699
1 56 0 36 1 31 0 31
0 39 1 39 0 39 1 249
0 45 1 173 0 51 1 721
0 32 1 32 0 32 1 840
0 40 1 48 0 48 1 1190
0 35 1 35 0 35 1 139
1 219 0 37 1 37 0 37
0 51 1 51 0 51 1 242
0 54 1 61 0 61 1 1914
1 400 0 70 1 122 0 53
0 42 1 42 0 47 1 265
1 464 0 45 1 45 0 37
1 439 0 32 1 34 0 34
0 40 1 60 0 60 1 77
1 169 0 36 1 36 0 36
0 41 1 45 0 45 1 1650
0 65 1 374 0 79 1 5020
1 306 0 38 1 38 0 38
0 42 1 42 0 42 1 205
1 1984 0 59 1 59 0 50
0 42 1 42 0 42 1 944
1 665 0 48 1 48 0 48
0 34 1 38 0 38 1 203
0 42 1 47 0 47 1 343
1 261 0 47 1 52 0 52
1 894 0 40 1 40 0 38
1 1376 0 38 1 38 0 38
0 43 1 52 0 52 1 108
1 338 0 53 1 412 0 53
0 51 1 51 0 44 1 1212
0 42 1 42 0 40 1 209
1 1790 0 72 1 79 0 64
1 841 0 38 1 38 0 38
1 2383 0 58 1 305 0 57
1 1759 0 37 1 37 0 40
0 56 1 56 0 55 1 2201
0 41 1 520 0 43 1 517
0 42 1 42 0 42 1 2319
0 38 1 62 0 42 1 387
0 44 1 44 0 44 1 541
0 49 1 49 0 49 1 1127
0 36 1 39 0 60 1 902
1 482 0 35 1 35 0 35
0 62 1 493 0 67 1 730
0 58 1 79 0 62 1 662
1 373 0 48 1 89 0 48
1 121 0 40 1 75 0 40
0 49 1 58 0 58 1 1075
1 1113 0 65 1 132 0 48
1 451 0 42 1 42 0 42
0 47 1 84 0 47 1 97
1 177 0 43 1 339 0 43
1 878 0 41 1 41 0 39
0 43 1 43 0 43 1 407
0 40 1 45 0 45 1 343
1 344 0 61 1 61 0 48
1 385 0 41 1 41 0 39
0 37 1 37 0 37 1 694
0 48 1 53 0 53 1 116
0 42 1 42 0 42 1 209
1 126 0 35 1 32 0 32
0 46 1 57 0 48 1 1662
1 1244 0 44 1 39 0 39
0 35 1 51 0 51 1 244
0 47 1 49 0 49 1 2543
1 246 0 40 1 45 0 45
0 37 1 614 0 36 1 413
0 51 1 415 0 61 1 1178
0 50 1 48 0 48 1 1632
0 39 1 41 0 41 1 172
1 57 0 37 1 37 0 37
1 743 0 43 1 43 0 43
0 43 1 159 0 43 1 492
0 43 1 61 0 61 1 289
0 56 1 56 0 41 1 1377
1 346 0 62 1 62 0 49
0 41 1 41 0 45 1 651
1 180 0 51 1 48 0 45
0 40 1 40 0 40 1 602
1 467 0 34 1 78 0 34
0 45 1 62 0 62 1 490
0 53 1 53 0 39 1 1504
0 62 1 58 0 58 1 979
1 754 0 63 1 63 0 52
0 41 1 41 0 38 1 476
0 38 1 56 0 39 1 134
1 634 0 40 1 39 0 39
1 384 0 44 1 44 0 42
0 38 1 111 0 43 1 346
0 43 1 43 0 43 1 705
0 39 1 39 0 39 1 616
0 44 1 44 0 44 1 523
0 35 1 37 0 37 1 59
1 275 0 50 1 50 0 41
1 1571 0 48 1 51 0 51
0 35 1 35 0 35 1 61
0 38 1 46 0 38 1 1057
0 42 1 44 0 39 1 465
0 55 1 159 0 46 1 410
1 1217 0 56 1 56 0 56
1 132 0 35 1 35 0 35
1 395 0 45 1 45 0 40
1 120 0 37 1 36 0 36
1 419 0 38 1 38 0 38
1 449 0 48 1 48 0 47
0 35 1 39 0 39 1 77
1 134 0 40 1 37 0 37
1 328 0 37 1 37 0 37
0 35 1 35 0 35 1 408
0 30 1 30 0 30 1 350
1 447 0 39 1 39 0 39
1 584 0 30 1 44 0 31
0 36 1 40 0 40 1 6695
0 60 1 100 0 65 1 2198
1 1448 0 48 1 48 0 38
1 40 0 36 1 36 0 34
0 46 1 52 0 52 1 2609
1 180 0 32 1 32 0 32
1 175 0 37 1 37 0 37
1 328 0 45 1 45 0 45
0 59 1 59 0 59 1 2895
1 394 0 46 1 40 0 40
0 53 1 56 0 56 1 66
1 1567 0 83 1 83 0 53
0 48 1 51 0 51 1 3246
1 1677 0 47 1 47 0 45
0 35 1 35 0 35 1 1433
0 40 1 40 0 40 1 157
1 212 0 40 1 40 0 36
0 49 1 49 0 57 1 2700
0 39 1 40 0 40 1 676
1 1171 0 33 1 37 0 37
0 57 1 58 0 65 1 1267
0 46 1 46 0 46 1 94
0 39 1 40 0 40 1 276
0 42 1 46 0 46 1 694
0 47 1 47 0 45 1 491
0 41 1 43 0 43 1 97
0 39 1 45 0 45 1 728
1 277 0 41 1 41 0 41
1 634 0 51 1 49 0 45
1 3363 0 77 1 127 0 66
0 42 1 42 0 42 1 543
1 438 0 39 1 39 0 33
0 43 1 43 0 40 1 1542
1 2134 0 56 1 94 0 53
1 405 0 38 1 38 0 38
1 1301 0 48 1 48 0 37
0 37 1 37 0 44 1 78
1 519 0 45 1 45 0 40
0 37 1 37 0 37 1 273
0 35 1 35 0 35 1 105
0 39 1 39 0 39 1 153
0 51 1 68 0 68 1 471
0 42 1 50 0 50 1 1095
1 3061 0 50 1 50 0 50
1 97 0 47 1 44 0 44
1 152 0 41 1 41 0 38
1 94 0 51 1 51 0 41
1 124 0 57 1 47 0 40
1 776 0 51 1 51 0 58
0 38 1 38 0 37 1 195
1 1733 0 47 1 47 0 33
0 43 1 43 0 42 1 584
0 60 1 502 0 66 1 3128
1 186 0 60 1 60 0 58
0 59 1 73 0 63 1 432
1 394 0 46 1 46 0 45
0 41 1 49 0 49 1 475
0 33 1 37 0 37 1 866
1 231 0 41 1 41 0 41
1 271 0 48 1 48 0 47
0 37 1 37 0 37 1 1485
0 56 1 56 0 44 1 1202
1 104 0 50 1 50 0 50
0 48 1 48 0 52 1 613
0 51 1 53 0 53 1 538
1 1199 0 43 1 43 0 43
0 40 1 43 0 45 1 273
0 40 1 40 0 40 1 455
0 36 1 36 0 36 1 1896
0 37 1 37 0 38 1 387
0 43 1 43 0 43 1 355
1 228 0 43 1 42 0 42
0 44 1 44 0 40 1 224
0 36 1 40 0 44 1 806
1 3658 0 46 1 46 0 39
1 170 0 37 1 37 0 37
1 627 0 52 1 58 0 58
1 3285 0 54 1 54 0 44
0 56 1 56 0 40 1 835
0 39 1 43 0 43 1 932
1 400 0 61 1 61 0 54
0 37 1 39 0 39 1 138
1 1572 0 57 1 54 0 44
0 45 1 58 0 58 1 2063
0 38 1 39 0 39 1 190
1 487 0 42 1 79 0 40
1 784 0 37 1 37 0 37
1 202 0 41 1 41 0 41
1 1980 0 51 1 51 0 44
1 93 0 48 1 48 0 37
1 2078 0 35 1 35 0 35
0 50 1 52 0 53 1 1902
0 33 1 40 0 40 1 853
0 40 1 43 0 43 1 1622
1 310 0 47 1 37 0 35
1 711 0 53 1 53 0 41
1 479 0 75 1 75 0 61
1 2129 0 49 1 198 0 48
0 45 1 45 0 49 1 1225
0 45 1 46 0 46 1 1189
1 735 0 53 1 53 0 53
0 36 1 58 0 39 1 391
0 49 1 60 0 58 1 295
1 1045 0 34 1 34 0 34
0 51 1 59 0 59 1 1679
1 711 0 59 1 157 0 47
1 399 0 54 1 63 0 55
1 292 0 40 1 40 0 40
1 1058 0 42 1 42 0 42
1 1319 0 70 1 70 0 53
1 822 0 46 1 46 0 43
1 279 0 51 1 49 0 44
0 66 1 198 0 61 1 2111
0 44 1 47 0 47 1 1812
1 110 0 56 1 56 0 48
0 39 1 39 0 39 1 72
1 585 0 48 1 41 0 41
0 49 1 68 0 68 1 283
0 43 1 43 0 38 1 718
0 36 1 44 0 44 1 754
1 1151 0 67 1 56 0 56
1 1207 0 70 1 70 0 58
0 42 1 42 0 42 1 816
1 105 0 38 1 109 0 37
1 827 0 42 1 42 0 40
1 2390 0 43 1 43 0 39
1 486 0 41 1 101 0 41
1 1203 0 58 1 58 0 54
1 618 0 44 1 44 0 42
1 599 0 50 1 44 0 42
1 173 0 38 1 38 0 38
0 49 1 54 0 54 1 281
0 39 1 46 0 59 1 106
0 44 1 46 0 46 1 860
1 389 0 39 1 45 0 45
0 52 1 128 0 67 1 3519
0 43 1 43 0 43 1 805
1 1383 0 55 1 50 0 46
0 42 1 42 0 42 1 266
1 211 0 40 1 40 0 36
1 705 0 71 1 62 0 55
1 1025 0 71 1 71 0 48
1 181 0 47 1 47 0 47
0 35 1 46 0 45 1 199
0 45 1 45 0 35 1 1115
0 36 1 36 0 36 1 167
1 2089 0 45 1 45 0 45
1 85 0 48 1 48 0 41
0 41 1 49 0 49 1 886
0 34 1 35 0 35 1 460
1 686 0 36 1 35 0 34
0 53 1 53 0 53 1 1384
0 37 1 41 0 41 1 174
0 50 1 50 0 50 1 744
1 179 0 45 1 45 0 38
0 40 1 41 0 41 1 464
1 1478 0 44 1 55 0 48
0 40 1 42 0 42 1 116
0 46 1 52 0 52 1 75
1 216 0 44 1 44 0 34
0 42 1 48 0 48 1 63
0 37 1 40 0 40 1 235
0 39 1 101 0 45 1 729
0 47 1 74 0 59 1 427
0 49 1 62 0 62 1 439
0 41 1 138 0 41 1 251
0 36 1 37 0 37 1 154
1 1247 0 55 1 233 0 49
0 44 1 44 0 44 1 4300
1 1343 0 49 1 193 0 48
0 57 1 82 0 82 1 1378
0 52 1 63 0 63 1 3260
1 267 0 34 1 34 0 34
1 225 0 41 1 41 0 40
0 44 1 46 0 46 1 945
0 33 1 40 0 40 1 425
0 40 1 40 0 38 1 172
1 500 0 46 1 46 0 46
1 853 0 48 1 45 0 45
1 1544 0 46 1 39 0 39
0 48 1 48 0 52 1 316
1 552 0 44 1 44 0 36
1 662 0 34 1 34 0 34
1 393 0 42 1 42 0 37
1 1504 0 69 1 157 0 53
0 47 1 50 0 50 1 193
0 39 1 39 0 39 1 743
0 44 1 138 0 44 1 203
0 40 1 40 0 49 1 1283
1 1070 0 33 1 33 0 33
1 754 0 44 1 289 0 43
1 683 0 35 1 35 0 34
1 163 0 50 1 49 0 38
0 46 1 46 0 46 1 279
0 40 1 45 0 45 1 1850
1 153 0 42 1 42 0 42
1 196 0 56 1 56 0 56
0 34 1 35 0 35 1 640
1 929 0 55 1 55 0 40
0 36 1 36 0 36 1 68
1 157 0 51 1 70 0 51
1 708 0 66 1 66 0 46
1 157 0 52 1 75 0 48
0 51 1 74 0 64 1 2190
1 653 0 41 1 41 0 41
1 834 0 52 1 52 0 40
1 2594 0 53 1 1195 0 46
1 114 0 48 1 48 0 37
1 1555 0 50 1 50 0 50
1 410 0 44 1 47 0 47
1 309 0 44 1 44 0 38
0 44 1 44 0 45 1 200
1 598 0 55 1 55 0 46
0 46 1 50 0 51 1 443
0 38 1 38 0 38 1 162
0 39 1 39 0 39 1 1126
1 4322 0 46 1 35 0 35
0 41 1 45 0 45 1 144
1 2282 0 56 1 71 0 53
1 311 0 57 1 57 0 42
0 40 1 43 0 43 1 306
0 50 1 50 0 50 1 1014
1 2237 0 37 1 37 0 37
1 223 0 36 1 36 0 36
0 34 1 41 0 39 1 148
1 424 0 49 1 49 0 44
1 373 0 44 1 44 0 40
1 45 0 39 1 37 0 37
1 425 0 54 1 54 0 43
0 45 1 45 0 45 1 317
1 7142 0 40 1 44 0 38
1 1818 0 61 1 61 0 35
0 41 1 57 0 51 1 1145
1 648 0 66 1 66 0 52
0 45 1 56 0 56 1 1023
1 269 0 38 1 36 0 36
0 37 1 39 0 39 1 1429
1 650 0 64 1 64 0 55
0 36 1 37 0 44 1 1186
0 43 1 60 0 43 1 1296
0 48 1 48 0 48 1 483
1 142 0 37 1 35 0 35
1 1641 0 42 1 57 0 42
1 1175 0 56 1 56 0 51
1 104 0 35 1 34 0 34
