Parameters: seed=650984333, s1=0.001000, s2=0.001000, s3=0.001000, s4=0.001000, e12=-0.200000, e13=0.000000, e14=0.000000, e23=0.000000, e24=0.000000, e34=-0.200000, r12=0.000600, r23=0.000600, r34=0.000600, h12=1, h13=1, h14=1, h23=1, h24=1, h34=1 , n_gen=10000000, n_ind=10000 initial freq: 0.000000 0.000000 0.000000 0.000000 0.000000 0.500000 0.000000 0.000000 0.000000 0.000000 0.500000 0.000000 0.000000 0.000000 0.000000 0.000000
1 184 0 46 1 46 0 46
1 157 0 48 1 48 0 37
0 37 1 37 0 36 1 444
0 38 1 44 0 44 1 239
1 1278 0 39 1 39 0 39
0 46 1 46 0 46 1 71
0 47 1 53 0 53 1 1636
1 64 0 45 1 45 0 45
0 44 1 50 0 50 1 338
0 38 1 39 0 39 1 1220
0 46 1 47 0 46 1 649
1 1546 0 44 1 44 0 51
0 55 1 56 0 56 1 257
0 43 1 58 0 43 1 514
0 47 1 47 0 46 1 234
1 86 0 39 1 39 0 39
1 2573 0 41 1 41 0 41
1 107 0 34 1 35 0 35
0 39 1 55 0 55 1 199
0 66 1 66 0 66 1 965
1 101 0 35 1 32 0 32
1 370 0 33 1 33 0 33
0 54 1 55 0 55 1 3746
0 42 1 43 0 43 1 365
1 423 0 38 1 38 0 38
0 39 1 46 0 46 1 381
1 484 0 59 1 59 0 47
0 30 1 33 0 33 1 99
0 41 1 41 0 41 1 177
0 42 1 42 0 42 1 907
0 49 1 49 0 49 1 944
1 116 0 43 1 45 0 43
1 1326 0 58 1 86 0 51
1 560 0 65 1 65 0 49
0 39 1 39 0 39 1 299
1 180 0 48 1 48 0 41
0 42 1 42 0 42 1 1878
0 43 1 43 0 37 1 37
0 41 1 41 0 41 1 97
0 41 1 44 0 44 1 320
0 41 1 41 0 41 1 730
0 39 1 39 0 39 1 704
0 38 1 38 0 38 1 69
1 884 0 55 1 55 0 47
1 100 0 39 1 39 0 39
1 150 0 34 1 34 0 34
1 371 0 42 1 42 0 42
1 36 0 34 1 34 0 34
0 48 1 48 0 48 1 83
0 32 1 32 0 33 1 278
0 42 1 42 0 54 1 224
1 707 0 51 1 51 0 38
0 41 1 41 0 41 1 153
1 370 0 43 1 43 0 43
0 44 1 44 0 40 1 155
1 153 0 37 1 37 0 37
1 521 0 47 1 47 0 43
1 220 0 39 1 35 0 35
1 203 0 41 1 41 0 41
0 39 1 39 0 37 1 667
0 35 1 35 0 35 1 65
0 48 1 55 0 55 1 282
1 2337 0 42 1 354 0 42
0 33 1 43 0 43 1 96
0 42 1 57 0 57 1 336
0 36 1 36 0 36 1 583
0 35 1 35 0 34 1 117
1 877 0 39 1 39 0 37
1 158 0 48 1 43 0 43
0 41 1 41 0 41 1 701
1 196 0 44 1 44 0 44
1 57 0 39 1 39 0 39
1 1149 0 52 1 48 0 45
1 828 0 46 1 46 0 44
1 797 0 34 1 33 0 33
0 48 1 48 0 48 1 2913
1 432 0 37 1 37 0 37
0 41 1 41 0 41 1 157
1 1139 0 42 1 42 0 40
1 1391 0 50 1 50 0 37
0 48 1 52 0 52 1 134
1 59 0 41 1 41 0 40
1 188 0 40 1 40 0 40
1 184 0 49 1 43 0 38
1 1358 0 46 1 38 0 38
1 434 0 49 1 43 0 42
0 39 1 41 0 41 1 84
1 4568 0 74 1 54 0 47
0 36 1 45 0 45 1 364
1 624 0 59 1 59 0 56
0 39 1 40 0 40 1 327
0 46 1 56 0 56 1 173
1 3172 0 56 1 49 0 49
0 36 1 36 0 34 1 94
1 1039 0 37 1 38 0 38
0 42 1 44 0 44 1 128
0 36 1 36 0 46 1 297
1 223 0 42 1 42 0 42
1 99 0 44 1 44 0 44
1 351 0 54 1 54 0 36
0 40 1 40 0 40 1 611
0 52 1 52 0 52 1 165
1 112 0 49 1 49 0 41
0 33 1 33 0 33 1 214
1 309 0 37 1 34 0 34
1 798 0 66 1 66 0 65
1 160 0 37 1 34 0 34
1 934 0 39 1 39 0 39
1 290 0 42 1 42 0 41
0 40 1 40 0 40 1 1193
1 138 0 44 1 45 0 45
0 40 1 40 0 49 1 371
0 52 1 56 0 56 1 429
1 100 0 40 1 40 0 36
1 35 0 35 1 35 0 35
0 41 1 41 0 41 1 340
0 53 1 53 0 53 1 1771
1 2064 0 39 1 43 0 43
0 39 1 55 0 55 1 389
1 1501 0 39 1 39 0 39
1 61 0 43 1 43 0 41
1 238 0 50 1 50 0 50
0 30 1 32 0 32 1 159
0 50 1 51 0 51 1 468
0 36 1 36 0 40 1 127
1 181 0 38 1 40 0 40
1 57 0 40 1 62 0 62
1 2167 0 40 1 40 0 40
1 1829 0 49 1 68 0 53
0 38 1 38 0 38 1 345
1 210 0 58 1 58 0 55
0 37 1 37 0 37 1 185
1 65 0 48 1 48 0 48
0 56 1 56 0 56 1 403
0 35 1 37 0 37 1 1916
0 38 1 38 0 33 1 34
0 35 1 37 0 37 1 382
1 658 0 47 1 39 0 39
0 33 1 33 0 33 1 56
0 42 1 44 0 44 1 1197
1 47 0 47 1 47 0 47
1 114 0 46 1 39 0 38
1 777 0 48 1 314 0 45
1 445 0 40 1 40 0 40
1 87 0 39 1 39 0 39
0 48 1 48 0 48 1 312
1 256 0 40 1 40 0 40
0 34 1 34 0 34 1 68
0 37 1 43 0 43 1 59
1 384 0 57 1 57 0 52
1 710 0 38 1 38 0 38
1 632 0 39 1 39 0 39
1 3349 0 51 1 54 0 54
0 47 1 47 0 47 1 914
0 44 1 44 0 44 1 864
1 411 0 48 1 48 0 45
1 597 0 48 1 48 0 46
0 42 1 42 0 42 1 223
1 1740 0 39 1 39 0 38
0 36 1 79 0 35 1 7107
0 49 1 49 0 49 1 291
1 276 0 45 1 45 0 45
1 51 0 43 1 38 0 38
0 40 1 44 0 44 1 98
0 47 1 55 0 55 1 415
1 2612 0 40 1 40 0 40
1 456 0 45 1 45 0 45
1 2978 0 57 1 57 0 52
0 44 1 44 0 44 1 1422
1 553 0 42 1 42 0 41
1 145 0 47 1 47 0 47
1 47 0 47 1 47 0 35
0 40 1 40 0 40 1 310
1 2400 0 61 1 89 0 51
1 1603 0 47 1 47 0 47
0 42 1 42 0 37 1 123
1 93 0 44 1 44 0 44
1 143 0 40 1 40 0 35
1 121 0 44 1 44 0 44
0 43 1 43 0 43 1 299
0 46 1 49 0 49 1 973
0 38 1 38 0 38 1 38
0 51 1 51 0 38 1 186
1 725 0 42 1 42 0 42
1 457 0 46 1 46 0 46
0 36 1 36 0 36 1 350
0 38 1 41 0 41 1 386
0 46 1 49 0 49 1 1194
0 41 1 41 0 41 1 404
0 37 1 37 0 41 1 76
1 40 0 36 1 36 0 36
1 455 0 36 1 37 0 37
1 1011 0 50 1 50 0 49
1 241 0 53 1 53 0 53
1 39 0 39 1 39 0 39
1 206 0 40 1 40 0 40
1 48 0 39 1 39 0 34
1 154 0 41 1 41 0 41
1 1389 0 65 1 65 0 48
1 83 0 45 1 45 0 42
0 50 1 50 0 50 1 277
0 38 1 38 0 38 1 103
1 519 0 39 1 39 0 39
0 31 1 31 0 31 1 956
0 41 1 41 0 41 1 125
0 40 1 38 0 38 1 116
1 1828 0 50 1 50 0 43
1 833 0 59 1 59 0 47
0 30 1 30 0 30 1 102
1 1880 0 67 1 67 0 49
1 136 0 40 1 40 0 40
0 34 1 45 0 45 1 61
0 45 1 291 0 45 1 143
1 337 0 38 1 38 0 38
1 242 0 62 1 62 0 38
0 41 1 55 0 42 1 127
1 99 0 45 1 45 0 45
0 37 1 37 0 37 1 81
0 35 1 35 0 35 1 249
0 52 1 61 0 61 1 113
1 408 0 55 1 55 0 46
0 46 1 52 0 52 1 677
1 92 0 40 1 40 0 36
1 37 0 36 1 36 0 36
0 33 1 33 0 33 1 61
0 40 1 41 0 41 1 88
0 37 1 37 0 37 1 469
1 335 0 32 1 32 0 32
1 85 0 57 1 57 0 48
1 67 0 43 1 43 0 43
1 80 0 39 1 39 0 39
0 44 1 44 0 44 1 269
0 44 1 56 0 56 1 226
1 388 0 41 1 42 0 42
0 45 1 45 0 45 1 208
0 60 1 60 0 61 1 745
1 130 0 33 1 33 0 34
1 691 0 61 1 240 0 50
1 848 0 37 1 42 0 42
0 36 1 36 0 36 1 431
1 162 0 41 1 41 0 41
0 43 1 48 0 48 1 330
0 44 1 44 0 44 1 63
0 43 1 46 0 47 1 144
0 38 1 38 0 47 1 252
0 40 1 40 0 40 1 794
0 49 1 180 0 55 1 470
0 51 1 51 0 39 1 698
0 42 1 42 0 42 1 347
1 260 0 54 1 54 0 42
0 41 1 41 0 41 1 1172
1 1834 0 42 1 42 0 38
1 1062 0 37 1 37 0 37
1 337 0 53 1 51 0 51
1 80 0 44 1 44 0 44
0 34 1 36 0 36 1 924
0 58 1 58 0 58 1 945
1 109 0 38 1 38 0 38
0 33 1 33 0 31 1 80
0 43 1 66 0 43 1 124
1 31 0 31 1 31 0 31
1 156 0 36 1 36 0 33
1 902 0 69 1 69 0 64
1 84 0 37 1 39 0 39
1 176 0 38 1 41 0 41
1 523 0 36 1 36 0 36
0 45 1 45 0 45 1 488
0 48 1 53 0 48 1 252
1 5368 0 46 1 46 0 46
1 85 0 42 1 42 0 38
0 39 1 39 0 39 1 79
1 1128 0 51 1 51 0 51
1 834 0 48 1 48 0 43
0 44 1 44 0 44 1 1439
0 83 1 117 0 117 1 2567
1 128 0 34 1 34 0 34
0 35 1 35 0 35 1 88
0 37 1 38 0 38 1 245
1 171 0 46 1 46 0 38
1 42 0 42 1 42 0 42
1 129 0 50 1 50 0 50
1 540 0 37 1 35 0 35
1 57 0 35 1 35 0 32
0 57 1 57 0 50 1 210
1 259 0 44 1 356 0 40
0 41 1 41 0 39 1 1864
1 1281 0 51 1 45 0 42
1 1647 0 41 1 40 0 40
1 848 0 41 1 50 0 34
0 50 1 55 0 55 1 456
1 491 0 35 1 35 0 35
1 1424 0 58 1 58 0 58
1 205 0 53 1 53 0 48
0 39 1 39 0 36 1 36
0 43 1 48 0 48 1 305
1 398 0 45 1 121 0 52
0 43 1 43 0 43 1 280
0 41 1 41 0 47 1 239
0 46 1 46 0 46 1 755
0 44 1 50 0 50 1 201
1 1541 0 44 1 44 0 44
0 35 1 35 0 35 1 191
0 49 1 50 0 50 1 1381
1 551 0 45 1 45 0 44
0 59 1 59 0 42 1 275
0 35 1 40 0 40 1 682
1 245 0 36 1 36 0 36
0 38 1 40 0 40 1 186
0 42 1 42 0 42 1 896
1 372 0 54 1 50 0 49
1 999 0 46 1 46 0 46
0 53 1 52 0 50 1 1519
1 845 0 60 1 68 0 48
0 49 1 62 0 62 1 1321
1 40 0 40 1 40 0 31
1 144 0 48 1 48 0 46
1 58 0 37 1 37 0 36
0 46 1 46 0 46 1 997
1 106 0 44 1 44 0 44
1 1817 0 46 1 46 0 43
0 39 1 40 0 40 1 72
0 42 1 42 0 42 1 1739
1 100 0 46 1 169 0 42
1 37 0 37 1 37 0 37
1 68 0 35 1 35 0 35
1 300 0 38 1 38 0 37
1 349 0 43 1 44 0 43
1 938 0 37 1 37 0 35
0 39 1 39 0 39 1 139
0 41 1 51 0 51 1 1829
0 38 1 38 0 38 1 1298
1 95 0 42 1 42 0 42
1 93 0 38 1 39 0 39
1 466 0 40 1 43 0 43
0 40 1 45 0 45 1 1047
1 510 0 38 1 38 0 38
0 42 1 42 0 42 1 774
0 32 1 36 0 36 1 277
1 1406 0 56 1 65 0 65
1 70 0 39 1 39 0 36
0 50 1 50 0 50 1 1841
1 636 0 50 1 50 0 42
0 37 1 37 0 37 1 351
0 39 1 51 0 51 1 2570
1 152 0 36 1 36 0 36
0 34 1 34 0 34 1 100
0 40 1 40 0 40 1 1006
1 125 0 36 1 36 0 36
0 59 1 99 0 61 1 1771
0 45 1 48 0 48 1 116
0 41 1 41 0 31 1 547
1 525 0 44 1 44 0 43
1 586 0 43 1 43 0 40
1 47 0 36 1 36 0 36
1 1620 0 58 1 63 0 63
0 35 1 35 0 35 1 45
1 1231 0 42 1 41 0 41
0 45 1 45 0 46 1 533
1 1723 0 39 1 39 0 39
0 43 1 44 0 47 1 186
0 36 1 36 0 36 1 297
1 38 0 38 1 38 0 38
0 46 1 50 0 50 1 585
1 290 0 46 1 46 0 46
0 46 1 46 0 46 1 610
1 543 0 64 1 64 0 53
1 954 0 40 1 49 0 40
1 72 0 64 1 61 0 57
0 60 1 82 0 77 1 2141
1 116 0 48 1 48 0 40
0 44 1 44 0 44 1 347
0 36 1 41 0 41 1 631
0 43 1 43 0 43 1 603
1 897 0 40 1 40 0 40
0 44 1 44 0 44 1 67
1 128 0 41 1 41 0 35
1 1119 0 39 1 39 0 39
1 609 0 38 1 38 0 38
0 45 1 45 0 45 1 355
0 65 1 65 0 50 1 76
0 45 1 45 0 45 1 469
0 31 1 31 0 31 1 64
1 244 0 40 1 40 0 40
1 296 0 51 1 51 0 42
1 3056 0 52 1 52 0 52
0 36 1 36 0 44 1 127
1 219 0 39 1 39 0 39
0 37 1 43 0 43 1 319
0 71 1 142 0 78 1 1158
0 51 1 51 0 45 1 167
0 57 1 75 0 75 1 1955
1 811 0 39 1 39 0 39
1 1298 0 59 1 59 0 55
1 270 0 36 1 38 0 38
0 45 1 48 0 48 1 620
1 469 0 44 1 44 0 40
0 38 1 39 0 40 1 305
0 47 1 55 0 55 1 397
0 47 1 47 0 50 1 2781
1 816 0 39 1 39 0 39
1 100 0 35 1 35 0 35
1 462 0 45 1 45 0 45
1 560 0 52 1 52 0 48
1 87 0 38 1 38 0 38
0 45 1 45 0 45 1 101
0 40 1 55 0 55 1 154
0 50 1 50 0 50 1 50
0 39 1 39 0 39 1 482
1 926 0 33 1 33 0 32
0 34 1 34 0 34 1 525
1 142 0 50 1 50 0 44
0 48 1 48 0 50 1 299
1 80 0 42 1 42 0 42
0 40 1 40 0 40 1 96
1 1977 0 57 1 57 0 57
0 38 1 38 0 38 1 1825
0 39 1 39 0 39 1 191
0 45 1 3335 0 49 1 900
1 246 0 39 1 35 0 35
0 44 1 51 0 51 1 304
1 252 0 40 1 37 0 37
0 39 1 39 0 57 1 2521
0 40 1 40 0 40 1 61
0 39 1 39 0 39 1 1464
0 43 1 46 0 46 1 91
1 1243 0 41 1 41 0 41
0 36 1 36 0 36 1 569
1 252 0 53 1 53 0 44
0 39 1 39 0 39 1 60
1 331 0 43 1 43 0 43
0 49 1 49 0 49 1 95
1 561 0 41 1 41 0 41
1 373 0 47 1 47 0 47
0 38 1 38 0 38 1 71
1 266 0 41 1 41 0 41
0 42 1 42 0 41 1 41
0 44 1 45 0 45 1 296
0 71 1 566 0 73 1 715
1 300 0 56 1 48 0 47
0 41 1 41 0 41 1 715
1 218 0 35 1 35 0 33
0 40 1 40 0 40 1 674
0 54 1 54 0 51 1 338
1 230 0 36 1 36 0 35
1 392 0 45 1 45 0 45
1 1405 0 49 1 49 0 44
1 439 0 41 1 41 0 41
0 45 1 59 0 59 1 219
0 37 1 37 0 37 1 62
1 269 0 38 1 38 0 38
1 168 0 40 1 42 0 42
1 253 0 42 1 42 0 35
1 172 0 45 1 37 0 37
0 35 1 35 0 41 1 580
1 274 0 44 1 44 0 41
1 757 0 83 1 83 0 46
1 251 0 44 1 44 0 44
1 2003 0 43 1 43 0 43
0 49 1 49 0 34 1 367
1 649 0 45 1 45 0 45
1 567 0 52 1 52 0 45
1 2451 0 43 1 43 0 43
1 939 0 47 1 47 0 47
1 131 0 38 1 38 0 38
1 442 0 34 1 37 0 37
0 53 1 68 0 68 1 68
0 40 1 40 0 40 1 285
1 267 0 41 1 41 0 41
1 640 0 37 1 37 0 37
0 41 1 41 0 41 1 564
0 51 1 55 0 55 1 1910
1 249 0 40 1 42 0 42
1 282 0 36 1 36 0 36
1 44 0 35 1 35 0 34
0 39 1 39 0 39 1 72
0 36 1 36 0 36 1 374
0 35 1 35 0 35 1 41
1 373 0 45 1 48 0 48
0 38 1 38 0 38 1 1314
0 43 1 43 0 43 1 184
1 2688 0 40 1 40 0 40
0 58 1 58 0 54 1 165
1 136 0 31 1 31 0 31
0 35 1 35 0 35 1 375
0 34 1 34 0 34 1 2006
1 702 0 36 1 36 0 36
1 210 0 45 1 45 0 45
0 35 1 38 0 38 1 471
1 37 0 37 1 37 0 37
1 1016 0 46 1 46 0 46
1 1154 0 55 1 148 0 55
0 42 1 42 0 42 1 236
0 43 1 43 0 43 1 605
1 126 0 33 1 33 0 32
1 1027 0 60 1 60 0 50
0 40 1 40 0 40 1 728
1 568 0 43 1 43 0 43
1 843 0 52 1 52 0 52
1 562 0 49 1 49 0 36
1 623 0 38 1 38 0 37
0 54 1 54 0 53 1 130
1 40 0 40 1 40 0 40
0 51 1 63 0 63 1 489
0 35 1 35 0 39 1 129
1 142 0 40 1 40 0 36
0 38 1 49 0 49 1 106
1 460 0 40 1 40 0 40
1 199 0 60 1 60 0 43
0 37 1 37 0 37 1 249
0 39 1 58 0 58 1 261
1 154 0 42 1 42 0 41
1 170 0 35 1 35 0 32
1 2214 0 44 1 44 0 44
1 246 0 56 1 56 0 56
1 263 0 42 1 42 0 42
0 41 1 41 0 41 1 223
1 109 0 33 1 33 0 33
1 202 0 72 1 72 0 57
1 186 0 50 1 38 0 38
1 40 0 40 1 40 0 40
1 296 0 41 1 41 0 41
0 41 1 41 0 41 1 138
0 39 1 39 0 35 1 145
0 53 1 58 0 58 1 813
0 38 1 38 0 38 1 516
0 30 1 30 0 30 1 30
0 46 1 593 0 47 1 47
1 107 0 44 1 44 0 44
0 35 1 37 0 37 1 75
0 47 1 47 0 42 1 86
0 39 1 39 0 39 1 385
1 807 0 44 1 44 0 41
1 104 0 52 1 52 0 46
0 37 1 43 0 38 1 106
1 185 0 39 1 52 0 52
0 37 1 37 0 37 1 127
1 2359 0 46 1 46 0 46
1 524 0 42 1 42 0 42
1 306 0 37 1 57 0 57
1 118 0 51 1 51 0 49
1 82 0 43 1 79 0 42
0 44 1 44 0 44 1 1766
1 504 0 45 1 45 0 45
1 43 0 43 1 43 0 43
1 221 0 49 1 49 0 33
1 651 0 48 1 48 0 42
0 45 1 50 0 50 1 131
1 138 0 36 1 39 0 39
0 38 1 38 0 38 1 48
1 388 0 40 1 40 0 40
1 236 0 46 1 42 0 42
1 1322 0 54 1 50 0 50
1 52 0 39 1 39 0 39
0 37 1 51 0 39 1 285
1 115 0 48 1 48 0 44
1 826 0 47 1 47 0 41
0 36 1 36 0 36 1 71
1 907 0 46 1 46 0 45
1 72 0 54 1 54 0 48
1 67 0 43 1 43 0 41
0 39 1 39 0 39 1 261
0 40 1 167 0 40 1 440
0 37 1 37 0 37 1 80
1 647 0 47 1 47 0 47
1 1368 0 62 1 170 0 62
0 38 1 38 0 38 1 193
0 43 1 48 0 48 1 97
0 35 1 35 0 35 1 564
1 303 0 37 1 37 0 37
1 420 0 48 1 48 0 48
1 1144 0 49 1 45 0 43
0 46 1 46 0 46 1 153
0 35 1 35 0 35 1 99
0 41 1 41 0 41 1 212
0 38 1 38 0 38 1 3813
1 483 0 51 1 51 0 50
1 145 0 33 1 33 0 33
0 40 1 206 0 44 1 221
0 40 1 39 0 39 1 99
0 40 1 40 0 40 1 273
0 41 1 48 0 48 1 48
0 35 1 41 0 41 1 58
1 795 0 34 1 34 0 34
0 56 1 62 0 56 1 712
0 39 1 56 0 53 1 149
0 49 1 52 0 52 1 307
0 49 1 49 0 49 1 95
0 40 1 45 0 45 1 255
0 39 1 39 0 34 1 119
1 195 0 46 1 46 0 46
0 52 1 52 0 50 1 2058
1 325 0 45 1 43 0 43
1 162 0 43 1 43 0 31
0 51 1 51 0 51 1 311
0 39 1 39 0 39 1 112
0 36 1 36 0 36 1 136
0 46 1 46 0 46 1 956
1 73 0 39 1 40 0 40
0 34 1 35 0 35 1 132
1 382 0 49 1 49 0 42
0 52 1 56 0 56 1 779
0 49 1 54 0 60 1 1018
0 58 1 64 0 64 1 2219
0 46 1 754 0 69 1 958
0 40 1 40 0 40 1 1255
0 43 1 69 0 53 1 1930
1 458 0 58 1 70 0 51
0 36 1 36 0 36 1 377
0 35 1 39 0 39 1 3434
0 45 1 50 0 50 1 903
1 2342 0 42 1 48 0 42
0 36 1 36 0 36 1 122
1 205 0 44 1 44 0 44
0 48 1 48 0 48 1 3200
0 41 1 41 0 41 1 3093
0 32 1 32 0 45 1 45
1 122 0 32 1 32 0 32
0 38 1 38 0 38 1 69
1 533 0 40 1 40 0 40
0 43 1 43 0 49 1 276
0 39 1 39 0 39 1 379
0 46 1 46 0 46 1 3008
1 136 0 45 1 45 0 40
1 367 0 47 1 51 0 47
0 42 1 42 0 42 1 202
0 50 1 54 0 54 1 2932
0 41 1 41 0 39 1 678
0 49 1 50 0 54 1 778
1 94 0 46 1 46 0 40
0 44 1 63 0 63 1 332
1 649 0 47 1 47 0 43
0 45 1 45 0 45 1 50
1 3559 0 43 1 43 0 43
0 33 1 33 0 33 1 298
1 846 0 38 1 123 0 44
0 36 1 36 0 36 1 106
1 91 0 49 1 49 0 35
0 33 1 36 0 36 1 2357
1 1492 0 37 1 37 0 37
1 32 0 32 1 32 0 32
0 38 1 38 0 38 1 139
1 1724 0 37 1 37 0 37
0 45 1 45 0 45 1 545
1 4083 0 51 1 242 0 46
0 39 1 49 0 49 1 55
1 217 0 40 1 40 0 39
0 61 1 225 0 68 1 1383
0 37 1 37 0 52 1 183
1 196 0 40 1 40 0 40
1 363 0 44 1 44 0 44
1 45 0 40 1 47 0 47
0 35 1 43 0 43 1 359
1 39 0 39 1 39 0 39
0 58 1 58 0 58 1 196
1 52 0 46 1 46 0 40
1 178 0 39 1 39 0 39
0 52 1 58 0 58 1 1121
0 40 1 40 0 39 1 166
0 35 1 35 0 35 1 795
1 100 0 35 1 35 0 34
1 481 0 36 1 48 0 48
1 1763 0 37 1 37 0 37
0 37 1 41 0 41 1 50
1 50 0 34 1 34 0 34
1 293 0 37 1 37 0 35
0 52 1 54 0 54 1 2514
0 40 1 42 0 53 1 950
1 437 0 44 1 44 0 44
1 296 0 40 1 40 0 36
1 743 0 46 1 46 0 36
0 41 1 41 0 39 1 39
1 737 0 43 1 43 0 40
1 121 0 55 1 68 0 53
0 64 1 81 0 81 1 2856
1 523 0 56 1 56 0 54
1 114 0 34 1 34 0 34
0 37 1 43 0 43 1 43
0 43 1 43 0 43 1 2097
0 39 1 39 0 39 1 51
0 43 1 45 0 45 1 157
0 35 1 35 0 35 1 221
0 38 1 39 0 39 1 282
1 240 0 54 1 54 0 46
0 41 1 41 0 41 1 1705
1 1027 0 51 1 51 0 49
0 45 1 50 0 50 1 3874
1 582 0 45 1 45 0 38
0 46 1 73 0 56 1 529
0 34 1 39 0 39 1 297
1 99 0 37 1 39 0 39
1 577 0 35 1 35 0 33
0 39 1 39 0 39 1 382
0 40 1 42 0 42 1 518
0 49 1 49 0 49 1 843
1 264 0 49 1 38 0 38
1 47 0 45 1 45 0 44
1 252 0 38 1 38 0 38
0 41 1 41 0 41 1 305
0 42 1 42 0 42 1 45
1 142 0 41 1 41 0 40
0 39 1 39 0 39 1 1501
0 42 1 42 0 42 1 226
0 37 1 37 0 37 1 120
0 42 1 50 0 50 1 78
0 46 1 46 0 46 1 83
1 46 0 40 1 40 0 30
1 106 0 59 1 59 0 55
0 48 1 126 0 38 1 69
1 2482 0 66 1 65 0 59
0 49 1 57 0 57 1 267
0 37 1 37 0 37 1 2241
1 348 0 38 1 38 0 38
1 3095 0 81 1 46 0 46
0 49 1 52 0 52 1 87
0 47 1 55 0 55 1 1441
0 46 1 46 0 46 1 519
0 40 1 40 0 40 1 106
0 43 1 43 0 43 1 89
0 40 1 40 0 37 1 354
1 220 0 48 1 48 0 48
1 1169 0 44 1 44 0 42
0 46 1 46 0 44 1 113
0 44 1 44 0 44 1 945
1 383 0 53 1 54 0 48
1 195 0 43 1 43 0 39
0 50 1 61 0 61 1 973
1 2008 0 43 1 43 0 43
1 574 0 49 1 49 0 44
0 46 1 46 0 46 1 660
0 47 1 47 0 46 1 1083
1 2001 0 49 1 49 0 49
0 42 1 42 0 49 1 323
1 47 0 47 1 41 0 41
1 671 0 47 1 47 0 47
0 38 1 38 0 38 1 137
1 207 0 56 1 52 0 50
0 45 1 50 0 50 1 89
0 36 1 38 0 38 1 361
0 37 1 38 0 41 1 68
1 991 0 48 1 48 0 48
1 379 0 37 1 36 0 36
0 52 1 60 0 60 1 161
0 37 1 291 0 37 1 73
1 957 0 41 1 41 0 41
1 989 0 54 1 54 0 44
0 38 1 38 0 43 1 1692
1 162 0 42 1 42 0 37
0 47 1 49 0 49 1 92
1 62 0 36 1 36 0 36
0 43 1 43 0 43 1 283
0 37 1 37 0 37 1 384
1 123 0 36 1 36 0 36
0 44 1 44 0 44 1 239
1 65 0 45 1 53 0 53
1 633 0 57 1 195 0 57
1 143 0 36 1 36 0 36
1 511 0 33 1 33 0 33
0 38 1 38 0 37 1 209
0 40 1 40 0 40 1 700
0 33 1 33 0 33 1 33
0 31 1 31 0 31 1 57
0 38 1 38 0 38 1 42
0 36 1 276 0 42 1 261
0 35 1 39 0 39 1 62
0 35 1 35 0 35 1 134
1 686 0 60 1 60 0 45
0 43 1 60 0 60 1 660
0 37 1 37 0 36 1 634
1 63 0 44 1 44 0 44
1 2466 0 45 1 45 0 41
1 239 0 46 1 47 0 47
1 564 0 48 1 48 0 38
0 34 1 34 0 34 1 376
0 37 1 37 0 37 1 625
1 43 0 36 1 37 0 37
1 369 0 49 1 49 0 49
0 42 1 42 0 42 1 885
1 1239 0 55 1 55 0 45
1 515 0 42 1 42 0 42
0 37 1 37 0 37 1 1072
0 39 1 39 0 39 1 191
0 50 1 50 0 53 1 897
1 207 0 40 1 45 0 45
0 34 1 34 0 30 1 189
1 304 0 37 1 37 0 37
0 34 1 34 0 34 1 193
0 35 1 35 0 35 1 62
1 1849 0 57 1 57 0 46
1 278 0 46 1 49 0 49
0 52 1 52 0 52 1 97
1 162 0 44 1 44 0 41
1 224 0 52 1 52 0 47
1 483 0 36 1 36 0 36
0 33 1 33 0 33 1 2448
0 36 1 40 0 40 1 141
1 404 0 46 1 46 0 46
1 92 0 45 1 45 0 45
0 42 1 42 0 42 1 160
1 397 0 61 1 61 0 49
1 830 0 41 1 41 0 41
0 44 1 48 0 48 1 749
1 49 0 33 1 46 0 46
1 115 0 41 1 40 0 37
1 51 0 44 1 44 0 44
0 45 1 45 0 45 1 139
1 261 0 44 1 44 0 44
0 50 1 50 0 50 1 472
1 248 0 52 1 52 0 52
0 44 1 44 0 50 1 164
0 33 1 33 0 33 1 1101
1 98 0 42 1 43 0 43
0 46 1 58 0 58 1 1135
0 38 1 38 0 38 1 292
0 42 1 42 0 42 1 292
0 52 1 52 0 52 1 171
1 37 0 35 1 35 0 35
0 35 1 37 0 37 1 392
1 208 0 44 1 52 0 52
0 34 1 34 0 32 1 313
0 38 1 42 0 42 1 1060
1 2634 0 40 1 40 0 40
0 43 1 43 0 43 1 713
0 43 1 50 0 50 1 187
1 289 0 39 1 39 0 41
1 355 0 39 1 43 0 43
1 63 0 34 1 34 0 32
1 71 0 41 1 44 0 44
1 213 0 40 1 40 0 40
0 33 1 39 0 39 1 251
1 209 0 40 1 40 0 40
0 51 1 51 0 51 1 370
1 161 0 36 1 36 0 36
1 1311 0 55 1 48 0 48
1 729 0 39 1 37 0 37
0 39 1 49 0 47 1 218
1 127 0 43 1 43 0 35
0 41 1 41 0 44 1 298
1 148 0 46 1 75 0 46
0 38 1 38 0 38 1 292
1 1550 0 60 1 61 0 58
1 1426 0 62 1 62 0 46
0 53 1 55 0 55 1 435
1 3475 0 77 1 77 0 45
0 52 1 52 0 52 1 951
0 46 1 46 0 46 1 310
0 33 1 33 0 33 1 1139
1 60 0 52 1 52 0 49
0 42 1 52 0 52 1 1112
0 37 1 37 0 37 1 319
1 142 0 44 1 44 0 36
0 35 1 43 0 43 1 43
0 51 1 51 0 51 1 289
1 4066 0 37 1 77 0 37
0 41 1 41 0 41 1 176
0 37 1 37 0 37 1 73
1 789 0 61 1 66 0 66
1 114 0 45 1 47 0 47
1 65 0 41 1 41 0 41
0 38 1 38 0 38 1 168
1 109 0 40 1 40 0 40
1 139 0 44 1 44 0 44
0 40 1 40 0 40 1 120
1 54 0 35 1 35 0 33
0 42 1 42 0 42 1 99
0 37 1 44 0 44 1 160
0 36 1 37 0 37 1 350
0 45 1 45 0 45 1 52
0 36 1 36 0 36 1 282
1 1049 0 54 1 54 0 51
1 59 0 36 1 36 0 34
1 903 0 47 1 51 0 45
0 48 1 49 0 51 1 173
0 44 1 44 0 44 1 645
0 39 1 46 0 46 1 291
1 1041 0 61 1 61 0 61
1 265 0 43 1 47 0 47
1 74 0 36 1 36 0 36
1 98 0 48 1 49 0 48
1 327 0 36 1 35 0 35
1 391 0 35 1 35 0 35
1 638 0 66 1 66 0 58
0 41 1 41 0 41 1 57
1 400 0 38 1 38 0 38
1 142 0 33 1 33 0 33
0 50 1 50 0 55 1 1046
1 101 0 46 1 46 0 43
0 41 1 41 0 41 1 354
0 43 1 51 0 51 1 559
1 1222 0 45 1 45 0 37
0 36 1 38 0 38 1 78
0 56 1 139 0 82 1 1870
1 33 0 33 1 33 0 33
0 51 1 57 0 57 1 255
1 222 0 40 1 40 0 40
1 1218 0 46 1 46 0 46
1 132 0 31 1 31 0 31
0 40 1 40 0 40 1 679
0 35 1 35 0 35 1 72
0 34 1 34 0 36 1 847
0 40 1 48 0 48 1 345
0 45 1 45 0 45 1 136
0 47 1 215 0 37 1 109
1 284 0 48 1 67 0 48
0 43 1 44 0 53 1 357
1 160 0 34 1 57 0 57
1 365 0 46 1 37 0 35
0 49 1 49 0 49 1 992
0 42 1 42 0 42 1 318
1 518 0 54 1 54 0 48
0 44 1 44 0 44 1 728
0 41 1 41 0 46 1 229
0 52 1 52 0 52 1 407
1 61 0 38 1 38 0 38
0 65 1 67 0 67 1 2013
1 184 0 43 1 43 0 43
1 736 0 44 1 40 0 40
1 477 0 47 1 45 0 44
1 173 0 43 1 43 0 43
1 603 0 62 1 62 0 56
0 38 1 43 0 43 1 340
1 459 0 35 1 35 0 35
1 172 0 47 1 41 0 41
1 47 0 36 1 36 0 35
1 1466 0 37 1 37 0 37
0 47 1 47 0 35 1 359
1 257 0 35 1 41 0 41
1 144 0 41 1 41 0 41
0 63 1 73 0 73 1 255
0 51 1 54 0 54 1 425
1 424 0 60 1 60 0 51
0 37 1 44 0 44 1 210
1 659 0 65 1 65 0 63
0 31 1 31 0 43 1 219
1 480 0 54 1 54 0 51
1 1128 0 45 1 45 0 44
1 52 0 52 1 52 0 46
0 46 1 46 0 46 1 418
1 389 0 50 1 94 0 48
1 223 0 42 1 42 0 42
1 2105 0 48 1 42 0 41
1 76 0 36 1 36 0 36
1 206 0 41 1 41 0 39
0 42 1 43 0 43 1 1083
1 66 0 42 1 171 0 40
0 42 1 42 0 42 1 411
0 41 1 41 0 41 1 58
0 44 1 46 0 46 1 1930
1 111 0 42 1 42 0 41
1 664 0 68 1 68 0 47
0 47 1 47 0 50 1 105
1 399 0 74 1 197 0 65
0 45 1 45 0 34 1 377
0 37 1 37 0 37 1 43
1 3975 0 47 1 47 0 47
0 40 1 40 0 40 1 405
0 44 1 44 0 44 1 211
1 266 0 37 1 37 0 37
0 39 1 39 0 39 1 1139
0 45 1 45 0 45 1 1917
1 2290 0 49 1 49 0 45
1 163 0 32 1 32 0 32
1 878 0 62 1 73 0 54
0 43 1 47 0 47 1 1345
1 156 0 41 1 52 0 52
0 45 1 45 0 45 1 738
1 428 0 40 1 40 0 40
0 40 1 40 0 40 1 63
1 499 0 41 1 41 0 41
1 200 0 35 1 35 0 34
1 147 0 42 1 42 0 42
0 47 1 48 0 48 1 233
1 104 0 36 1 36 0 33
1 290 0 55 1 55 0 55
1 406 0 54 1 45 0 42
1 1043 0 49 1 49 0 39
0 38 1 41 0 41 1 154
0 51 1 51 0 52 1 331
0 39 1 49 0 49 1 223
1 837 0 79 1 79 0 65
0 40 1 50 0 50 1 2153
0 36 1 50 0 50 1 178
1 231 0 38 1 39 0 39
0 37 1 37 0 37 1 154
0 44 1 46 0 46 1 991
0 55 1 55 0 51 1 538
1 173 0 52 1 45 0 45
0 43 1 45 0 45 1 135
1 1392 0 36 1 36 0 35
0 42 1 42 0 42 1 189
1 368 0 52 1 52 0 52
0 46 1 46 0 44 1 3883
0 51 1 58 0 58 1 133
1 99 0 31 1 41 0 41
1 225 0 53 1 156 0 53
1 272 0 40 1 40 0 40
0 49 1 49 0 49 1 648
1 3397 0 44 1 44 0 35
0 43 1 44 0 47 1 1475
0 40 1 50 0 50 1 193
1 245 0 44 1 44 0 43
